0.0032419171120651887
extent : 1.5572079E-4
german : 3.1144157E-4
ccc : 6.2288315E-4
cornsor : 1.16790594E-4
year : 0.0013625569
govern : 3.1144157E-4
bring : 2.725114E-4
addit : 2.725114E-4
defici : 1.9465099E-4
complet : 7.786039E-5
analysi : 2.725114E-4
without : 7.786039E-5
augu : 2.3358119E-4
offer : 1.9465099E-4
suffer : 1.5572079E-4
fix : 7.786039E-5
would : 0.0015182777
substanti : 3.503718E-4
volum : 2.3358119E-4
farm : 1.5572079E-4
outlet : 1.16790594E-4
ten : 7.786039E-5
rang : 1.9465099E-4
subsidiari : 1.5572079E-4
soft : 3.503718E-4
disastr : 7.786039E-5
ad : 5.450228E-4
grow : 7.786039E-5
switzerland : 1.16790594E-4
impact : 2.725114E-4
elig : 1.16790594E-4
percentag : 7.786039E-5
an : 1.16790594E-4
saudi : 3.503718E-4
conserv : 1.5572079E-4
buyer : 4.6716238E-4
journalist : 1.16790594E-4
as : 1.5572079E-4
at : 1.16790594E-4
size : 1.16790594E-4
lyng : 7.786039E-5
left : 1.5572079E-4
asssess : 1.16790594E-4
plant : 2.725114E-4
kansa : 7.786039E-5
juli : 2.725114E-4
detail : 9.3432475E-4
seri : 2.3358119E-4
much : 7.786039E-5
be : 7.786039E-5
affect : 1.5572079E-4
soil : 7.786039E-5
corpor : 1.5572079E-4
result : 4.6716238E-4
rape : 7.786039E-5
domin : 1.5572079E-4
subsid : 1.16790594E-4
releas : 2.725114E-4
by : 1.9465099E-4
franc : 7.786039E-5
wheat : 0.0055670184
insuffici : 7.786039E-5
close : 1.5572079E-4
a : 1.9465099E-4
set : 1.5572079E-4
c : 1.9465099E-4
d : 1.16790594E-4
g : 7.786039E-5
i : 2.725114E-4
staff : 2.3358119E-4
cyrpu : 2.725114E-4
abl : 1.16790594E-4
union : 9.7325497E-4
co : 1.9465099E-4
n : 2.3358119E-4
march : 0.0015182777
soviet : 5.450228E-4
food : 7.786039E-5
o : 7.786039E-5
figur : 9.7325497E-4
the : 0.002141161
sale : 0.0014014872
june : 1.5572079E-4
s : 7.786039E-5
thi : 1.5572079E-4
t : 2.3358119E-4
u : 0.0013236267
v : 0.001167906
w : 7.786039E-5
x : 0.001167906
y : 2.725114E-4
maximum : 2.725114E-4
thursdai : 7.786039E-5
under : 1.16790594E-4
nine : 1.16790594E-4
london : 3.1144157E-4
reserv : 7.7860395E-4
featur : 1.16790594E-4
offic : 1.5572079E-4
vieux : 1.5572079E-4
dl : 7.786039E-5
down : 7.786039E-5
good : 1.9465099E-4
hold : 2.725114E-4
spring : 7.786039E-5
acr : 0.004476973
later : 1.9465099E-4
post : 1.16790594E-4
prior : 1.16790594E-4
sharpli : 2.725114E-4
pai : 7.786039E-5
implement : 7.786039E-5
export : 0.004282322
ec : 9.7325497E-4
area : 1.9465099E-4
richard : 7.786039E-5
which : 1.16790594E-4
initi : 1.5572079E-4
shipment : 1.9465099E-4
need : 1.9465099E-4
european : 4.6716238E-4
equival : 1.5572079E-4
reduc : 1.16790594E-4
respect : 2.3358119E-4
take : 1.5572079E-4
month : 4.282322E-4
canada : 2.3358119E-4
port : 2.3358119E-4
adjust : 1.5572079E-4
activ : 1.9465099E-4
washington : 4.6716238E-4
weekli : 2.3358119E-4
compar : 5.0609256E-4
compet : 1.16790594E-4
loan : 0.0012068362
delai : 1.16790594E-4
ensur : 1.16790594E-4
breakdown : 8.1753416E-4
for : 1.5572079E-4
compani : 7.786039E-5
content : 7.786039E-5
belg : 1.16790594E-4
determin : 7.786039E-5
load : 4.282322E-4
rate : 7.7860395E-4
germani : 1.16790594E-4
combin : 1.5572079E-4
end : 5.450228E-4
ildl : 1.16790594E-4
pct : 8.9539454E-4
spanish : 1.16790594E-4
sold : 7.786039E-5
oat : 5.83953E-4
six : 3.8930197E-4
custom : 2.725114E-4
particip : 3.8930197E-4
go : 7.786039E-5
cicumst : 7.786039E-5
dlr : 8.1753416E-4
rice : 4.6716238E-4
howev : 1.16790594E-4
estim : 7.396738E-4
home : 1.9465099E-4
special : 1.5572079E-4
better : 1.16790594E-4
china : 5.450228E-4
form : 2.725114E-4
certif : 2.725114E-4
there : 1.5572079E-4
permit : 7.786039E-5
farmer : 6.6181336E-4
analyst : 2.3358119E-4
avoid : 1.16790594E-4
grant : 6.6181336E-4
bid : 9.3432475E-4
he : 1.16790594E-4
outlook : 1.16790594E-4
prompt : 7.786039E-5
lichtenstein : 1.9465099E-4
peasant : 1.16790594E-4
colza : 2.725114E-4
big : 7.786039E-5
told : 1.16790594E-4
poland : 3.1144157E-4
ago : 6.6181336E-4
degre : 1.16790594E-4
cargil : 7.786039E-5
soon : 1.16790594E-4
slightli : 1.16790594E-4
number : 6.6181336E-4
promis : 7.786039E-5
variabl : 7.786039E-5
flour : 2.725114E-4
four : 3.1144157E-4
bounti : 7.786039E-5
context : 2.3358119E-4
decemb : 7.786039E-5
ababa : 7.786039E-5
per : 6.6181336E-4
promin : 1.9465099E-4
decis : 1.9465099E-4
if : 1.16790594E-4
french : 0.0010900456
flow : 7.786039E-5
propos : 7.786039E-5
rapidli : 1.16790594E-4
order : 3.1144157E-4
ii : 1.9465099E-4
oct : 7.786039E-5
raini : 7.786039E-5
period : 8.1753416E-4
africa : 7.786039E-5
incent : 1.16790594E-4
in : 3.8930197E-4
belt : 1.16790594E-4
director : 1.5572079E-4
made : 4.6716238E-4
lower : 1.5572079E-4
it : 2.3358119E-4
moistur : 7.786039E-5
iv : 0.0010121851
manag : 1.16790594E-4
melilla : 1.5572079E-4
purchas : 4.6716238E-4
restitut : 1.16790594E-4
reduct : 1.5572079E-4
system : 7.786039E-5
likelihood : 1.5572079E-4
fallow : 1.16790594E-4
field : 1.16790594E-4
singl : 7.786039E-5
gave : 4.282322E-4
begin : 1.16790594E-4
issu : 1.9465099E-4
larger : 7.786039E-5
other : 7.786039E-5
valu : 3.1144157E-4
britain : 1.16790594E-4
brought : 7.786039E-5
enrol : 8.9539454E-4
increas : 2.725114E-4
save : 2.725114E-4
carryov : 7.786039E-5
ussr : 1.5572079E-4
tonn : 0.012379803
summer : 7.786039E-5
settlement : 1.16790594E-4
soymeal : 7.786039E-5
ton : 3.8930197E-4
particularli : 1.16790594E-4
world : 7.786039E-5
file : 1.5572079E-4
mai : 2.3358119E-4
potato : 1.16790594E-4
commiss : 3.1144157E-4
heavi : 7.786039E-5
variou : 7.786039E-5
tender : 7.7860395E-4
soybean : 2.3358119E-4
avail : 4.282322E-4
product : 8.1753416E-4
grainp : 7.786039E-5
bread : 3.1144157E-4
nigeria : 4.6716238E-4
could : 1.16790594E-4
bought : 7.786039E-5
littl : 1.5572079E-4
itali : 3.1144157E-4
bushel : 8.9539454E-4
prospect : 1.9465099E-4
mediterranean : 7.786039E-5
citi : 7.786039E-5
lb : 7.786039E-5
report : 0.0011289758
rose : 2.725114E-4
probabl : 7.786039E-5
return : 1.16790594E-4
thousand : 7.786039E-5
receiv : 1.5572079E-4
almost : 7.786039E-5
sign : 1.16790594E-4
cotton : 5.450228E-4
main : 2.3358119E-4
northern : 7.786039E-5
republ : 1.16790594E-4
pig : 1.16790594E-4
high : 2.3358119E-4
earlier : 1.5572079E-4
whether : 1.16790594E-4
west : 3.8930197E-4
commun : 2.725114E-4
sow : 1.16790594E-4
grain : 0.0013236267
credit : 2.725114E-4
stock : 7.396738E-4
upward : 5.0609256E-4
all : 7.786039E-5
tanzania : 1.16790594E-4
new : 1.16790594E-4
took : 1.16790594E-4
comparison : 7.786039E-5
level : 5.450228E-4
rapese : 3.1144157E-4
author : 1.9465099E-4
todai : 1.9465099E-4
underst : 7.786039E-5
less : 1.5572079E-4
hgca : 1.5572079E-4
heart : 1.5572079E-4
feed : 3.8930197E-4
unit : 1.9465099E-4
alreadi : 1.5572079E-4
specialist : 7.786039E-5
snow : 7.786039E-5
aynalem : 7.786039E-5
morocco : 7.786039E-5
produc : 3.8930197E-4
present : 7.786039E-5
fridai : 1.9465099E-4
schedul : 1.16790594E-4
around : 1.16790594E-4
favour : 7.786039E-5
switch : 1.16790594E-4
shortli : 7.786039E-5
matur : 1.16790594E-4
head : 1.5572079E-4
total : 9.3432475E-4
oil : 7.786039E-5
recipi : 1.16790594E-4
hous : 1.16790594E-4
calcul : 7.786039E-5
and : 1.16790594E-4
bale : 5.0609256E-4
of : 7.786039E-5
land : 7.786039E-5
barlei : 0.006462413
make : 1.5572079E-4
ani : 7.786039E-5
hear : 7.786039E-5
blah : 5.0609256E-4
on : 5.0609256E-4
spokesman : 7.786039E-5
egypt : 7.786039E-5
accord : 2.725114E-4
sri : 7.786039E-5
transport : 1.16790594E-4
competit : 7.786039E-5
committe : 1.9465099E-4
previou : 6.2288315E-4
due : 1.5572079E-4
maiz : 0.001751859
offici : 1.9465099E-4
carcas : 1.16790594E-4
storag : 7.786039E-5
dominican : 7.786039E-5
nation : 1.5572079E-4
japan : 3.1144157E-4
turkei : 2.3358119E-4
commit : 1.16790594E-4
ship : 5.0609256E-4
sesostri : 1.5572079E-4
enhanc : 1.9465099E-4
cover : 3.1144157E-4
nil : 3.503718E-4
reflect : 7.786039E-5
tigr : 1.16790594E-4
cake : 1.16790594E-4
damag : 1.9465099E-4
cropland : 7.786039E-5
alfr : 7.786039E-5
state : 2.725114E-4
recent : 7.786039E-5
yesterdai : 2.3358119E-4
margin : 1.16790594E-4
apr : 7.786039E-5
august : 7.786039E-5
remain : 1.5572079E-4
stg : 8.1753416E-4
want : 1.16790594E-4
forecast : 3.1144157E-4
thei : 1.16790594E-4
accept : 6.2288315E-4
malt : 5.450228E-4
collin : 2.3358119E-4
includ : 1.5572079E-4
highest : 7.786039E-5
must : 1.5572079E-4
austria : 1.9465099E-4
madrid : 1.16790594E-4
qualiti : 1.5572079E-4
currenc : 1.5572079E-4
secretari : 7.786039E-5
seed : 3.8930197E-4
mid : 7.786039E-5
two : 4.282322E-4
long : 7.786039E-5
announc : 2.3358119E-4
fell : 1.5572079E-4
into : 7.786039E-5
current : 2.725114E-4
larg : 2.3358119E-4
free : 4.6716238E-4
anoth : 1.9465099E-4
colombia : 4.6716238E-4
latest : 1.9465099E-4
intern : 7.786039E-5
concess : 1.5572079E-4
intervent : 7.007436E-4
telephon : 7.786039E-5
call : 9.7325497E-4
speech : 7.786039E-5
remov : 1.16790594E-4
oper : 2.3358119E-4
quit : 7.786039E-5
to : 3.8930197E-4
famin : 7.786039E-5
open : 1.9465099E-4
typic : 7.786039E-5
through : 1.16790594E-4
but : 1.16790594E-4
shortfal : 1.5572079E-4
cwt : 5.0609256E-4
sorghum : 7.007436E-4
run : 7.786039E-5
worri : 1.9465099E-4
zero : 7.786039E-5
countri : 8.564644E-4
late : 1.16790594E-4
sever : 1.5572079E-4
thailand : 1.16790594E-4
increa : 1.16790594E-4
tobacco : 2.725114E-4
up : 7.786039E-5
nonprogram : 2.3358119E-4
five : 1.16790594E-4
us : 1.9465099E-4
authoris : 1.9465099E-4
given : 1.16790594E-4
wheatb : 1.16790594E-4
pre : 7.786039E-5
last : 4.282322E-4
usual : 7.786039E-5
develop : 7.786039E-5
mln : 0.0027251139
repres : 7.786039E-5
lanka : 7.786039E-5
idl : 2.725114E-4
korea : 1.5572079E-4
warm : 1.16790594E-4
taiwan : 7.786039E-5
netherland : 7.786039E-5
vi : 3.503718E-4
region : 1.16790594E-4
support : 7.786039E-5
crop : 0.0011289758
sinc : 3.503718E-4
higher : 1.16790594E-4
allow : 7.786039E-5
colombian : 7.786039E-5
bernard : 7.786039E-5
arriv : 1.16790594E-4
brazil : 7.786039E-5
import : 1.16790594E-4
attract : 2.3358119E-4
show : 4.282322E-4
commerci : 7.786039E-5
non : 4.6716238E-4
everi : 7.786039E-5
unchang : 7.396738E-4
outsid : 1.16790594E-4
avg : 2.725114E-4
admit : 1.5572079E-4
licenc : 0.0011289758
appli : 1.16790594E-4
nearli : 7.786039E-5
throughout : 7.786039E-5
inventori : 2.725114E-4
provisiion : 1.16790594E-4
commod : 6.2288315E-4
enabl : 7.786039E-5
normal : 7.786039E-5
harvest : 2.725114E-4
associ : 1.16790594E-4
wide : 7.786039E-5
start : 2.725114E-4
distribut : 7.786039E-5
toepfer : 7.786039E-5
target : 1.16790594E-4
deliveri : 5.0609256E-4
what : 7.786039E-5
drought : 3.503718E-4
israel : 5.450228E-4
paid : 3.8930197E-4
bonu : 7.007436E-4
risk : 2.725114E-4
step : 7.786039E-5
comment : 7.786039E-5
rouen : 2.3358119E-4
forego : 7.786039E-5
time : 1.9465099E-4
basi : 7.786039E-5
rise : 1.9465099E-4
bangladesh : 7.786039E-5
excis : 1.5572079E-4
base : 3.8930197E-4
rye : 1.16790594E-4
sourc : 4.6716238E-4
prefix : 1.16790594E-4
reach : 1.9465099E-4
compris : 3.503718E-4
program : 0.0011289758
senat : 7.786039E-5
dreyfu : 7.786039E-5
preliminari : 7.786039E-5
onic : 3.503718E-4
april : 5.450228E-4
put : 2.725114E-4
venezuela : 2.3358119E-4
agricultur : 5.83953E-4
keith : 7.786039E-5
quantiti : 1.16790594E-4
price : 9.7325497E-4
yo : 7.786039E-5
greec : 3.8930197E-4
season : 0.0014404174
payment : 5.83953E-4
enter : 1.9465099E-4
attain : 1.16790594E-4
cash : 1.5572079E-4
greater : 3.503718E-4
between : 7.786039E-5
give : 1.5572079E-4
still : 2.725114E-4
goal : 1.16790594E-4
work : 2.3358119E-4
contract : 1.5572079E-4
preced : 7.786039E-5
declin : 1.9465099E-4
signup : 3.503718E-4
destin : 5.450228E-4
coast : 7.786039E-5
toward : 1.16790594E-4
consid : 7.786039E-5
ethiopia : 6.6181336E-4
subsidi : 1.9465099E-4
futur : 4.282322E-4
droit : 7.786039E-5
quot : 1.5572079E-4
regist : 1.16790594E-4
refund : 1.16790594E-4
spain : 4.282322E-4
mauritania : 2.3358119E-4
algeria : 3.8930197E-4
januari : 8.9539454E-4
south : 1.16790594E-4
portion : 1.5572079E-4
freight : 7.786039E-5
iii : 2.725114E-4
irish : 1.16790594E-4
rahr : 7.786039E-5
unknown : 1.16790594E-4
arabia : 7.396738E-4
panama : 1.16790594E-4
caus : 1.16790594E-4
fall : 3.8930197E-4
low : 7.786039E-5
decreas : 1.16790594E-4
get : 1.5572079E-4
natl : 2.725114E-4
eat : 1.16790594E-4
grown : 1.9465099E-4
hamburg : 1.16790594E-4
disput : 1.16790594E-4
prod : 7.786039E-5
sudan : 7.786039E-5
sell : 1.16790594E-4
harargh : 1.9465099E-4
kill : 3.503718E-4
appropri : 7.786039E-5
lead : 1.16790594E-4
expect : 4.6716238E-4
help : 1.16790594E-4
awek : 1.16790594E-4
mexico : 1.16790594E-4
assess : 1.16790594E-4
rebat : 0.001167906
averag : 9.7325497E-4
board : 1.16790594E-4
first : 2.725114E-4
mainli : 7.786039E-5
small : 1.9465099E-4
date : 1.16790594E-4
feb : 7.786039E-5
quick : 7.786039E-5
corp : 1.16790594E-4
corn : 0.001751859
own : 1.9465099E-4
separ : 7.786039E-5
dai : 1.9465099E-4
major : 1.5572079E-4
acreag : 6.6181336E-4
ecu : 0.0013236267
outlai : 1.5572079E-4
econom : 7.786039E-5
depart : 9.7325497E-4
pigmeat : 1.5572079E-4
rain : 5.83953E-4
ceuta : 1.16790594E-4
portug : 1.5572079E-4
upcom : 7.786039E-5
offset : 7.786039E-5
like : 1.5572079E-4
daili : 2.3358119E-4
rais : 1.16790594E-4
usda : 0.001167906
market : 5.83953E-4
cereal : 0.0010121851
provision : 1.5572079E-4
cumul : 1.5572079E-4
here : 2.3358119E-4
weigh : 1.16790594E-4
request : 8.9539454E-4
largest : 2.725114E-4
note : 3.503718E-4
week : 0.0010121851
addi : 7.786039E-5
winter : 1.9465099E-4
continu : 7.786039E-5
novemb : 7.786039E-5
eep : 3.1144157E-4
award : 4.282322E-4
along : 1.16790594E-4
public : 7.786039E-5
billion : 7.786039E-5
reject : 3.8930197E-4
cypru : 3.503718E-4
februari : 0.001167906
peanut : 2.725114E-4
sai : 1.16790594E-4
pari : 4.282322E-4
said : 0.010472223
compens : 1.16790594E-4
wello : 7.786039E-5
inc : 1.9465099E-4
gafta : 7.786039E-5
facil : 1.16790594E-4
amount : 5.0609256E-4
move : 1.16790594E-4
cost : 4.6716238E-4
readi : 1.16790594E-4
fertilis : 1.5572079E-4
feedgrain : 1.5572079E-4
trader : 7.007436E-4
saw : 7.786039E-5
match : 7.786039E-5
also : 3.1144157E-4
versu : 7.786039E-5
humid : 1.9465099E-4
follow : 3.8930197E-4
improv : 1.16790594E-4
differ : 2.3358119E-4
julifebr : 7.786039E-5
meal : 7.786039E-5
trade : 9.3432475E-4
third : 6.2288315E-4
favor : 7.786039E-5
cooper : 1.16790594E-4
brussel : 1.5572079E-4
approv : 7.786039E-5
account : 1.5572079E-4
