0.008849557522123894
cancel : 3.7694597E-5
german : 6.973501E-4
ultim : 3.7694597E-5
half : 0.001319311
govern : 0.0036752233
gloomi : 1.319311E-4
elimin : 5.6541896E-5
slower : 1.5077839E-4
without : 2.0732029E-4
oversea : 2.2616758E-4
these : 3.7694597E-5
tea : 5.6541896E-5
would : 0.0034302084
upwardli : 3.7694597E-5
pick : 6.973501E-4
victor : 3.7694597E-5
involuntari : 3.7694597E-5
nova : 3.7694597E-5
serv : 1.319311E-4
solid : 3.7694597E-5
switzerland : 3.7694597E-5
reluct : 5.6541896E-5
stabil : 7.1619736E-4
baker : 3.7694597E-5
journalist : 1.5077839E-4
plocek : 5.6541896E-5
size : 2.0732029E-4
util : 3.7694597E-5
left : 1.319311E-4
wing : 3.7694597E-5
seri : 9.423649E-5
much : 4.5233517E-4
object : 1.1308379E-4
wind : 1.1308379E-4
ferdinand : 5.6541896E-5
cherrin : 3.7694597E-5
lire : 1.1308379E-4
lombard : 3.7694597E-5
role : 9.423649E-5
ahead : 2.638622E-4
roll : 3.7694597E-5
hann : 5.6541896E-5
turn : 4.3348788E-4
suffici : 1.319311E-4
elect : 1.319311E-4
miner : 5.6541896E-5
polici : 0.0026763165
gmt : 3.7694597E-5
result : 6.596555E-4
gold : 5.6541896E-5
rebuilt : 7.5389195E-5
same : 1.1308379E-4
ringgit : 2.0732029E-4
expedit : 5.6541896E-5
differenti : 5.6541896E-5
after : 1.696257E-4
lira : 1.5077839E-4
hand : 1.319311E-4
rebuild : 7.5389195E-5
a : 6.2196085E-4
b : 3.7694597E-4
c : 5.65419E-4
address : 5.6541896E-5
enorm : 3.7694597E-5
d : 3.5809868E-4
e : 1.5077839E-4
f : 3.204041E-4
g : 7.5389195E-4
spiral : 5.6541896E-5
gnp : 0.0026574691
h : 9.423649E-5
i : 7.3504465E-4
j : 3.0155678E-4
tradit : 7.5389195E-5
union : 3.392514E-4
k : 2.0732029E-4
l : 1.8847299E-4
m : 2.827095E-4
n : 1.5077839E-4
o : 5.6541896E-5
the : 0.0057672737
p : 1.696257E-4
straight : 3.7694597E-5
baldrig : 7.5389195E-5
poorli : 3.7694597E-5
r : 7.5389195E-5
sale : 6.785028E-4
s : 4.9002975E-4
halv : 3.7694597E-5
thi : 9.989069E-4
ankara : 5.6541896E-5
t : 2.827095E-4
u : 0.0019789664
abolit : 5.6541896E-5
w : 1.5077839E-4
wholesal : 3.7694597E-5
y : 4.9002975E-4
regain : 9.423649E-5
z : 5.6541896E-5
salari : 5.6541896E-5
discuss : 2.638622E-4
thu : 1.8847299E-4
standard : 3.7694597E-5
correct : 3.0155678E-4
resurg : 5.6541896E-5
good : 0.0014323947
got : 3.7694597E-5
duesseldorf : 3.7694597E-5
wish : 9.423649E-5
cgt : 5.6541896E-5
tie : 7.5389195E-5
sharpli : 2.2616758E-4
exceed : 7.5389195E-5
tin : 5.6541896E-5
pai : 3.0155678E-4
serious : 9.423649E-5
implement : 5.6541896E-5
tip : 3.7694597E-5
advis : 1.319311E-4
export : 0.0030721098
area : 3.5809868E-4
stefan : 5.6541896E-5
rome : 3.7694597E-5
practic : 5.6541896E-5
pat : 1.319311E-4
wherea : 7.5389195E-5
european : 2.2616758E-4
paz : 5.6541896E-5
reduc : 9.989069E-4
check : 3.7694597E-5
lack : 5.6541896E-5
resolut : 5.6541896E-5
success : 2.0732029E-4
pbi : 3.7694597E-5
weekli : 3.7694597E-5
child : 3.7694597E-5
ensur : 9.423649E-5
fortun : 2.0732029E-4
treasuri : 2.0732029E-4
medium : 2.0732029E-4
wisdom : 3.7694597E-5
exchequ : 5.6541896E-5
outstrip : 5.6541896E-5
protectionist : 3.7694597E-5
determin : 1.5077839E-4
denmark : 3.7694597E-5
germani : 8.6697575E-4
root : 3.7694597E-5
combin : 1.5077839E-4
realign : 2.4501487E-4
hard : 1.5077839E-4
lend : 1.1308379E-4
live : 3.7694597E-5
pct : 0.029232161
worsen : 1.5077839E-4
societi : 5.6541896E-5
foodgrain : 3.7694597E-5
perform : 7.3504465E-4
peak : 1.5077839E-4
room : 3.204041E-4
energi : 1.5077839E-4
better : 2.4501487E-4
with : 2.638622E-4
argu : 1.696257E-4
there : 1.8847299E-4
permit : 9.423649E-5
analyst : 2.4501487E-4
well : 5.088771E-4
outlook : 9.6121227E-4
inject : 7.5389195E-5
sydnei : 3.7694597E-5
downturn : 5.6541896E-5
penner : 1.696257E-4
mortgag : 1.8847299E-4
pressu : 3.7694597E-5
strongli : 1.319311E-4
american : 9.423649E-5
penetr : 3.7694597E-5
hamper : 9.423649E-5
desir : 9.423649E-5
approach : 7.5389195E-5
outstand : 3.7694597E-5
peg : 5.6541896E-5
per : 4.3348788E-4
devalu : 2.4501487E-4
flow : 2.0732029E-4
propos : 2.0732029E-4
wage : 5.088771E-4
order : 3.7694597E-4
raini : 5.6541896E-5
period : 0.0010554488
africa : 5.6541896E-5
went : 5.6541896E-5
geograph : 3.7694597E-5
revenu : 4.1464058E-4
upbeat : 3.7694597E-5
privatis : 9.423649E-5
reform : 2.827095E-4
seoul : 5.6541896E-5
remit : 3.7694597E-5
million : 5.6541896E-5
even : 6.596555E-4
aris : 5.6541896E-5
undermin : 5.6541896E-5
proport : 1.1308379E-4
larger : 9.423649E-5
wait : 1.5077839E-4
buoi : 7.5389195E-5
increas : 0.0036375287
save : 2.2616758E-4
institut : 0.0013004637
protection : 3.7694597E-5
nigerian : 3.7694597E-5
costli : 3.7694597E-5
restrict : 5.6541896E-5
articl : 5.6541896E-5
mondai : 5.6541896E-5
workforc : 7.5389195E-5
relaunch : 5.6541896E-5
particularli : 2.4501487E-4
top : 7.5389195E-5
too : 5.6541896E-5
andr : 5.6541896E-5
drawdown : 5.6541896E-5
slowli : 9.423649E-5
mickei : 3.7694597E-5
julisept : 1.696257E-4
avail : 9.423649E-5
product : 0.0035809868
robust : 3.7694597E-5
question : 3.0155678E-4
walter : 3.7694597E-5
neeser : 5.6541896E-5
helmut : 7.5389195E-5
roughli : 2.2616758E-4
spirit : 5.6541896E-5
littl : 2.4501487E-4
frankfurt : 3.7694597E-5
noboru : 3.7694597E-5
framework : 5.6541896E-5
rudolph : 5.6541896E-5
keidanren : 9.423649E-5
rose : 0.0019789664
almost : 7.5389195E-5
fuel : 1.1308379E-4
pleas : 7.5389195E-5
reign : 1.1308379E-4
upon : 3.7694597E-5
proce : 5.6541896E-5
wake : 7.5389195E-5
earlier : 8.6697575E-4
cpb : 3.204041E-4
biggest : 1.1308379E-4
lai : 5.6541896E-5
whether : 1.8847299E-4
unabl : 5.6541896E-5
disinfl : 2.0732029E-4
west : 8.104339E-4
stock : 3.204041E-4
suspend : 3.7694597E-5
guilder : 7.727393E-4
evid : 1.8847299E-4
law : 1.8847299E-4
subscript : 5.6541896E-5
balladur : 2.4501487E-4
swap : 5.6541896E-5
tri : 9.423649E-5
less : 6.973501E-4
revers : 2.0732029E-4
absolut : 7.5389195E-5
welcom : 1.319311E-4
schlecht : 1.319311E-4
try : 1.1308379E-4
governor : 1.696257E-4
basic : 1.319311E-4
expir : 7.5389195E-5
busi : 4.3348788E-4
fridai : 9.423649E-5
combat : 5.6541896E-5
respons : 2.638622E-4
debtor : 3.7694597E-5
reinforc : 3.7694597E-5
extra : 7.5389195E-5
design : 9.423649E-5
land : 9.423649E-5
levi : 7.5389195E-5
encourag : 1.8847299E-4
chief : 1.5077839E-4
accord : 5.65419E-4
italian : 9.423649E-5
confidenti : 5.6541896E-5
witter : 3.7694597E-5
investor : 3.204041E-4
plu : 3.7694597E-5
respond : 1.8847299E-4
cso : 1.319311E-4
angl : 9.423649E-5
capita : 5.6541896E-5
disclos : 7.5389195E-5
japan : 0.0015266312
bongard : 3.7694597E-5
susumu : 3.7694597E-5
led : 2.0732029E-4
absorb : 7.5389195E-5
lee : 5.6541896E-5
uncertain : 1.1308379E-4
concern : 4.5233517E-4
muto : 3.7694597E-5
lessen : 9.423649E-5
pact : 3.7694597E-5
let : 3.7694597E-5
state : 6.0311356E-4
worker : 2.2616758E-4
eventu : 1.319311E-4
press : 7.5389195E-5
coffe : 1.8847299E-4
element : 1.8847299E-4
yesterdai : 1.319311E-4
gener : 4.3348788E-4
want : 1.8847299E-4
night : 1.5077839E-4
pace : 2.4501487E-4
reappoint : 1.1308379E-4
gijsen : 3.7694597E-5
forecast : 0.005842663
statu : 7.5389195E-5
restraint : 2.638622E-4
heldr : 5.6541896E-5
wane : 5.6541896E-5
foresaw : 3.7694597E-5
creativ : 3.7694597E-5
must : 2.2616758E-4
creditor : 2.0732029E-4
suppli : 3.7694597E-4
safeguard : 3.7694597E-5
liabil : 7.5389195E-5
cut : 0.0021297447
document : 3.7694597E-5
ward : 3.7694597E-5
two : 0.0015643259
stimul : 3.957933E-4
chase : 3.7694597E-5
moment : 2.0732029E-4
schroeder : 9.423649E-5
found : 7.5389195E-5
freer : 3.7694597E-5
scenario : 1.319311E-4
prais : 1.1308379E-4
larg : 4.5233517E-4
builder : 5.6541896E-5
tariff : 1.5077839E-4
acceler : 2.638622E-4
anoth : 1.696257E-4
trillion : 3.7694597E-5
creation : 5.6541896E-5
penc : 1.1308379E-4
latest : 3.0155678E-4
resourc : 2.4501487E-4
pend : 3.7694597E-5
think : 2.2616758E-4
ppi : 1.8847299E-4
revalu : 1.319311E-4
team : 9.423649E-5
payabl : 7.5389195E-5
telephon : 3.7694597E-5
overplai : 5.6541896E-5
chilean : 3.7694597E-5
charg : 7.5389195E-5
brusca : 1.8847299E-4
speech : 1.8847299E-4
quit : 3.7694597E-5
thing : 1.8847299E-4
cabinet : 1.1308379E-4
smith : 7.5389195E-5
attend : 1.696257E-4
sumitomo : 3.7694597E-5
lid : 5.6541896E-5
ouptut : 3.7694597E-5
reactiv : 5.6541896E-5
prepar : 3.0155678E-4
pariba : 1.319311E-4
align : 5.6541896E-5
lynch : 9.423649E-5
miyazawa : 5.6541896E-5
hai : 3.7694597E-5
structur : 9.423649E-5
han : 5.6541896E-5
late : 9.423649E-5
entir : 3.7694597E-5
wast : 3.7694597E-5
budget : 0.0013004637
tech : 3.7694597E-5
given : 1.8847299E-4
actual : 3.7694597E-5
eastern : 7.5389195E-5
last : 0.0026574691
adapt : 1.319311E-4
weight : 1.8847299E-4
doubt : 1.319311E-4
freed : 5.6541896E-5
develop : 6.973501E-4
courag : 3.7694597E-5
warn : 2.827095E-4
warm : 5.6541896E-5
nomin : 1.8847299E-4
prt : 9.423649E-5
attent : 7.5389195E-5
receipt : 9.423649E-5
full : 2.0732029E-4
depreci : 4.1464058E-4
vranitzki : 7.5389195E-5
becaus : 1.5077839E-4
kramer : 1.696257E-4
creditanstalt : 3.7694597E-5
effort : 1.1308379E-4
awar : 7.5389195E-5
prudenc : 5.6541896E-5
peru : 9.423649E-5
steadi : 1.1308379E-4
wave : 3.7694597E-5
stronger : 1.319311E-4
vote : 7.5389195E-5
precis : 3.7694597E-5
snowbal : 3.7694597E-5
unjust : 5.6541896E-5
yen : 4.711825E-4
cruzado : 7.5389195E-5
apparatu : 9.423649E-5
start : 4.5233517E-4
yet : 2.2616758E-4
earli : 3.5809868E-4
equal : 9.423649E-5
dictat : 5.6541896E-5
awai : 1.5077839E-4
deregul : 1.1308379E-4
fund : 4.711825E-4
chang : 0.0010177542
multin : 7.5389195E-5
paid : 3.5809868E-4
short : 1.319311E-4
financi : 3.957933E-4
unusu : 5.6541896E-5
time : 0.001130838
incur : 1.1308379E-4
downward : 2.2616758E-4
shadow : 3.7694597E-5
dominion : 3.7694597E-5
unsold : 5.6541896E-5
palm : 3.7694597E-5
compris : 1.1308379E-4
program : 3.392514E-4
three : 0.001130838
put : 5.65419E-4
multi : 7.5389195E-5
climb : 1.319311E-4
season : 4.711825E-4
deflat : 3.204041E-4
payment : 0.0012250744
attain : 1.5077839E-4
prioriti : 2.2616758E-4
applic : 2.4501487E-4
bankverein : 3.7694597E-5
batter : 3.7694597E-5
pressur : 4.3348788E-4
persuad : 3.7694597E-5
nicho : 7.5389195E-5
classifi : 5.6541896E-5
jacqu : 5.6541896E-5
light : 3.7694597E-5
happi : 3.7694597E-5
indefinit : 3.7694597E-5
quot : 7.5389195E-5
expansionari : 9.423649E-5
merril : 9.423649E-5
aboout : 3.7694597E-5
judg : 9.423649E-5
carson : 7.5389195E-5
januari : 0.0016020205
bright : 2.0732029E-4
tourism : 7.5389195E-5
lot : 1.1308379E-4
repeatedli : 3.7694597E-5
deputi : 3.7694597E-5
roach : 1.1308379E-4
premium : 3.7694597E-5
immin : 5.6541896E-5
low : 3.0155678E-4
prop : 1.319311E-4
consult : 7.5389195E-5
grown : 1.319311E-4
meant : 1.319311E-4
budgetari : 3.7694597E-5
hamburg : 5.6541896E-5
barrel : 3.957933E-4
lebegu : 3.7694597E-5
outcom : 9.423649E-5
chair : 5.6541896E-5
municip : 9.423649E-5
blown : 3.7694597E-5
mildli : 7.5389195E-5
foster : 1.319311E-4
eros : 5.6541896E-5
maffei : 3.7694597E-5
small : 1.8847299E-4
runawai : 3.7694597E-5
quick : 7.5389195E-5
residenti : 3.7694597E-5
doom : 5.6541896E-5
dai : 2.638622E-4
industrialist : 3.7694597E-5
arbitrarili : 7.5389195E-5
hit : 2.4501487E-4
major : 4.9002975E-4
shown : 5.6541896E-5
jordan : 1.1308379E-4
outlai : 5.6541896E-5
emphasis : 7.5389195E-5
consider : 5.6541896E-5
group : 3.204041E-4
fundp : 3.7694597E-5
gross : 0.0015077839
resist : 3.7694597E-5
helsinki : 3.7694597E-5
format : 3.7694597E-5
particular : 2.638622E-4
done : 2.827095E-4
formal : 5.6541896E-5
twice : 1.8847299E-4
anomali : 7.5389195E-5
distrust : 5.6541896E-5
friendli : 3.7694597E-5
soar : 1.5077839E-4
histori : 5.6541896E-5
exchang : 7.727393E-4
sustain : 4.5233517E-4
dont : 3.7694597E-5
achiev : 5.465717E-4
volcker : 1.319311E-4
tent : 3.7694597E-5
request : 5.6541896E-5
incom : 8.4812846E-4
part : 7.915866E-4
octobdec : 3.392514E-4
their : 3.7694597E-5
bilater : 3.7694597E-5
novemb : 1.8847299E-4
unexpect : 5.6541896E-5
nzier : 1.1308379E-4
point : 0.0015266312
pare : 9.423649E-5
general : 3.7694597E-5
relief : 4.3348788E-4
pari : 5.088771E-4
compens : 5.6541896E-5
ltd : 3.0155678E-4
masao : 3.7694597E-5
zimbabw : 5.6541896E-5
process : 3.7694597E-4
built : 1.1308379E-4
attribut : 1.5077839E-4
clear : 1.8847299E-4
eighth : 7.5389195E-5
estenssoro : 3.7694597E-5
banner : 7.5389195E-5
uneasi : 7.5389195E-5
third : 6.0311356E-4
build : 3.957933E-4
mean : 3.392514E-4
earn : 1.696257E-4
cooper : 4.3348788E-4
further : 1.8847299E-4
account : 0.0015077839
deb : 3.7694597E-5
recov : 1.5077839E-4
japanes : 2.2616758E-4
allan : 9.423649E-5
addit : 1.5077839E-4
intellig : 5.6541896E-5
parliament : 4.5233517E-4
surcharg : 1.1308379E-4
path : 7.5389195E-5
iredal : 5.6541896E-5
presidenti : 3.7694597E-5
mostli : 1.696257E-4
trip : 7.5389195E-5
trim : 5.6541896E-5
record : 3.392514E-4
crisi : 5.65419E-4
partli : 3.392514E-4
strict : 3.7694597E-5
soft : 7.5389195E-5
jump : 1.1308379E-4
prime : 2.0732029E-4
pass : 1.319311E-4
past : 2.638622E-4
burnham : 3.7694597E-5
impact : 7.5389195E-4
shock : 7.5389195E-5
mild : 5.6541896E-5
hwwa : 3.7694597E-5
bill : 7.5389195E-5
percentag : 2.0732029E-4
marai : 9.423649E-5
especi : 1.8847299E-4
cours : 3.5809868E-4
whose : 1.8847299E-4
distort : 1.319311E-4
warren : 3.7694597E-5
buyer : 3.7694597E-5
senior : 3.392514E-4
juli : 7.5389195E-5
milder : 3.7694597E-5
preserv : 1.696257E-4
treatment : 9.423649E-5
zurich : 3.7694597E-5
sentenc : 5.6541896E-5
corpor : 4.1464058E-4
consecut : 3.7694597E-5
releas : 1.1308379E-4
pave : 5.6541896E-5
peter : 3.7694597E-5
spark : 3.7694597E-5
inde : 5.6541896E-5
term : 0.0017339515
mine : 9.423649E-5
fluctuat : 5.6541896E-5
gover : 5.6541896E-5
tail : 7.5389195E-5
right : 1.5077839E-4
reflat : 1.696257E-4
march : 0.0019978138
opposit : 7.5389195E-5
reuter : 0.001451242
june : 4.711825E-4
meet : 8.8582304E-4
borrow : 2.0732029E-4
maximum : 3.7694597E-5
paul : 1.5077839E-4
under : 5.6541896E-5
quarter : 0.0073315995
bundesbank : 2.827095E-4
london : 1.1308379E-4
reserv : 8.2928117E-4
takahashi : 7.5389195E-5
rigor : 3.7694597E-5
dim : 5.6541896E-5
dip : 3.7694597E-5
down : 3.392514E-4
eysken : 5.6541896E-5
hold : 2.4501487E-4
convinc : 1.1308379E-4
later : 3.204041E-4
diw : 1.5077839E-4
absurd : 5.6541896E-5
rubber : 5.6541896E-5
legal : 3.7694597E-5
club : 1.8847299E-4
talk : 3.7694597E-4
signal : 1.5077839E-4
train : 1.1308379E-4
tribut : 1.319311E-4
test : 5.6541896E-5
exhaust : 5.6541896E-5
count : 7.5389195E-5
repli : 3.7694597E-5
soir : 3.7694597E-5
take : 3.5809868E-4
month : 0.0026574691
blame : 2.0732029E-4
final : 4.3348788E-4
perhap : 1.696257E-4
nudg : 3.7694597E-5
octob : 1.696257E-4
rigour : 5.6541896E-5
some : 1.696257E-4
virtual : 3.204041E-4
loan : 2.4501487E-4
rather : 3.204041E-4
session : 3.7694597E-5
somc : 1.5077839E-4
back : 6.0311356E-4
divis : 1.1308379E-4
compani : 8.6697575E-4
underli : 3.7694597E-5
malaysia : 3.7694597E-5
univers : 5.6541896E-5
pound : 5.6541896E-5
solv : 9.423649E-5
goldman : 3.7694597E-5
monetarist : 3.7694597E-5
maria : 3.7694597E-5
ingredi : 5.6541896E-5
stabl : 3.5809868E-4
anytim : 3.7694597E-5
coincid : 7.5389195E-5
sold : 5.6541896E-5
coupl : 1.5077839E-4
manufactur : 6.2196085E-4
raymond : 5.6541896E-5
dlr : 0.0034490558
advers : 7.5389195E-5
gramlei : 1.696257E-4
home : 1.5077839E-4
michael : 5.6541896E-5
condit : 3.392514E-4
although : 4.9002975E-4
holl : 5.6541896E-5
iron : 7.5389195E-5
diplomat : 5.6541896E-5
relat : 1.696257E-4
grant : 3.7694597E-5
explain : 3.7694597E-5
basket : 5.6541896E-5
unionist : 5.6541896E-5
discount : 4.3348788E-4
visibl : 3.7694597E-5
convert : 9.423649E-5
construct : 2.2616758E-4
libor : 1.1308379E-4
hope : 2.4501487E-4
elsewher : 9.423649E-5
attempt : 9.423649E-5
artifici : 3.7694597E-5
soon : 7.5389195E-5
assembl : 3.7694597E-5
influenc : 1.5077839E-4
gramm : 5.6541896E-5
action : 4.5233517E-4
thomson : 3.7694597E-5
androsch : 3.7694597E-5
latin : 5.6541896E-5
ipecod : 7.5389195E-5
nomura : 3.7694597E-5
rapidli : 3.7694597E-5
fear : 2.2616758E-4
creat : 1.696257E-4
lisbon : 3.7694597E-5
incent : 1.696257E-4
made : 8.6697575E-4
buoyanc : 9.423649E-5
abil : 5.6541896E-5
manag : 4.3348788E-4
purchas : 3.204041E-4
afford : 7.5389195E-5
field : 2.2616758E-4
taupo : 1.319311E-4
hardest : 5.6541896E-5
singl : 1.5077839E-4
statut : 3.7694597E-5
impedi : 5.6541896E-5
dol : 5.6541896E-5
shield : 9.423649E-5
britain : 1.1308379E-4
longest : 3.7694597E-5
natur : 3.7694597E-5
paramet : 5.6541896E-5
paydai : 7.5389195E-5
phenomenon : 1.1308379E-4
nikko : 7.5389195E-5
summer : 3.204041E-4
machineri : 1.5077839E-4
eight : 1.8847299E-4
robert : 1.1308379E-4
file : 1.1308379E-4
buoyant : 5.6541896E-5
mai : 0.0011685325
known : 5.6541896E-5
baudouin : 5.6541896E-5
member : 3.204041E-4
commiss : 3.0155678E-4
steve : 5.6541896E-5
man : 5.6541896E-5
quarterli : 9.423649E-5
stand : 9.423649E-5
stanc : 5.6541896E-5
heavi : 5.6541896E-5
vacanc : 3.7694597E-5
independ : 1.1308379E-4
variou : 3.7694597E-5
within : 1.1308379E-4
could : 0.0010931434
forward : 1.1308379E-4
strike : 1.1308379E-4
health : 5.6541896E-5
trigger : 5.6541896E-5
urg : 2.638622E-4
reschedul : 1.1308379E-4
rental : 3.7694597E-5
prospect : 8.2928117E-4
withhold : 3.7694597E-5
kiichi : 5.6541896E-5
probabl : 5.088771E-4
relev : 3.7694597E-5
deceler : 9.423649E-5
return : 2.0732029E-4
cheaper : 5.6541896E-5
housebuild : 3.7694597E-5
bonus : 5.6541896E-5
subject : 5.6541896E-5
feel : 2.0732029E-4
main : 2.2616758E-4
nigel : 5.6541896E-5
mair : 3.7694597E-5
convent : 3.7694597E-5
find : 1.696257E-4
adher : 9.423649E-5
rubio : 9.423649E-5
commun : 3.204041E-4
dri : 1.696257E-4
grain : 3.7694597E-5
credit : 1.5077839E-4
exactli : 3.7694597E-5
upward : 9.423649E-5
ideal : 3.7694597E-5
sooner : 5.6541896E-5
occur : 1.696257E-4
jestin : 3.7694597E-5
psbr : 3.392514E-4
difficult : 1.8847299E-4
dry : 5.6541896E-5
nippon : 3.7694597E-5
failur : 9.423649E-5
seriou : 9.423649E-5
heart : 9.423649E-5
servic : 8.4812846E-4
background : 7.5389195E-5
nonetheless : 3.7694597E-5
present : 3.957933E-4
curtail : 5.6541896E-5
sentiment : 7.5389195E-5
best : 5.6541896E-5
certainli : 3.7694597E-5
capitalis : 3.7694597E-5
fundament : 3.7694597E-5
execut : 3.7694597E-5
hour : 3.7694597E-4
sterl : 5.6541896E-5
hous : 3.0155678E-4
repeat : 1.5077839E-4
make : 6.973501E-4
capit : 6.973501E-4
met : 5.6541896E-5
heard : 5.6541896E-5
extraordinari : 5.6541896E-5
stiker : 3.7694597E-5
spokesman : 1.319311E-4
abov : 9.423649E-5
scotia : 1.1308379E-4
competit : 7.1619736E-4
due : 0.0015266312
domest : 0.0017151042
mere : 5.6541896E-5
disagre : 1.319311E-4
inou : 3.7694597E-5
shoji : 3.7694597E-5
princip : 3.7694597E-5
stoltenberg : 1.319311E-4
inform : 1.1308379E-4
depend : 2.2616758E-4
inse : 5.6541896E-5
commit : 1.319311E-4
about : 7.5389195E-5
opec : 5.6541896E-5
danger : 5.6541896E-5
curb : 3.7694597E-5
crash : 5.6541896E-5
cover : 3.7694597E-5
firm : 3.7694597E-4
rudman : 5.6541896E-5
reflect : 3.957933E-4
bank : 0.0033736667
seipp : 1.5077839E-4
flexibl : 1.8847299E-4
stick : 2.4501487E-4
jier : 3.7694597E-5
immedi : 9.423649E-5
coordin : 1.319311E-4
setback : 3.7694597E-5
august : 7.5389195E-5
congression : 5.6541896E-5
therebi : 3.7694597E-5
frozen : 3.7694597E-5
impati : 3.7694597E-5
ministri : 6.785028E-4
benefit : 5.6541896E-5
counterbal : 3.7694597E-5
rude : 7.5389195E-5
miller : 5.6541896E-5
pillar : 5.6541896E-5
highest : 5.6541896E-5
encount : 5.6541896E-5
declar : 5.6541896E-5
boost : 4.9002975E-4
except : 1.1308379E-4
programm : 2.827095E-4
nevertheless : 7.5389195E-5
fact : 7.5389195E-5
debat : 5.6541896E-5
vigor : 5.6541896E-5
monthli : 1.5077839E-4
duisenberg : 5.6541896E-5
calvari : 7.5389195E-5
mid : 5.6541896E-5
global : 5.6541896E-5
long : 6.973501E-4
announc : 2.827095E-4
overestim : 1.1308379E-4
fell : 4.3348788E-4
caraca : 3.7694597E-5
unless : 9.423649E-5
excess : 1.5077839E-4
christian : 7.5389195E-5
industri : 0.0017716461
fred : 3.7694597E-5
free : 9.423649E-5
relationship : 5.6541896E-5
mix : 7.5389195E-5
reaction : 7.5389195E-5
though : 7.5389195E-5
stifl : 3.7694597E-5
polit : 1.1308379E-4
bergeron : 5.6541896E-5
entrepreneur : 9.423649E-5
commerc : 2.4501487E-4
appear : 3.392514E-4
face : 2.638622E-4
abandon : 5.6541896E-5
beryl : 3.7694597E-5
household : 1.696257E-4
progress : 2.0732029E-4
reliabl : 3.7694597E-5
oper : 1.1308379E-4
mani : 2.0732029E-4
open : 1.8847299E-4
bulletin : 1.1308379E-4
stai : 1.1308379E-4
ratio : 1.696257E-4
ramirez : 7.5389195E-5
treat : 7.5389195E-5
monei : 5.088771E-4
invest : 0.0014889366
rapid : 7.5389195E-5
project : 4.1464058E-4
seven : 9.423649E-5
genuin : 5.6541896E-5
whatev : 5.6541896E-5
loom : 7.5389195E-5
sever : 2.2616758E-4
mkt : 3.7694597E-5
restrain : 2.0732029E-4
wood : 3.7694597E-5
taxpay : 3.7694597E-5
five : 7.5389195E-4
evalu : 3.7694597E-5
edouard : 1.1308379E-4
lawrenc : 3.7694597E-5
spill : 9.423649E-5
felt : 5.6541896E-5
jaafar : 3.7694597E-5
look : 4.5233517E-4
qtr : 2.2616758E-4
mln : 0.0010366015
repres : 2.4501487E-4
koren : 1.5077839E-4
netherland : 7.5389195E-5
korea : 5.6541896E-5
concentr : 1.1308379E-4
alloc : 1.5077839E-4
conflict : 3.7694597E-5
allow : 1.8847299E-4
suzaki : 3.7694597E-5
defer : 5.6541896E-5
arriv : 1.319311E-4
knock : 1.319311E-4
rough : 3.7694597E-5
pierson : 2.2616758E-4
commerci : 1.5077839E-4
rule : 2.0732029E-4
blinch : 3.7694597E-5
organis : 4.5233517E-4
speed : 3.7694597E-5
peopl : 9.423649E-5
admit : 9.423649E-5
common : 3.7694597E-5
appli : 2.2616758E-4
interest : 8.2928117E-4
uneven : 5.6541896E-5
outturn : 2.0732029E-4
misguid : 1.1308379E-4
commod : 2.0732029E-4
presid : 3.5809868E-4
middl : 1.319311E-4
healthi : 2.0732029E-4
exposur : 1.1308379E-4
politician : 3.7694597E-5
insur : 9.423649E-5
girardin : 7.5389195E-5
jason : 3.7694597E-5
comment : 6.785028E-4
step : 3.392514E-4
basi : 4.9002975E-4
revolt : 7.5389195E-5
mark : 0.0013570056
base : 8.6697575E-4
stem : 5.6541896E-5
employ : 0.0010177542
registr : 5.6541896E-5
septemb : 3.5809868E-4
compulsori : 3.7694597E-5
minist : 9.42365E-4
trend : 2.0732029E-4
whole : 1.1308379E-4
preliminari : 1.319311E-4
consist : 1.5077839E-4
venezuela : 2.4501487E-4
agricultur : 1.696257E-4
loss : 5.277244E-4
mitsui : 3.7694597E-5
businessmen : 5.6541896E-5
critic : 1.696257E-4
sprin : 3.7694597E-5
otto : 5.6541896E-5
price : 0.0034490558
lost : 3.7694597E-5
improb : 9.423649E-5
normalis : 5.6541896E-5
still : 5.8426626E-4
work : 6.2196085E-4
lose : 1.8847299E-4
vat : 1.1308379E-4
declin : 0.0014135474
wors : 5.6541896E-5
necessit : 7.5389195E-5
fail : 1.319311E-4
toward : 2.4501487E-4
repaid : 5.6541896E-5
dilson : 3.7694597E-5
among : 2.827095E-4
lesli : 1.696257E-4
emperor : 3.7694597E-5
steel : 5.6541896E-5
spain : 1.5077839E-4
singapor : 9.423649E-5
healthier : 3.7694597E-5
steep : 3.7694597E-5
secret : 3.7694597E-5
requir : 6.408082E-4
foreign : 7.5389195E-4
across : 5.6541896E-5
uniform : 3.7694597E-5
fall : 0.0022993705
eas : 2.638622E-4
decreas : 1.8847299E-4
girozentral : 3.7694597E-5
reced : 3.7694597E-5
steer : 3.7694597E-5
pois : 9.423649E-5
appropri : 1.8847299E-4
excel : 5.6541896E-5
outflow : 2.0732029E-4
agenc : 4.1464058E-4
liquid : 2.4501487E-4
cannot : 2.4501487E-4
averag : 0.0011119907
first : 0.0013758529
mainli : 3.5809868E-4
durabl : 9.423649E-5
lambert : 3.7694597E-5
fewer : 3.7694597E-5
brokerag : 3.7694597E-5
threshold : 9.423649E-5
poll : 1.319311E-4
tight : 9.423649E-5
monetari : 7.5389195E-4
modernis : 9.423649E-5
chamber : 7.5389195E-5
spite : 5.6541896E-5
appar : 3.7694597E-5
depart : 2.638622E-4
stagnat : 9.423649E-5
upturn : 2.2616758E-4
swedish : 3.7694597E-5
greenbaum : 7.5389195E-5
offset : 1.696257E-4
bottom : 3.5809868E-4
ill : 7.5389195E-5
edg : 3.392514E-4
anticip : 2.0732029E-4
fals : 3.7694597E-5
impli : 5.6541896E-5
negara : 7.5389195E-5
provision : 3.7694597E-5
imf : 1.8847299E-4
briskli : 5.6541896E-5
manuel : 3.7694597E-5
winter : 9.423649E-5
powder : 9.423649E-5
talli : 3.7694597E-5
benderli : 5.6541896E-5
liber : 3.7694597E-5
public : 5.465717E-4
paper : 1.319311E-4
spend : 0.0020543556
austrian : 1.1308379E-4
track : 1.319311E-4
bancorp : 1.1308379E-4
inc : 4.3348788E-4
banqu : 3.7694597E-5
repay : 1.319311E-4
overal : 3.0155678E-4
stephen : 3.7694597E-5
spent : 3.7694597E-5
trader : 1.319311E-4
dificult : 5.6541896E-5
mohammad : 3.7694597E-5
improv : 0.0018470354
instead : 1.5077839E-4
unlik : 3.204041E-4
trade : 0.0020543556
repai : 3.7694597E-5
round : 1.1308379E-4
growth : 0.010573335
slash : 5.6541896E-5
retir : 3.7694597E-5
controversi : 3.7694597E-5
perman : 3.7694597E-5
communist : 3.7694597E-5
exception : 5.6541896E-5
refus : 5.6541896E-5
year : 0.014512421
mainstai : 5.6541896E-5
dutch : 4.1464058E-4
markedli : 1.1308379E-4
temporari : 7.5389195E-5
describ : 5.6541896E-5
commerzbank : 3.7694597E-5
substanti : 3.0155678E-4
poor : 7.5389195E-5
quota : 3.7694597E-5
farm : 1.5077839E-4
rag : 2.0732029E-4
volum : 4.3348788E-4
near : 1.8847299E-4
rai : 3.7694597E-5
approxim : 5.6541896E-5
automobil : 5.6541896E-5
aberr : 9.423649E-5
agreement : 4.5233517E-4
loong : 3.7694597E-5
merchant : 5.6541896E-5
raw : 9.423649E-5
conserv : 3.7694597E-5
firmli : 7.5389195E-5
stop : 1.696257E-4
fairli : 3.7694597E-5
tietmey : 2.4501487E-4
economi : 0.005918052
detail : 2.827095E-4
eic : 5.6541896E-5
inmport : 3.7694597E-5
financier : 3.7694597E-5
least : 1.5077839E-4
consolid : 5.6541896E-5
milan : 3.7694597E-5
communiqu : 3.7694597E-5
dollar : 0.0020355084
eiu : 2.638622E-4
forese : 1.319311E-4
dual : 3.7694597E-5
measur : 0.0010366015
close : 3.957933E-4
sweep : 3.7694597E-5
expenditur : 4.9002975E-4
photo : 3.7694597E-5
abl : 2.0732029E-4
unleash : 3.7694597E-5
irv : 5.6541896E-5
descent : 5.6541896E-5
materi : 1.5077839E-4
swing : 2.0732029E-4
industrialis : 5.6541896E-5
fast : 2.0732029E-4
merchandis : 7.5389195E-5
uncompetit : 3.7694597E-5
exce : 2.0732029E-4
uncertainti : 1.319311E-4
nine : 1.8847299E-4
lastingli : 3.7694597E-5
lemper : 3.7694597E-5
eager : 5.6541896E-5
undertak : 5.6541896E-5
contribut : 9.989069E-4
pitfield : 3.7694597E-5
specif : 2.4501487E-4
bureacraci : 3.7694597E-5
spring : 3.7694597E-5
steepli : 5.6541896E-5
aggreg : 7.5389195E-5
act : 1.5077839E-4
post : 2.827095E-4
rel : 2.827095E-4
remedi : 3.7694597E-5
syeduzzaman : 7.5389195E-5
gdpwh : 1.1308379E-4
add : 3.204041E-4
initi : 1.5077839E-4
chimerin : 5.6541896E-5
need : 8.4812846E-4
steadili : 9.423649E-5
equival : 1.696257E-4
jaim : 3.7694597E-5
hardli : 5.6541896E-5
liberalis : 1.319311E-4
respect : 5.088771E-4
retreat : 3.7694597E-5
transact : 5.6541896E-5
risen : 3.7694597E-5
hohenwarth : 1.696257E-4
canada : 5.277244E-4
vno : 3.7694597E-5
altern : 5.6541896E-5
washington : 1.319311E-4
shelv : 3.7694597E-5
trust : 5.6541896E-5
koido : 1.1308379E-4
ideolog : 3.7694597E-5
famili : 2.2616758E-4
consequ : 1.1308379E-4
prevent : 5.6541896E-5
scope : 3.392514E-4
end : 0.0016208678
janua : 3.7694597E-5
modifi : 5.6541896E-5
otherwis : 3.7694597E-5
aggrav : 5.6541896E-5
particip : 3.7694597E-5
succe : 1.5077839E-4
pour : 3.7694597E-5
contin : 7.5389195E-5
rich : 3.7694597E-5
anyth : 3.7694597E-5
howev : 6.596555E-4
estim : 0.0014889366
special : 1.319311E-4
horizon : 1.1308379E-4
togeth : 1.5077839E-4
agre : 5.088771E-4
numer : 5.6541896E-5
chiefli : 3.7694597E-5
albeit : 3.7694597E-5
skinner : 3.7694597E-5
smaller : 1.5077839E-4
told : 8.2928117E-4
specul : 5.6541896E-5
challeng : 7.5389195E-5
ago : 3.392514E-4
slim : 7.5389195E-5
jerri : 3.7694597E-5
uptrend : 7.5389195E-5
slightli : 8.6697575E-4
number : 2.638622E-4
identifi : 9.423649E-5
saito : 7.5389195E-5
epa : 3.7694597E-5
slack : 5.6541896E-5
rio : 5.6541896E-5
narrow : 1.5077839E-4
sprinkel : 1.8847299E-4
newli : 5.6541896E-5
similar : 5.6541896E-5
swiss : 2.2616758E-4
ceil : 1.5077839E-4
haiaut : 1.1308379E-4
system : 3.957933E-4
mariano : 5.6541896E-5
likelihood : 5.6541896E-5
driven : 1.696257E-4
partial : 7.5389195E-5
aid : 1.319311E-4
issu : 3.957933E-4
other : 2.2616758E-4
aim : 4.1464058E-4
turnaround : 5.6541896E-5
drastic : 9.423649E-5
air : 5.6541896E-5
slowdown : 3.392514E-4
tonn : 1.1308379E-4
local : 2.4501487E-4
retail : 1.8847299E-4
resum : 9.423649E-5
crude : 7.5389195E-5
pictur : 1.319311E-4
assur : 5.6541896E-5
assum : 2.2616758E-4
yield : 2.0732029E-4
wendi : 3.7694597E-5
share : 2.0732029E-4
optimist : 2.2616758E-4
speak : 9.423649E-5
deficit : 0.002902484
tender : 7.5389195E-5
ncw : 3.7694597E-5
err : 7.5389195E-5
fisheri : 5.6541896E-5
chairman : 3.204041E-4
harar : 3.7694597E-5
sharp : 2.827095E-4
notic : 5.6541896E-5
surpris : 1.319311E-4
slip : 5.6541896E-5
exampl : 1.1308379E-4
cite : 9.423649E-5
strongest : 3.7694597E-5
shake : 5.6541896E-5
creditworthi : 2.4501487E-4
remitt : 5.6541896E-5
cent : 6.785028E-4
correspond : 9.423649E-5
spur : 1.696257E-4
neg : 3.204041E-4
imbal : 2.0732029E-4
ceoe : 9.423649E-5
bureau : 3.0155678E-4
net : 3.5809868E-4
belgium : 2.4501487E-4
ali : 3.7694597E-5
all : 2.0732029E-4
bode : 5.6541896E-5
new : 0.0010366015
took : 1.5077839E-4
steeper : 5.6541896E-5
read : 1.319311E-4
below : 1.1308379E-4
fidel : 3.7694597E-5
todai : 6.2196085E-4
choos : 5.6541896E-5
real : 0.0011685325
unit : 6.785028E-4
alreadi : 1.8847299E-4
alan : 5.6541896E-5
therefor : 1.1308379E-4
bodi : 9.423649E-5
collect : 7.5389195E-5
gear : 5.6541896E-5
inequit : 3.7694597E-5
benderlei : 3.7694597E-5
around : 7.5389195E-4
favour : 2.827095E-4
badli : 3.7694597E-5
telegraph : 5.6541896E-5
resolv : 5.6541896E-5
calcul : 1.696257E-4
and : 2.827095E-4
synchron : 9.423649E-5
predict : 6.408082E-4
ani : 9.423649E-5
abroad : 1.696257E-4
financ : 0.001130838
relianc : 5.6541896E-5
malcolm : 3.7694597E-5
parliamentari : 3.7694597E-5
transport : 1.1308379E-4
strategi : 1.8847299E-4
spectr : 7.5389195E-5
committe : 1.8847299E-4
dispar : 5.6541896E-5
previou : 5.465717E-4
martin : 3.7694597E-5
until : 5.6541896E-5
storag : 7.5389195E-5
ouko : 1.696257E-4
reason : 3.5809868E-4
unemploy : 6.785028E-4
slifer : 1.319311E-4
thought : 7.5389195E-5
maintain : 4.5233517E-4
turkei : 1.1308379E-4
belgian : 2.2616758E-4
shift : 3.204041E-4
ship : 9.423649E-5
wilfri : 5.6541896E-5
echo : 2.638622E-4
johnson : 1.5077839E-4
bargain : 5.6541896E-5
compon : 2.0732029E-4
strateg : 3.7694597E-5
annual : 9.42365E-4
mistak : 7.5389195E-5
zealand : 1.1308379E-4
resort : 9.423649E-5
epac : 1.1308379E-4
margin : 1.8847299E-4
remain : 9.0467033E-4
chirac : 1.319311E-4
demand : 0.0025066908
slow : 9.42365E-4
necessarili : 5.6541896E-5
tandler : 5.6541896E-5
volatil : 3.7694597E-5
recommend : 3.7694597E-5
etla : 3.7694597E-5
experienc : 7.5389195E-5
worth : 3.7694597E-5
vendor : 5.6541896E-5
taken : 3.392514E-4
grace : 5.6541896E-5
came : 1.1308379E-4
broader : 3.7694597E-5
popular : 5.6541896E-5
broaden : 5.6541896E-5
broken : 9.423649E-5
vice : 3.7694597E-5
malaysian : 1.319311E-4
black : 5.6541896E-5
balanc : 0.0010177542
call : 3.0155678E-4
facilit : 5.6541896E-5
kunio : 3.7694597E-5
such : 5.6541896E-5
wilson : 9.423649E-5
marten : 1.696257E-4
essenti : 2.2616758E-4
remaind : 5.6541896E-5
ask : 2.2616758E-4
questionmark : 7.5389195E-5
beigi : 3.7694597E-5
through : 3.7694597E-5
strength : 4.711825E-4
disregard : 3.7694597E-5
inflationari : 1.696257E-4
run : 2.0732029E-4
philip : 3.7694597E-5
research : 3.957933E-4
worri : 2.638622E-4
technolog : 3.7694597E-5
view : 3.0155678E-4
either : 3.204041E-4
white : 3.7694597E-5
acknowledg : 1.696257E-4
mitsubishi : 3.7694597E-5
huge : 5.6541896E-5
difficulti : 2.638622E-4
watcher : 3.7694597E-5
might : 1.696257E-4
defens : 3.7694597E-5
nni : 5.6541896E-5
deflationari : 3.7694597E-5
reconstruct : 3.7694597E-5
effici : 2.0732029E-4
viciou : 3.7694597E-5
rein : 5.6541896E-5
giro : 3.7694597E-5
longer : 1.319311E-4
introduc : 7.5389195E-5
privat : 8.2928117E-4
consum : 6.408082E-4
reopen : 5.6541896E-5
kiel : 9.423649E-5
crow : 9.423649E-5
inflow : 1.696257E-4
worst : 1.319311E-4
crop : 7.5389195E-5
notabl : 1.1308379E-4
next : 8.104339E-4
retrain : 3.7694597E-5
napm : 1.1308379E-4
import : 0.0012439217
reli : 1.5077839E-4
boom : 9.423649E-5
stockbuild : 3.7694597E-5
abolish : 5.6541896E-5
attract : 7.5389195E-5
truck : 3.7694597E-5
book : 1.1308379E-4
show : 0.0017339515
devel : 7.5389195E-5
non : 3.5809868E-4
shot : 3.7694597E-5
not : 9.423649E-5
central : 7.1619736E-4
capac : 1.1308379E-4
defend : 1.5077839E-4
defenc : 9.423649E-5
nearli : 2.0732029E-4
now : 4.711825E-4
leagu : 5.6541896E-5
introduct : 7.5389195E-5
statement : 4.5233517E-4
annualis : 5.6541896E-5
factor : 5.465717E-4
wai : 3.204041E-4
lehman : 5.6541896E-5
negoti : 1.8847299E-4
enabl : 5.6541896E-5
yasuhiro : 3.7694597E-5
bonn : 2.827095E-4
associ : 3.204041E-4
europ : 3.957933E-4
emphasi : 2.2616758E-4
war : 5.6541896E-5
mamman : 9.423649E-5
grew : 7.5389195E-4
bond : 5.465717E-4
target : 0.0012816164
momentum : 1.319311E-4
tokyo : 2.2616758E-4
finnish : 3.7694597E-5
deliveri : 2.0732029E-4
what : 5.6541896E-5
bolivia : 3.0155678E-4
african : 1.319311E-4
risk : 4.5233517E-4
window : 5.6541896E-5
rise : 0.0060311356
underpin : 3.7694597E-5
braverman : 9.423649E-5
leader : 1.319311E-4
previs : 3.7694597E-5
loosen : 1.1308379E-4
pitnei : 3.7694597E-5
rent : 3.7694597E-5
significantli : 2.0732029E-4
modest : 1.696257E-4
plai : 5.6541896E-5
anxious : 5.6541896E-5
kathleen : 5.6541896E-5
haruo : 3.7694597E-5
far : 4.9002975E-4
quickli : 1.1308379E-4
greec : 5.6541896E-5
electron : 5.6541896E-5
broad : 1.319311E-4
plan : 0.0015077839
greater : 1.696257E-4
cash : 7.5389195E-5
case : 7.5389195E-5
give : 3.392514E-4
sundai : 3.7694597E-5
yendol : 5.6541896E-5
item : 3.7694597E-5
nairobi : 5.6541896E-5
lowest : 3.204041E-4
destin : 9.423649E-5
collaps : 3.0155678E-4
explicit : 5.6541896E-5
studi : 1.1308379E-4
consid : 2.827095E-4
nogal : 1.8847299E-4
futur : 9.42365E-4
carl : 3.7694597E-5
slide : 9.423649E-5
suit : 3.7694597E-5
allevi : 5.6541896E-5
keat : 2.4501487E-4
care : 7.5389195E-5
stockholm : 3.7694597E-5
implicit : 3.7694597E-5
hussein : 3.7694597E-5
mitig : 5.6541896E-5
reluctantli : 5.6541896E-5
australian : 1.319311E-4
direct : 2.4501487E-4
heighten : 5.6541896E-5
pattern : 9.423649E-5
surplu : 8.4812846E-4
labour : 9.423649E-5
gain : 0.0017904934
caus : 5.8426626E-4
mccarthi : 1.319311E-4
kilo : 9.423649E-5
protect : 1.696257E-4
manoeuvr : 9.423649E-5
berlin : 5.6541896E-5
earner : 5.6541896E-5
janeiro : 5.6541896E-5
stress : 1.5077839E-4
disput : 7.5389195E-5
consumpt : 7.3504465E-4
more : 2.4501487E-4
alon : 5.6541896E-5
wet : 9.423649E-5
systemat : 3.7694597E-5
great : 5.6541896E-5
markka : 3.7694597E-5
lacklustr : 3.7694597E-5
inflat : 0.0033925138
harri : 3.7694597E-5
indebted : 9.423649E-5
certain : 7.5389195E-5
advanc : 1.319311E-4
board : 2.2616758E-4
januarif : 3.7694597E-5
feb : 9.423649E-5
donna : 3.7694597E-5
fed : 6.0311356E-4
broadli : 1.319311E-4
taxat : 2.0732029E-4
simpli : 5.6541896E-5
peruvian : 5.6541896E-5
markdo : 5.6541896E-5
constantli : 3.7694597E-5
unrepres : 7.5389195E-5
dispos : 5.6541896E-5
orient : 3.7694597E-5
amsterdam : 3.7694597E-5
daili : 5.6541896E-5
rais : 3.7694597E-4
plea : 3.7694597E-5
both : 1.1308379E-4
syndic : 3.7694597E-5
market : 0.0017151042
most : 2.2616758E-4
shill : 7.5389195E-5
transfer : 5.6541896E-5
turkish : 5.6541896E-5
overhaul : 5.6541896E-5
effect : 6.973501E-4
keep : 4.5233517E-4
cumul : 5.6541896E-5
job : 9.423649E-5
omit : 3.7694597E-5
option : 3.7694597E-5
cloth : 5.6541896E-5
appreci : 3.0155678E-4
largest : 1.696257E-4
joe : 5.6541896E-5
sponsor : 5.6541896E-5
dhaka : 3.7694597E-5
reagan : 1.1308379E-4
crucial : 3.7694597E-5
unveil : 5.6541896E-5
continu : 0.002073203
remark : 1.319311E-4
resid : 1.1308379E-4
strive : 9.423649E-5
along : 9.423649E-5
gerold : 3.7694597E-5
billion : 0.0033736667
parallel : 5.6541896E-5
reject : 1.319311E-4
sai : 0.0015266312
wim : 3.7694597E-5
david : 7.5389195E-5
profit : 4.1464058E-4
rest : 3.5809868E-4
move : 5.088771E-4
amount : 2.4501487E-4
dislik : 9.423649E-5
reflationari : 7.5389195E-5
masahiko : 3.7694597E-5
saw : 3.0155678E-4
also : 0.0013381583
enough : 1.319311E-4
liabl : 5.6541896E-5
diminish : 9.423649E-5
surpass : 9.423649E-5
situat : 3.5809868E-4
lyle : 3.7694597E-5
fargo : 3.7694597E-5
favor : 3.7694597E-5
front : 9.423649E-5
taketomi : 7.5389195E-5
confid : 3.392514E-4
extent : 7.5389195E-5
bad : 3.392514E-4
potenti : 3.5809868E-4
bring : 4.1464058E-4
hsien : 3.7694597E-5
complet : 9.423649E-5
recalcul : 7.5389195E-5
squeez : 3.7694597E-5
offer : 4.5233517E-4
rand : 2.4501487E-4
suffer : 7.5389195E-5
claus : 7.5389195E-5
fix : 2.2616758E-4
pretoria : 3.7694597E-5
draft : 7.5389195E-5
giant : 3.7694597E-5
portend : 3.7694597E-5
cfdt : 3.7694597E-5
rang : 9.42365E-4
despit : 3.957933E-4
posit : 4.3348788E-4
surg : 2.0732029E-4
ad : 0.004617588
grow : 0.0021862867
sure : 2.4501487E-4
shrink : 1.319311E-4
ag : 3.7694597E-5
secur : 3.204041E-4
an : 1.8847299E-4
greatli : 5.6541896E-5
extend : 7.5389195E-5
as : 3.0155678E-4
automak : 1.1308379E-4
at : 4.3348788E-4
plant : 1.319311E-4
drive : 5.6541896E-5
hurt : 1.5077839E-4
economiqu : 3.7694597E-5
sdr : 3.7694597E-5
dean : 3.7694597E-5
strong : 5.277244E-4
deal : 5.6541896E-5
be : 7.5389195E-5
scheme : 5.6541896E-5
affect : 1.8847299E-4
buildup : 5.6541896E-5
sea : 5.6541896E-5
see : 8.4812846E-4
domin : 3.7694597E-5
by : 3.0155678E-4
westdeutsch : 3.7694597E-5
franc : 0.0015643259
barnei : 3.7694597E-5
subdu : 5.6541896E-5
developp : 3.7694597E-5
insuffici : 5.6541896E-5
saddl : 5.6541896E-5
deleg : 7.5389195E-5
ca : 3.7694597E-5
ce : 7.5389195E-5
set : 8.6697575E-4
contain : 2.2616758E-4
rationalis : 5.6541896E-5
edgar : 7.5389195E-5
co : 1.1308379E-4
food : 1.1308379E-4
figur : 0.0010177542
franz : 5.6541896E-5
partner : 1.5077839E-4
somewhat : 9.423649E-5
interview : 1.696257E-4
equiti : 3.7694597E-5
db : 5.6541896E-5
jobless : 7.5389195E-5
de : 9.423649E-5
oecd : 5.8426626E-4
featur : 1.5077839E-4
offic : 3.0155678E-4
payrol : 3.7694597E-5
extern : 3.957933E-4
forc : 2.638622E-4
parti : 7.5389195E-5
bet : 1.319311E-4
disinflationari : 5.6541896E-5
contact : 2.638622E-4
won : 1.1308379E-4
michel : 5.6541896E-5
ec : 2.0732029E-4
signific : 3.392514E-4
em : 7.5389195E-5
en : 5.6541896E-5
carri : 9.423649E-5
et : 3.7694597E-5
alain : 3.7694597E-5
clarifi : 3.7694597E-5
expatri : 3.7694597E-5
adjust : 6.408082E-4
activ : 5.65419E-4
western : 5.6541896E-5
upham : 5.6541896E-5
compat : 5.6541896E-5
debt : 0.0016208678
compar : 0.0023747596
compet : 5.6541896E-5
indic : 7.5389195E-4
criticis : 9.423649E-5
origin : 1.8847299E-4
for : 2.827095E-4
exclud : 5.6541896E-5
depress : 1.319311E-4
funaro : 9.423649E-5
content : 3.7694597E-5
burden : 1.8847299E-4
symposium : 3.7694597E-5
hover : 5.6541896E-5
rate : 0.007633156
sanction : 7.5389195E-5
await : 1.1308379E-4
ga : 5.6541896E-5
promot : 9.423649E-5
samaila : 3.7694597E-5
internation : 3.7694597E-5
sit : 1.696257E-4
over : 7.5389195E-5
spanish : 3.7694597E-5
outperform : 3.7694597E-5
six : 3.957933E-4
bounc : 3.7694597E-5
bound : 5.6541896E-5
go : 3.7694597E-4
gatt : 7.5389195E-5
dalla : 5.6541896E-5
kept : 3.7694597E-5
contrari : 1.1308379E-4
treasur : 5.6541896E-5
crisanti : 5.6541896E-5
wyss : 9.423649E-5
publish : 2.4501487E-4
ha : 3.7694597E-5
farmer : 1.319311E-4
refinanc : 5.6541896E-5
restor : 7.5389195E-5
renew : 2.2616758E-4
bia : 5.6541896E-5
avoid : 1.1308379E-4
disburs : 9.423649E-5
fresh : 5.6541896E-5
foundat : 7.5389195E-5
he : 0.0011119907
prompt : 3.7694597E-5
withdraw : 5.6541896E-5
big : 9.423649E-5
hi : 5.6541896E-5
postpon : 3.7694597E-5
philipp : 3.7694597E-5
congress : 7.5389195E-5
canadian : 9.423649E-5
degre : 5.6541896E-5
hr : 3.7694597E-5
sick : 2.0732029E-4
moroni : 5.6541896E-5
output : 0.0010366015
veri : 3.7694597E-5
promis : 3.204041E-4
four : 5.8426626E-4
context : 5.6541896E-5
decemb : 0.0012816164
ordinari : 3.7694597E-5
moder : 4.5233517E-4
decis : 4.1464058E-4
if : 2.638622E-4
french : 4.5233517E-4
oct : 1.5077839E-4
in : 0.0014323947
director : 2.0732029E-4
lower : 0.0010554488
metal : 3.7694597E-5
tomorrow : 5.6541896E-5
index : 7.915866E-4
worldwid : 5.6541896E-5
is : 5.6541896E-5
it : 0.001451242
inevit : 5.6541896E-5
tigrel : 1.319311E-4
decid : 5.6541896E-5
christma : 7.5389195E-5
advisori : 5.6541896E-5
reduct : 7.1619736E-4
raul : 3.7694597E-5
resler : 7.5389195E-5
experi : 5.6541896E-5
contrast : 2.0732029E-4
santiago : 3.7694597E-5
gave : 7.5389195E-5
john : 3.7694597E-5
begin : 3.7694597E-4
wider : 3.7694597E-5
valu : 6.596555E-4
brought : 1.5077839E-4
widen : 1.319311E-4
optim : 9.423649E-5
neighbour : 3.7694597E-5
believ : 2.4501487E-4
gerhard : 3.7694597E-5
lure : 5.6541896E-5
settlement : 7.5389195E-5
world : 6.0311356E-4
slump : 5.6541896E-5
urgent : 5.6541896E-5
bankruptci : 5.6541896E-5
consensu : 3.7694597E-5
veto : 7.5389195E-5
belief : 5.6541896E-5
ottawa : 1.1308379E-4
side : 2.0732029E-4
break : 1.319311E-4
viabil : 5.6541896E-5
nesbitt : 3.7694597E-5
lawson : 4.3348788E-4
draw : 3.7694597E-5
itali : 2.0732029E-4
off : 1.1308379E-4
comfort : 3.7694597E-5
schill : 3.7694597E-5
centraal : 5.6541896E-5
la : 3.7694597E-5
report : 0.00327943
societ : 3.7694597E-5
le : 1.1308379E-4
tendenc : 1.1308379E-4
expans : 6.0311356E-4
auto : 1.1308379E-4
constant : 5.6541896E-5
receiv : 2.827095E-4
fsical : 3.7694597E-5
sign : 6.0311356E-4
while : 1.5077839E-4
second : 7.3504465E-4
that : 4.711825E-4
faster : 1.1308379E-4
high : 3.392514E-4
split : 7.5389195E-5
morgan : 3.7694597E-5
than : 3.7694597E-5
limit : 1.5077839E-4
me : 3.7694597E-5
claim : 1.8847299E-4
pessimist : 6.408082E-4
widespread : 3.7694597E-5
brian : 3.7694597E-5
petroleum : 9.423649E-5
administr : 1.8847299E-4
level : 0.0012250744
turmoil : 7.5389195E-5
author : 0.0010742961
survei : 1.8847299E-4
my : 3.7694597E-5
fecom : 3.7694597E-5
chosen : 3.7694597E-5
deter : 9.423649E-5
daniel : 3.7694597E-5
expand : 6.785028E-4
canberra : 1.5077839E-4
bob : 3.7694597E-5
fiscal : 7.915866E-4
venezuelan : 3.7694597E-5
nd : 3.7694597E-5
updat : 3.7694597E-5
produc : 9.6121227E-4
legisl : 2.4501487E-4
unilater : 5.6541896E-5
heat : 3.7694597E-5
bon : 3.7694597E-5
behind : 5.6541896E-5
no : 5.6541896E-5
bridg : 7.5389195E-5
underscor : 5.6541896E-5
schedul : 1.5077839E-4
bow : 3.7694597E-5
afloat : 3.7694597E-5
head : 2.0732029E-4
total : 3.392514E-4
deni : 7.5389195E-5
oil : 7.727393E-4
of : 3.392514E-4
composit : 5.6541896E-5
possibl : 2.0732029E-4
involv : 9.423649E-5
dynam : 7.5389195E-5
hear : 3.7694597E-5
on : 0.0018658827
blah : 5.277244E-4
economist : 0.0016208678
or : 5.6541896E-5
landesbank : 3.7694597E-5
clair : 3.7694597E-5
social : 9.423649E-5
lusinchi : 1.1308379E-4
conclus : 7.5389195E-5
ow : 1.696257E-4
control : 3.5809868E-4
confer : 5.465717E-4
friction : 7.5389195E-5
pretti : 7.5389195E-5
extrem : 7.5389195E-5
equip : 1.696257E-4
kuala : 5.6541896E-5
offici : 0.0015831732
carlo : 3.7694597E-5
incorpor : 3.7694597E-5
easier : 7.5389195E-5
edmond : 3.7694597E-5
bolivian : 7.5389195E-5
inland : 3.7694597E-5
nation : 0.0014700893
geographi : 5.6541896E-5
rocket : 3.7694597E-5
upper : 3.7694597E-5
stood : 9.423649E-5
paint : 5.6541896E-5
environ : 1.696257E-4
factori : 5.6541896E-5
necessari : 2.4501487E-4
damag : 3.7694597E-5
strengthen : 2.2616758E-4
vienna : 7.5389195E-5
recent : 5.465717E-4
secondari : 3.7694597E-5
streamlin : 3.7694597E-5
varieti : 5.6541896E-5
old : 3.7694597E-5
stg : 5.088771E-4
australia : 3.7694597E-4
them : 1.1308379E-4
thei : 2.2616758E-4
accept : 9.423649E-5
rd : 3.7694597E-5
re : 7.5389195E-5
includ : 2.4501487E-4
adopt : 7.5389195E-5
autumn : 4.5233517E-4
coalit : 5.6541896E-5
austria : 3.7694597E-5
madrid : 5.6541896E-5
minut : 3.7694597E-5
motor : 5.6541896E-5
currenc : 0.0010177542
secretari : 1.696257E-4
cautiou : 9.423649E-5
sum : 7.5389195E-5
seek : 1.319311E-4
yearli : 3.7694597E-5
seen : 3.7694597E-4
kei : 2.4501487E-4
seem : 2.2616758E-4
kenya : 1.1308379E-4
current : 0.0012062271
democrat : 5.6541896E-5
sh : 5.6541896E-5
resumpt : 9.423649E-5
ouvrier : 3.7694597E-5
civilian : 3.7694597E-5
persist : 3.7694597E-5
so : 1.1308379E-4
pump : 7.5389195E-5
caution : 1.8847299E-4
lacina : 7.5389195E-5
calendar : 1.8847299E-4
intern : 7.727393E-4
onc : 7.5389195E-5
lumpur : 5.6541896E-5
jose : 3.7694597E-5
viabl : 5.6541896E-5
centr : 1.1308379E-4
entrepris : 3.7694597E-5
intervent : 2.0732029E-4
closer : 5.6541896E-5
stori : 7.5389195E-5
pledg : 1.8847299E-4
confirm : 1.319311E-4
emerg : 3.7694597E-5
increasingli : 1.5077839E-4
th : 1.696257E-4
enforc : 3.7694597E-5
bui : 2.638622E-4
remov : 5.6541896E-5
appoint : 7.5389195E-5
to : 4.5233517E-4
fourth : 9.6121227E-4
typic : 3.7694597E-5
but : 0.0013947001
shortfal : 2.0732029E-4
joint : 5.6541896E-5
expens : 1.319311E-4
willing : 1.319311E-4
satisfactori : 1.5077839E-4
express : 5.6541896E-5
deterior : 7.5389195E-5
distrigaz : 1.1308379E-4
zero : 1.696257E-4
countri : 0.0017151042
uk : 3.7694597E-5
johsen : 3.7694597E-5
assumpt : 2.0732029E-4
written : 1.1308379E-4
up : 3.5809868E-4
provok : 3.7694597E-5
sector : 0.002016661
us : 3.7694597E-4
usual : 9.423649E-5
solut : 1.696257E-4
substitut : 5.6541896E-5
brake : 5.6541896E-5
chancellor : 2.0732029E-4
recess : 3.7694597E-4
vi : 9.423649E-5
extract : 1.5077839E-4
brazilian : 3.7694597E-5
hint : 5.6541896E-5
electr : 3.7694597E-5
bolster : 9.423649E-5
know : 7.5389195E-5
gotoh : 5.6541896E-5
region : 1.319311E-4
support : 3.957933E-4
sinc : 6.973501E-4
higher : 8.4812846E-4
coin : 2.4501487E-4
drop : 0.0012439217
bretz : 5.6541896E-5
brazil : 3.5809868E-4
planbureau : 5.6541896E-5
hire : 3.7694597E-5
econometr : 3.7694597E-5
wa : 5.6541896E-5
pure : 3.7694597E-5
unchang : 5.088771E-4
we : 5.8426626E-4
wellington : 3.7694597E-5
gap : 1.5077839E-4
inventori : 6.973501E-4
normal : 3.7694597E-5
socialist : 5.6541896E-5
gradual : 9.423649E-5
slight : 1.5077839E-4
wide : 7.5389195E-5
previous : 1.5077839E-4
russel : 3.7694597E-5
newspap : 5.6541896E-5
accumul : 3.7694597E-5
weaker : 1.319311E-4
distribut : 9.423649E-5
weaken : 3.7694597E-5
stone : 1.1308379E-4
succeed : 9.423649E-5
bangladesh : 5.6541896E-5
sourc : 2.638622E-4
held : 7.5389195E-5
justifi : 5.6541896E-5
sach : 5.6541896E-5
reach : 2.638622E-4
react : 7.5389195E-5
april : 4.3348788E-4
beyond : 3.7694597E-5
problem : 6.596555E-4
scant : 7.5389195E-5
children : 7.5389195E-5
road : 3.7694597E-5
review : 5.65419E-4
yo : 5.6541896E-5
tighter : 1.5077839E-4
weather : 2.827095E-4
unbalanc : 5.6541896E-5
tighten : 3.7694597E-5
between : 3.7694597E-5
phase : 3.7694597E-5
goal : 2.0732029E-4
method : 1.319311E-4
contract : 4.1464058E-4
sluggish : 3.957933E-4
come : 6.0311356E-4
credibl : 1.319311E-4
banker : 1.1308379E-4
wifo : 1.319311E-4
push : 1.696257E-4
exist : 5.6541896E-5
gdp : 0.0027140111
drexel : 3.7694597E-5
penalti : 3.7694597E-5
opportun : 7.5389195E-5
exact : 3.7694597E-5
lift : 9.423649E-5
feder : 7.3504465E-4
regist : 1.5077839E-4
destabil : 9.423649E-5
educ : 3.7694597E-5
henc : 5.6541896E-5
south : 1.319311E-4
testimoni : 7.5389195E-5
north : 5.6541896E-5
firebal : 5.6541896E-5
eishiro : 3.7694597E-5
copi : 1.696257E-4
our : 5.6541896E-5
weak : 7.3504465E-4
out : 5.6541896E-5
cope : 7.5389195E-5
impress : 5.6541896E-5
leak : 7.5389195E-5
climat : 7.5389195E-5
flat : 2.0732029E-4
induc : 3.7694597E-5
get : 1.319311E-4
stabilis : 2.827095E-4
statist : 7.1619736E-4
power : 3.7694597E-4
packag : 2.2616758E-4
semi : 7.5389195E-5
place : 1.1308379E-4
leav : 1.1308379E-4
regular : 5.6541896E-5
firmer : 5.6541896E-5
restart : 3.7694597E-5
obrinski : 9.423649E-5
reviv : 1.1308379E-4
sell : 7.5389195E-5
pickup : 1.5077839E-4
militari : 3.7694597E-5
suggest : 3.5809868E-4
observ : 5.6541896E-5
lead : 6.2196085E-4
fraction : 7.5389195E-5
expect : 0.004485657
help : 6.2196085E-4
assess : 9.423649E-5
repurchas : 3.7694597E-5
self : 3.7694597E-5
behaviour : 1.1308379E-4
revis : 0.0014700893
asset : 1.8847299E-4
chemic : 5.6541896E-5
date : 1.5077839E-4
reiter : 1.8847299E-4
argument : 7.5389195E-5
tuesdai : 7.5389195E-5
data : 5.465717E-4
corp : 2.0732029E-4
sound : 5.6541896E-5
own : 1.1308379E-4
surprisingli : 3.7694597E-5
begun : 1.319311E-4
cork : 9.423649E-5
separ : 3.7694597E-5
barrier : 1.319311E-4
argentina : 5.6541896E-5
hagu : 3.7694597E-5
should : 5.6541896E-5
econom : 0.0028836369
replac : 3.7694597E-5
macroeconom : 3.7694597E-5
portug : 3.7694597E-5
like : 0.0014889366
onli : 7.5389195E-5
unpleas : 5.6541896E-5
tax : 0.0019978138
brisk : 7.5389195E-5
sent : 7.5389195E-5
bloc : 1.5077839E-4
westlb : 7.5389195E-5
council : 1.696257E-4
person : 1.1308379E-4
safe : 5.6541896E-5
reaffirm : 5.6541896E-5
ground : 9.423649E-5
temperatur : 3.7694597E-5
here : 1.319311E-4
istat : 7.5389195E-5
note : 7.915866E-4
week : 4.9002975E-4
deplet : 3.7694597E-5
line : 7.915866E-4
link : 2.0732029E-4
scale : 9.423649E-5
becom : 2.0732029E-4
provis : 1.1308379E-4
kenyan : 1.319311E-4
plagu : 3.7694597E-5
overvalu : 7.5389195E-5
onno : 3.7694597E-5
car : 7.5389195E-5
satisfi : 1.696257E-4
februari : 0.0015077839
recoveri : 5.8426626E-4
disequilibrium : 3.7694597E-5
said : 0.030381847
provid : 1.8847299E-4
greatest : 3.7694597E-5
cost : 6.2196085E-4
lima : 5.6541896E-5
will : 1.319311E-4
readi : 9.423649E-5
passeng : 3.7694597E-5
match : 3.7694597E-5
stanlei : 5.6541896E-5
versu : 9.423649E-5
follow : 7.1619736E-4
intent : 2.2616758E-4
york : 1.8847299E-4
disciplin : 3.7694597E-5
rival : 3.7694597E-5
brussel : 1.319311E-4
intend : 5.6541896E-5
