0.008236221852273722
german : 2.409703E-4
half : 9.638812E-4
hostag : 5.3548956E-5
northgat : 8.0323436E-5
govern : 6.425875E-4
novo : 8.0323436E-5
internationalis : 5.3548956E-5
cch : 5.3548956E-5
without : 1.338724E-4
these : 8.0323436E-5
would : 0.0015796942
palladium : 3.748427E-4
warrant : 0.0011513026
switzerland : 3.2129374E-4
journalist : 1.6064687E-4
cove : 1.338724E-4
illinoi : 1.8742135E-4
indosuez : 1.338724E-4
seri : 1.8742135E-4
much : 1.8742135E-4
coron : 8.0323436E-5
catalyt : 8.0323436E-5
ahead : 8.0323436E-5
mineabl : 8.0323436E-5
miner : 0.0016332432
gold : 0.01566307
result : 0.0020080858
helena : 1.6064687E-4
vancouv : 4.2839165E-4
surfac : 2.9451927E-4
quiet : 8.0323436E-5
after : 8.0323436E-5
a : 9.906557E-4
b : 3.2129374E-4
c : 3.748427E-4
address : 8.0323436E-5
d : 1.0709791E-4
e : 1.0709791E-4
f : 2.677448E-4
g : 2.1419582E-4
h : 1.0709791E-4
i : 1.0709791E-4
j : 8.0323436E-5
tradit : 5.3548956E-5
union : 7.496854E-4
l : 8.0323436E-5
suiss : 2.1419582E-4
m : 8.0323436E-5
n : 1.0709791E-4
soviet : 5.3548956E-5
o : 5.3548956E-5
the : 0.0040161717
p : 1.0709791E-4
coeur : 8.0323436E-5
r : 1.338724E-4
sale : 7.496854E-4
s : 2.9451927E-4
t : 2.409703E-4
thi : 1.338724E-4
u : 0.0011245281
w : 1.0709791E-4
x : 1.0709791E-4
y : 1.338724E-4
britannia : 3.4806822E-4
citibank : 2.1419582E-4
correct : 1.0709791E-4
ghana : 2.677448E-4
kobe : 1.0709791E-4
sharpli : 8.0323436E-5
exceed : 8.0323436E-5
payback : 1.338724E-4
pai : 2.1419582E-4
export : 2.409703E-4
par : 8.0323436E-5
rome : 1.338724E-4
area : 1.6064687E-4
practic : 1.338724E-4
nationwid : 5.3548956E-5
european : 1.0709791E-4
goldsi : 1.0709791E-4
reduc : 1.0709791E-4
check : 1.6064687E-4
list : 1.8742135E-4
andrew : 5.3548956E-5
gone : 1.0709791E-4
sleeper : 5.3548956E-5
practis : 8.0323436E-5
success : 1.0709791E-4
hundr : 8.0323436E-5
ensur : 8.0323436E-5
treasuri : 2.1419582E-4
underwritten : 8.0323436E-5
determin : 1.6064687E-4
germani : 1.6064687E-4
live : 1.6064687E-4
pct : 0.0058368365
witt : 1.8742135E-4
perform : 1.6064687E-4
myra : 1.6064687E-4
peak : 2.677448E-4
alberta : 1.338724E-4
sangsu : 8.0323436E-5
better : 1.338724E-4
with : 8.0323436E-5
china : 2.1419582E-4
there : 2.677448E-4
permit : 2.9451927E-4
analyst : 4.0161717E-4
well : 5.6226406E-4
outlook : 1.338724E-4
sydnei : 8.0323436E-5
strongli : 1.0709791E-4
american : 3.748427E-4
pioneer : 1.6064687E-4
approach : 5.3548956E-5
imposit : 1.0709791E-4
struck : 1.338724E-4
per : 0.0021687327
propos : 3.2129374E-4
flow : 8.0323436E-5
order : 2.409703E-4
gbylf : 5.3548956E-5
africa : 4.5516613E-4
capabl : 8.0323436E-5
colleagu : 2.409703E-4
period : 5.354896E-4
went : 1.0709791E-4
proceed : 3.4806822E-4
revenu : 1.0709791E-4
understand : 8.0323436E-5
ever : 5.3548956E-5
even : 5.3548956E-5
undermin : 5.3548956E-5
bulk : 8.0323436E-5
jointli : 1.8742135E-4
larger : 5.3548956E-5
wait : 5.3548956E-5
queen : 8.0323436E-5
cmp : 1.0709791E-4
increas : 8.300088E-4
institut : 1.0709791E-4
entitl : 5.3548956E-5
chromit : 5.3548956E-5
concret : 1.6064687E-4
mondai : 1.338724E-4
ton : 0.008782029
particularli : 8.0323436E-5
top : 8.0323436E-5
too : 5.3548956E-5
luxembourg : 1.338724E-4
ecuadorean : 8.0323436E-5
avail : 3.2129374E-4
product : 0.0033735842
question : 8.0323436E-5
bought : 2.1419582E-4
roughli : 5.3548956E-5
santia : 1.6064687E-4
frankfurt : 1.0709791E-4
cheap : 8.0323436E-5
bayonet : 1.6064687E-4
charact : 5.3548956E-5
rose : 6.425875E-4
thousand : 2.1419582E-4
resurrect : 1.0709791E-4
instal : 1.338724E-4
prohibit : 8.0323436E-5
jewelleri : 1.8742135E-4
almost : 5.3548956E-5
reign : 5.3548956E-5
lac : 2.9451927E-4
proce : 3.4806822E-4
lag : 5.3548956E-5
earlier : 5.6226406E-4
biggest : 8.0323436E-5
unabl : 8.0323436E-5
west : 6.6936197E-4
pit : 2.1419582E-4
stock : 9.906557E-4
suspend : 5.3548956E-5
beneath : 8.0323436E-5
law : 1.338724E-4
comparison : 8.0323436E-5
piog : 5.3548956E-5
tri : 8.0323436E-5
less : 7.229109E-4
welcom : 8.0323436E-5
condition : 8.0323436E-5
were : 8.0323436E-5
try : 8.0323436E-5
basic : 5.3548956E-5
lake : 4.5516613E-4
busi : 2.1419582E-4
tse : 5.3548956E-5
drillhol : 5.3548956E-5
design : 8.0323436E-5
pire : 1.0709791E-4
land : 8.300088E-4
witbank : 5.3548956E-5
crk : 1.0709791E-4
levi : 1.0709791E-4
encourag : 3.4806822E-4
plc : 1.0709791E-4
accord : 2.409703E-4
investor : 8.567833E-4
conduct : 1.8742135E-4
wale : 8.0323436E-5
plu : 8.0323436E-5
misima : 1.0709791E-4
feasibl : 4.819406E-4
disclos : 5.3548956E-5
japan : 6.15813E-4
tug : 8.0323436E-5
csx : 1.0709791E-4
mccoi : 1.8742135E-4
led : 2.1419582E-4
absorb : 1.338724E-4
enhanc : 8.0323436E-5
concern : 8.0323436E-5
reassert : 8.0323436E-5
mountain : 5.3548956E-5
contruct : 8.0323436E-5
decad : 8.0323436E-5
lesser : 5.3548956E-5
doyon : 1.338724E-4
state : 4.819406E-4
worker : 5.8903854E-4
press : 1.6064687E-4
drift : 2.677448E-4
yesterdai : 1.338724E-4
began : 1.6064687E-4
gener : 2.409703E-4
geduld : 5.3548956E-5
night : 5.3548956E-5
want : 2.1419582E-4
each : 2.409703E-4
kong : 2.677448E-4
wane : 1.338724E-4
tvx : 2.9451927E-4
must : 8.0323436E-5
creditor : 1.6064687E-4
peke : 5.3548956E-5
suppli : 4.5516613E-4
provinc : 1.338724E-4
liabil : 1.6064687E-4
cut : 8.0323436E-5
toronto : 7.496854E-4
document : 5.3548956E-5
unzan : 8.0323436E-5
two : 9.1033225E-4
chase : 1.0709791E-4
found : 6.15813E-4
residu : 5.3548956E-5
larg : 1.338724E-4
amselco : 2.677448E-4
shout : 1.0709791E-4
anoth : 3.4806822E-4
creation : 8.0323436E-5
resourc : 0.0013119495
latest : 1.0709791E-4
pend : 5.3548956E-5
think : 1.338724E-4
clive : 5.3548956E-5
concess : 1.8742135E-4
charg : 2.1419582E-4
ppw : 8.0323436E-5
cabinet : 1.8742135E-4
clai : 8.0323436E-5
tedi : 5.3548956E-5
hailei : 1.0709791E-4
southwest : 8.0323436E-5
attend : 2.9451927E-4
grootvlei : 1.0709791E-4
statutori : 8.0323436E-5
had : 8.0323436E-5
adjac : 8.0323436E-5
lynch : 5.3548956E-5
nicel : 8.0323436E-5
structur : 1.0709791E-4
late : 2.409703E-4
outpac : 1.8742135E-4
fume : 8.0323436E-5
incred : 5.3548956E-5
budget : 8.0323436E-5
doubl : 8.0323436E-5
given : 1.8742135E-4
eastern : 5.3548956E-5
pre : 1.338724E-4
undertook : 8.0323436E-5
last : 5.087151E-4
jungl : 8.0323436E-5
carat : 8.0323436E-5
wash : 5.3548956E-5
weight : 5.3548956E-5
develop : 0.0012584005
eagl : 2.9451927E-4
warm : 5.3548956E-5
district : 1.338724E-4
gooseberri : 5.3548956E-5
receipt : 3.4806822E-4
full : 1.8742135E-4
bhpgm : 2.409703E-4
effort : 1.338724E-4
peru : 1.8742135E-4
volatili : 1.0709791E-4
goldplat : 5.3548956E-5
yen : 7.229109E-4
center : 5.3548956E-5
start : 0.0010977536
shore : 8.0323436E-5
yet : 1.0709791E-4
gallium : 8.0323436E-5
earli : 2.1419582E-4
chanc : 1.8742135E-4
pty : 5.3548956E-5
downsid : 5.3548956E-5
fund : 3.748427E-4
chang : 1.338724E-4
short : 8.300088E-4
financi : 5.3548956E-5
time : 1.8742135E-4
haitian : 5.3548956E-5
dominion : 5.3548956E-5
compris : 1.6064687E-4
program : 0.0011513026
three : 9.371067E-4
syngold : 1.338724E-4
put : 4.5516613E-4
hecla : 2.1419582E-4
preproduct : 5.3548956E-5
pachapidiana : 1.8742135E-4
carbon : 1.338724E-4
golden : 2.409703E-4
payment : 8.0323436E-5
enter : 8.0323436E-5
tran : 1.6064687E-4
iran : 5.3548956E-5
pressur : 4.5516613E-4
inlet : 5.3548956E-5
coast : 8.0323436E-5
quot : 8.0323436E-5
philosophi : 1.0709791E-4
merril : 5.3548956E-5
vehicl : 2.1419582E-4
januari : 2.409703E-4
dome : 1.338724E-4
anti : 5.3548956E-5
lot : 3.2129374E-4
premium : 6.425875E-4
low : 1.6064687E-4
prefeas : 5.3548956E-5
grown : 8.0323436E-5
smash : 8.0323436E-5
hamburg : 1.338724E-4
meant : 8.0323436E-5
stearn : 8.0323436E-5
cornucopia : 8.0323436E-5
small : 1.338724E-4
quick : 8.0323436E-5
dai : 4.5516613E-4
shown : 1.8742135E-4
major : 2.9451927E-4
zone : 9.906557E-4
maison : 8.0323436E-5
disast : 2.409703E-4
submiss : 1.0709791E-4
affair : 5.3548956E-5
bear : 1.6064687E-4
inspir : 2.1419582E-4
titl : 1.0709791E-4
consider : 8.0323436E-5
tele : 1.0709791E-4
group : 3.748427E-4
obtain : 8.0323436E-5
damper : 1.8742135E-4
gross : 8.0323436E-5
employe : 3.4806822E-4
island : 1.6064687E-4
dampen : 5.3548956E-5
done : 8.0323436E-5
water : 8.0323436E-5
udf : 8.0323436E-5
funer : 1.8742135E-4
exchang : 6.6936197E-4
achiev : 2.1419582E-4
ssmc : 5.3548956E-5
scienc : 1.6064687E-4
part : 1.0709791E-4
howard : 8.0323436E-5
pyongyang : 1.6064687E-4
novemb : 1.338724E-4
point : 3.2129374E-4
baord : 8.0323436E-5
east : 6.6936197E-4
geolog : 1.338724E-4
saskatchewan : 1.6064687E-4
hiroshi : 5.3548956E-5
ltd : 0.0018206645
facil : 1.8742135E-4
tael : 8.0323436E-5
process : 2.409703E-4
bottl : 5.3548956E-5
clear : 1.0709791E-4
diamond : 1.0709791E-4
tomaqu : 8.0323436E-5
build : 5.3548956E-5
mean : 5.3548956E-5
earn : 3.4806822E-4
neither : 5.3548956E-5
further : 5.3548956E-5
recov : 1.8742135E-4
dec : 8.0323436E-5
cambior : 8.0323436E-5
japanes : 2.1419582E-4
addit : 2.9451927E-4
unstabl : 8.0323436E-5
parliament : 8.0323436E-5
record : 5.3548956E-5
partli : 5.3548956E-5
chicago : 1.338724E-4
subsidiari : 5.3548956E-5
jump : 8.0323436E-5
hardrock : 5.3548956E-5
mile : 1.338724E-4
past : 1.8742135E-4
mild : 5.3548956E-5
impact : 1.0709791E-4
bill : 2.9451927E-4
especi : 2.409703E-4
court : 5.3548956E-5
distort : 8.0323436E-5
ralli : 2.1419582E-4
mill : 8.0323435E-4
buyer : 2.409703E-4
senior : 8.0323436E-5
juli : 8.0323436E-5
preserv : 8.0323436E-5
organ : 8.0323436E-5
treatment : 8.0323436E-5
zurich : 1.338724E-4
mascot : 8.0323436E-5
wednesdai : 2.409703E-4
bachem : 8.0323436E-5
interior : 5.3548956E-5
mint : 5.6226406E-4
how : 1.0709791E-4
releas : 1.338724E-4
peter : 8.0323436E-5
term : 6.15813E-4
celebr : 8.0323436E-5
regul : 5.3548956E-5
mine : 0.009344293
goedf : 8.0323436E-5
fluctuat : 1.6064687E-4
apartheid : 5.3548956E-5
tail : 2.409703E-4
ming : 5.3548956E-5
right : 3.2129374E-4
incx : 5.3548956E-5
march : 0.0034271332
reuter : 3.2129374E-4
june : 1.338724E-4
meet : 1.8742135E-4
stage : 1.8742135E-4
borrow : 5.3548956E-5
paul : 5.3548956E-5
richest : 5.3548956E-5
quarter : 8.0323436E-5
norgold : 3.2129374E-4
london : 5.087151E-4
reserv : 0.0038019759
eysken : 8.0323436E-5
down : 8.0323436E-5
hold : 5.354896E-4
elabor : 2.1419582E-4
later : 3.2129374E-4
prior : 2.1419582E-4
rouyn : 8.0323436E-5
legal : 5.3548956E-5
talk : 1.8742135E-4
richard : 5.3548956E-5
overburden : 2.9451927E-4
test : 5.087151E-4
exhaust : 8.0323436E-5
brown : 8.0323436E-5
take : 2.677448E-4
month : 8.300088E-4
final : 1.8742135E-4
octob : 2.409703E-4
toyota : 1.0709791E-4
dowa : 8.0323436E-5
some : 2.409703E-4
virtual : 5.3548956E-5
princ : 5.3548956E-5
back : 2.1419582E-4
divis : 2.409703E-4
compani : 0.0026506733
underli : 5.3548956E-5
calif : 1.0709791E-4
pound : 2.9451927E-4
goldman : 1.0709791E-4
houston : 1.8742135E-4
owner : 1.6064687E-4
sold : 3.2129374E-4
collabor : 1.0709791E-4
boddington : 5.3548956E-5
asia : 1.6064687E-4
length : 2.1419582E-4
und : 8.0323436E-5
dlr : 0.0049532787
grand : 1.0709791E-4
troi : 3.4806822E-4
home : 1.0709791E-4
hole : 0.0013387239
oxid : 1.6064687E-4
michael : 5.3548956E-5
condit : 3.748427E-4
although : 1.6064687E-4
diplomat : 5.3548956E-5
relat : 8.0323436E-5
grant : 4.5516613E-4
basket : 5.3548956E-5
miun : 5.3548956E-5
construct : 8.300088E-4
hope : 1.6064687E-4
leonora : 8.0323436E-5
elsewher : 1.0709791E-4
attempt : 1.8742135E-4
soon : 2.9451927E-4
thick : 8.0323436E-5
influenc : 2.409703E-4
america : 5.3548956E-5
action : 1.8742135E-4
lock : 1.338724E-4
gonaiv : 5.3548956E-5
latin : 5.3548956E-5
gramt : 8.0323436E-5
rapidli : 8.0323436E-5
fear : 1.8742135E-4
creat : 1.338724E-4
made : 2.9451927E-4
bloodstain : 5.3548956E-5
protest : 3.748427E-4
manag : 4.5516613E-4
bell : 2.9451927E-4
hong : 1.0709791E-4
purchas : 3.4806822E-4
papua : 1.0709791E-4
field : 2.9451927E-4
underground : 7.496854E-4
shole : 8.0323436E-5
singl : 8.0323436E-5
britain : 2.9451927E-4
natur : 1.0709791E-4
baldwin : 5.3548956E-5
guaranti : 1.6064687E-4
summer : 2.409703E-4
eight : 3.2129374E-4
mai : 4.5516613E-4
creek : 1.8742135E-4
buoyant : 5.3548956E-5
timmin : 5.3548956E-5
member : 2.1419582E-4
surround : 5.3548956E-5
banda : 8.0323436E-5
ridgewai : 1.338724E-4
mat : 5.3548956E-5
within : 1.8742135E-4
could : 8.300088E-4
strike : 5.8903854E-4
bwrlf : 1.0709791E-4
quebec : 6.425875E-4
kazuo : 5.3548956E-5
noranda : 1.0709791E-4
prospect : 3.748427E-4
exercis : 1.338724E-4
probabl : 4.5516613E-4
return : 6.425875E-4
commemor : 1.338724E-4
feet : 0.0042035934
subject : 4.5516613E-4
sophist : 5.3548956E-5
feel : 1.6064687E-4
british : 6.425875E-4
main : 8.0323436E-5
convent : 5.3548956E-5
strip : 2.677448E-4
fine : 5.3548956E-5
find : 0.0010709792
dri : 1.0709791E-4
usx : 5.3548956E-5
credit : 2.1419582E-4
citizen : 1.0709791E-4
carolina : 8.0323436E-5
difficult : 8.0323436E-5
film : 5.3548956E-5
failur : 8.0323436E-5
clayton : 8.0323436E-5
astro : 1.0709791E-4
asamera : 1.8742135E-4
true : 5.3548956E-5
present : 5.354896E-4
sentiment : 1.338724E-4
best : 8.0323436E-5
galact : 8.0323436E-5
sour : 5.3548956E-5
execut : 1.8742135E-4
hous : 1.0709791E-4
custer : 8.0323436E-5
men : 5.3548956E-5
make : 4.0161717E-4
capit : 7.229109E-4
heard : 8.0323436E-5
goldmin : 8.0323436E-5
spokesman : 6.425875E-4
culpabl : 5.3548956E-5
competit : 2.1419582E-4
calgari : 8.0323436E-5
stake : 0.0010442047
due : 5.354896E-4
newfoundland : 1.0709791E-4
domest : 5.3548956E-5
disagre : 1.8742135E-4
underlin : 8.0323436E-5
canamax : 2.1419582E-4
threat : 8.0323436E-5
shoji : 8.0323436E-5
depend : 1.338724E-4
about : 1.338724E-4
commit : 8.0323436E-5
cover : 2.677448E-4
firm : 5.087151E-4
bank : 7.229109E-4
fire : 5.3548956E-5
immedi : 1.0709791E-4
eluvi : 5.3548956E-5
richmond : 8.0323436E-5
august : 5.3548956E-5
ministri : 2.1419582E-4
benefit : 1.8742135E-4
pillar : 1.0709791E-4
encount : 1.338724E-4
declar : 8.0323436E-5
boost : 1.0709791E-4
except : 1.0709791E-4
qualiti : 5.3548956E-5
acquir : 3.2129374E-4
fact : 1.0709791E-4
rankin : 5.3548956E-5
monthli : 1.0709791E-4
mid : 1.338724E-4
long : 4.2839165E-4
announc : 2.1419582E-4
fell : 5.087151E-4
excess : 5.3548956E-5
industri : 3.4806822E-4
defin : 8.0323436E-5
free : 1.0709791E-4
meston : 1.338724E-4
emphas : 1.0709791E-4
reaction : 8.0323436E-5
star : 5.3548956E-5
though : 1.0709791E-4
polit : 1.0709791E-4
mann : 5.3548956E-5
gordon : 8.0323436E-5
appear : 3.2129374E-4
face : 2.677448E-4
stab : 8.0323436E-5
fish : 1.338724E-4
polic : 2.1419582E-4
oper : 0.0012048515
mani : 3.4806822E-4
open : 2.677448E-4
ratio : 1.8742135E-4
monei : 3.2129374E-4
invest : 3.4806822E-4
cannon : 8.0323436E-5
rapid : 8.0323436E-5
seven : 4.2839165E-4
project : 0.0010174302
whatev : 8.0323436E-5
spike : 8.0323436E-5
sever : 2.1419582E-4
wholli : 1.0709791E-4
california : 8.0323436E-5
five : 4.819406E-4
evalu : 1.6064687E-4
endors : 5.3548956E-5
mapl : 1.8742135E-4
felt : 1.8742135E-4
campbel : 8.0323436E-5
look : 1.338724E-4
mln : 0.0020348604
repres : 1.8742135E-4
korea : 1.0709791E-4
hermann : 8.0323436E-5
disrupt : 8.0323436E-5
concentr : 5.354896E-4
investig : 1.0709791E-4
knobb : 5.3548956E-5
allow : 2.1419582E-4
squar : 1.338724E-4
commerci : 2.1419582E-4
detect : 5.3548956E-5
inyo : 5.3548956E-5
everi : 5.3548956E-5
organis : 1.338724E-4
nurukawa : 5.3548956E-5
peopl : 2.1419582E-4
outsid : 1.0709791E-4
interest : 0.0018742135
appli : 8.0323436E-5
commod : 1.338724E-4
presid : 4.2839165E-4
nickel : 1.6064687E-4
offshoot : 1.6064687E-4
middl : 1.338724E-4
again : 8.0323436E-5
verein : 1.338724E-4
insur : 5.3548956E-5
comment : 1.8742135E-4
basi : 3.2129374E-4
televis : 5.3548956E-5
excit : 5.3548956E-5
mark : 1.6064687E-4
base : 6.9613644E-4
transkei : 1.338724E-4
septemb : 8.0323436E-5
minist : 1.0709791E-4
safeti : 5.3548956E-5
preliminari : 1.6064687E-4
bossa : 8.0323436E-5
consist : 1.338724E-4
murgold : 8.0323436E-5
businessmen : 5.3548956E-5
loss : 1.338724E-4
quantiti : 1.338724E-4
price : 0.003534231
chibougamu : 5.3548956E-5
profession : 5.3548956E-5
val : 1.338724E-4
still : 3.4806822E-4
work : 9.906557E-4
lose : 5.3548956E-5
declin : 4.5516613E-4
minework : 5.087151E-4
fail : 1.338724E-4
itself : 5.3548956E-5
repaid : 8.0323436E-5
among : 8.0323436E-5
emperor : 5.3548956E-5
osaka : 1.0709791E-4
singapor : 5.3548956E-5
impos : 4.2839165E-4
requir : 1.8742135E-4
foreign : 3.4806822E-4
poin : 8.0323436E-5
across : 1.6064687E-4
pacificorp : 5.3548956E-5
fall : 2.1419582E-4
kilomet : 2.1419582E-4
decreas : 8.0323436E-5
pois : 1.338724E-4
bullish : 5.3548956E-5
subscrib : 1.0709791E-4
sulphid : 8.0323436E-5
collieri : 1.0709791E-4
appropri : 8.0323436E-5
queensland : 1.8742135E-4
flurri : 8.0323436E-5
opinion : 5.3548956E-5
agenc : 5.3548956E-5
pacif : 4.2839165E-4
averag : 0.00179389
first : 7.496854E-4
mainli : 1.0709791E-4
quotat : 1.0709791E-4
alleg : 8.0323436E-5
float : 3.4806822E-4
eco : 5.3548956E-5
monetari : 5.3548956E-5
chamber : 1.338724E-4
portfolio : 1.6064687E-4
ecu : 4.5516613E-4
simpl : 5.3548956E-5
appar : 5.3548956E-5
from : 1.0709791E-4
portugues : 5.3548956E-5
depart : 8.0323436E-5
offset : 5.3548956E-5
bottom : 5.3548956E-5
garcia : 1.8742135E-4
anticip : 8.0323436E-5
death : 1.0709791E-4
membership : 8.0323436E-5
trace : 1.338724E-4
public : 4.819406E-4
paper : 8.0323436E-5
takeov : 1.8742135E-4
mandela : 8.0323436E-5
idaho : 2.9451927E-4
inc : 0.0011780771
banqu : 5.3548956E-5
ing : 1.8742135E-4
nevada : 7.496854E-4
overal : 5.3548956E-5
spent : 1.6064687E-4
trader : 8.0323436E-5
improv : 7.229109E-4
unlik : 1.8742135E-4
trade : 0.0010977536
repai : 5.3548956E-5
allig : 1.0709791E-4
starrex : 1.8742135E-4
growth : 2.9451927E-4
bullion : 6.6936197E-4
pope : 1.338724E-4
refus : 2.409703E-4
year : 0.006104581
branch : 1.338724E-4
nationalist : 5.3548956E-5
temporari : 8.0323436E-5
describ : 8.0323436E-5
commerzbank : 8.0323436E-5
substanti : 1.6064687E-4
alaska : 8.0323436E-5
volum : 2.677448E-4
near : 6.15813E-4
approxim : 8.0323436E-5
newslett : 8.0323436E-5
conserv : 8.0323436E-5
fairli : 1.0709791E-4
economi : 1.338724E-4
detail : 2.677448E-4
placement : 8.0323436E-5
donalda : 8.0323436E-5
boston : 1.338724E-4
least : 1.0709791E-4
consolid : 3.4806822E-4
dollar : 8.835578E-4
lacana : 5.3548956E-5
irc : 5.3548956E-5
close : 6.425875E-4
treatabl : 8.0323436E-5
expenditur : 1.338724E-4
abl : 8.0323436E-5
dissatisfact : 5.3548956E-5
anniversari : 1.8742135E-4
materi : 2.1419582E-4
exce : 1.0709791E-4
uncertainti : 1.0709791E-4
nine : 1.8742135E-4
undertak : 8.0323436E-5
contribut : 1.0709791E-4
acm : 8.0323436E-5
specif : 5.3548956E-5
red : 5.3548956E-5
aggreg : 5.3548956E-5
acr : 1.6064687E-4
act : 2.1419582E-4
post : 5.3548956E-5
rel : 1.6064687E-4
sampl : 1.0709791E-4
add : 8.0323436E-5
initi : 3.2129374E-4
eli : 5.3548956E-5
need : 5.087151E-4
equival : 4.0161717E-4
jail : 5.3548956E-5
els : 5.3548956E-5
respect : 8.0323436E-5
transact : 4.2839165E-4
risen : 1.338724E-4
soweto : 5.3548956E-5
shandong : 5.3548956E-5
canada : 1.338724E-4
port : 8.0323436E-5
altern : 5.3548956E-5
washington : 5.3548956E-5
trust : 8.0323436E-5
hofer : 1.6064687E-4
solang : 5.3548956E-5
famili : 1.6064687E-4
ride : 8.0323436E-5
undilut : 5.3548956E-5
untap : 5.3548956E-5
ridg : 1.6064687E-4
end : 6.6936197E-4
haiti : 8.0323436E-5
dakota : 1.8742135E-4
otherwis : 1.0709791E-4
intersect : 6.9613644E-4
particip : 2.409703E-4
northeast : 2.1419582E-4
rich : 8.0323436E-5
howev : 3.748427E-4
aft : 5.3548956E-5
estim : 0.0015261453
special : 1.338724E-4
environment : 5.3548956E-5
togeth : 1.8742135E-4
agre : 3.4806822E-4
escudo : 1.6064687E-4
unsubordin : 5.3548956E-5
township : 5.3548956E-5
shaft : 5.6226406E-4
iranian : 5.3548956E-5
smaller : 1.6064687E-4
pgulf : 5.3548956E-5
told : 2.677448E-4
specul : 4.0161717E-4
manitoba : 2.1419582E-4
properti : 0.0023293796
heilongjiang : 8.0323436E-5
gympi : 5.3548956E-5
number : 2.677448E-4
slightli : 1.338724E-4
ketza : 1.0709791E-4
identifi : 5.3548956E-5
breakwat : 5.3548956E-5
leverag : 1.8742135E-4
narrow : 2.677448E-4
newli : 1.6064687E-4
similar : 1.8742135E-4
partnership : 5.3548956E-5
nordberg : 5.3548956E-5
swiss : 3.4806822E-4
peripheri : 1.8742135E-4
system : 1.338724E-4
nbh : 3.4806822E-4
seventh : 5.3548956E-5
spot : 8.0323436E-5
silver : 0.0020884094
characterist : 1.8742135E-4
issu : 0.0023293796
other : 8.0323436E-5
aim : 2.677448E-4
technigen : 1.338724E-4
retain : 8.0323436E-5
tonn : 0.0020080858
local : 1.0709791E-4
resum : 8.0323436E-5
crude : 1.0709791E-4
crew : 1.338724E-4
assur : 1.8742135E-4
locat : 8.0323435E-4
yield : 3.2129374E-4
share : 0.0012584005
deficit : 8.0323436E-5
tender : 8.0323436E-5
chairman : 1.0709791E-4
notic : 5.3548956E-5
sharp : 5.3548956E-5
nagano : 1.338724E-4
citi : 2.677448E-4
ivanho : 5.3548956E-5
hemlo : 5.3548956E-5
movement : 1.8742135E-4
donald : 5.3548956E-5
cent : 2.409703E-4
nem : 5.3548956E-5
ner : 1.0709791E-4
bureau : 1.0709791E-4
net : 5.3548956E-5
belgium : 3.2129374E-4
oblig : 8.0323436E-5
nev : 2.1419582E-4
border : 1.338724E-4
all : 8.0323436E-5
new : 0.0013654984
escap : 8.0323436E-5
escal : 1.0709791E-4
todai : 5.6226406E-4
real : 1.338724E-4
tool : 1.0709791E-4
unit : 0.0011513026
alreadi : 1.0709791E-4
alan : 8.0323436E-5
viceroi : 1.338724E-4
uranium : 5.3548956E-5
bodi : 1.338724E-4
collect : 8.0323436E-5
ngc : 8.0323436E-5
amx : 5.3548956E-5
around : 1.0709791E-4
calcul : 1.6064687E-4
and : 2.1419582E-4
predict : 1.0709791E-4
ngx : 5.3548956E-5
ann : 8.0323436E-5
abroad : 2.1419582E-4
financ : 3.4806822E-4
indium : 8.0323436E-5
quartz : 5.3548956E-5
korean : 8.0323436E-5
citicorp : 1.6064687E-4
territori : 3.2129374E-4
boundari : 5.3548956E-5
previou : 5.3548956E-5
martin : 5.3548956E-5
crlnf : 5.3548956E-5
reason : 1.0709791E-4
thought : 8.0323436E-5
belgian : 1.0709791E-4
farther : 5.3548956E-5
shift : 8.0323436E-5
perth : 8.0323436E-5
echo : 2.409703E-4
contigu : 1.338724E-4
migrant : 1.0709791E-4
jan : 1.0709791E-4
annual : 3.2129374E-4
mistak : 1.0709791E-4
margin : 8.0323436E-5
waver : 2.9451927E-4
remain : 5.087151E-4
swindl : 8.0323436E-5
telfer : 5.3548956E-5
demand : 4.819406E-4
ounc : 0.011218507
slow : 1.338724E-4
grade : 0.0023561541
deposit : 0.0021687327
volatil : 2.409703E-4
northwest : 8.0323436E-5
patricia : 1.8742135E-4
recommend : 1.338724E-4
leach : 2.1419582E-4
worth : 3.4806822E-4
devis : 8.0323436E-5
taken : 1.6064687E-4
came : 1.338724E-4
arm : 1.0709791E-4
poona : 5.3548956E-5
epitherm : 5.3548956E-5
broken : 8.0323436E-5
vice : 1.0709791E-4
gram : 5.087151E-4
black : 3.748427E-4
holder : 1.338724E-4
broker : 8.0323436E-5
balanc : 8.0323436E-5
rtn : 5.3548956E-5
asa : 8.0323436E-5
call : 4.0161717E-4
ownership : 8.0323436E-5
metric : 5.3548956E-5
ask : 1.338724E-4
principl : 1.338724E-4
asm : 5.3548956E-5
cohen : 1.6064687E-4
inflationari : 1.8742135E-4
run : 8.0323436E-5
newmont : 2.677448E-4
worri : 1.8742135E-4
technolog : 5.3548956E-5
either : 1.0709791E-4
view : 8.0323436E-5
white : 5.3548956E-5
acknowledg : 1.0709791E-4
defraud : 8.0323436E-5
portland : 5.3548956E-5
throughput : 8.0323436E-5
housew : 1.0709791E-4
sovereign : 8.0323436E-5
levon : 2.9451927E-4
discov : 2.409703E-4
barrett : 1.338724E-4
town : 1.338724E-4
might : 1.338724E-4
flotat : 5.3548956E-5
camp : 8.0323436E-5
downdip : 5.3548956E-5
longer : 8.0323436E-5
privat : 1.0709791E-4
sunbeam : 1.338724E-4
consum : 5.3548956E-5
raytheon : 8.0323436E-5
name : 1.6064687E-4
physic : 1.6064687E-4
next : 1.0709791E-4
ccimf : 5.3548956E-5
import : 2.677448E-4
abolish : 1.0709791E-4
show : 6.9613644E-4
goldstrik : 5.3548956E-5
cautious : 5.3548956E-5
intergold : 8.0323436E-5
antiqu : 5.3548956E-5
scientif : 5.3548956E-5
central : 1.6064687E-4
capac : 1.338724E-4
murchison : 5.3548956E-5
now : 1.338724E-4
nearli : 1.0709791E-4
introduct : 8.0323436E-5
statement : 6.6936197E-4
mont : 5.3548956E-5
factor : 2.409703E-4
wai : 2.409703E-4
negoti : 2.1419582E-4
green : 1.0709791E-4
associ : 1.338724E-4
europ : 1.0709791E-4
war : 1.338724E-4
bond : 8.0323436E-5
grew : 1.0709791E-4
target : 3.4806822E-4
ronald : 5.3548956E-5
tokyo : 4.0161717E-4
deliveri : 1.0709791E-4
sedren : 8.0323436E-5
african : 3.748427E-4
risk : 2.1419582E-4
rise : 0.0018742135
leader : 1.6064687E-4
yard : 1.0709791E-4
nearb : 5.3548956E-5
significantli : 8.0323436E-5
issuer : 1.0709791E-4
modest : 8.0323436E-5
plai : 3.2129374E-4
far : 5.3548956E-5
quickli : 1.338724E-4
catch : 5.3548956E-5
plan : 7.496854E-4
cash : 1.6064687E-4
greater : 5.3548956E-5
case : 2.1419582E-4
give : 2.1419582E-4
westbank : 8.0323436E-5
chester : 5.3548956E-5
lowest : 5.3548956E-5
studi : 0.001231626
futur : 6.6936197E-4
everyth : 5.3548956E-5
explos : 8.0323436E-5
explor : 5.6226406E-4
southeastern : 5.3548956E-5
implicit : 1.6064687E-4
portion : 1.0709791E-4
australian : 1.0709791E-4
direct : 8.0323436E-5
surplu : 1.338724E-4
labour : 5.3548956E-5
gain : 3.748427E-4
caus : 1.0709791E-4
kilo : 5.3548956E-5
modern : 5.3548956E-5
more : 2.409703E-4
kill : 5.3548956E-5
galcf : 8.0323436E-5
morn : 1.8742135E-4
inflat : 2.677448E-4
width : 5.087151E-4
advanc : 5.3548956E-5
donna : 5.3548956E-5
arrest : 1.338724E-4
ignasio : 8.0323436E-5
num : 3.4806822E-4
section : 4.819406E-4
sulfid : 5.3548956E-5
enrich : 1.338724E-4
tasmania : 5.3548956E-5
daili : 4.819406E-4
westmin : 1.0709791E-4
rais : 2.677448E-4
market : 0.0022222816
transfer : 2.677448E-4
effect : 1.338724E-4
job : 4.5516613E-4
option : 3.748427E-4
largest : 1.8742135E-4
joe : 2.677448E-4
sponsor : 8.0323436E-5
game : 8.0323436E-5
reagan : 1.0709791E-4
ascertain : 8.0323436E-5
continu : 0.0011780771
remark : 1.6064687E-4
highlight : 1.0709791E-4
along : 1.8742135E-4
billion : 0.0010709792
parallel : 5.3548956E-5
arrang : 2.409703E-4
sai : 2.9451927E-4
profit : 4.819406E-4
lawyer : 1.6064687E-4
san : 8.0323436E-5
move : 6.15813E-4
amount : 4.5516613E-4
saw : 1.338724E-4
also : 9.638812E-4
prosecutor : 1.338724E-4
enough : 2.9451927E-4
differ : 5.3548956E-5
amapa : 5.3548956E-5
spread : 8.0323436E-5
gough : 5.3548956E-5
situat : 1.338724E-4
favor : 5.3548956E-5
cenepa : 1.338724E-4
front : 5.3548956E-5
approv : 0.0011513026
confid : 1.0709791E-4
extent : 1.0709791E-4
extens : 2.409703E-4
potenti : 5.354896E-4
bring : 3.748427E-4
bag : 5.3548956E-5
guinea : 8.0323436E-5
mgdvf : 5.3548956E-5
complet : 6.9613644E-4
bai : 3.2129374E-4
germanium : 1.0709791E-4
recalcul : 8.0323436E-5
offer : 1.8742135E-4
rand : 0.0015261453
fit : 8.0323436E-5
denver : 8.0323436E-5
bar : 2.677448E-4
suffer : 1.338724E-4
renounc : 5.3548956E-5
fix : 2.9451927E-4
pretoria : 8.0323436E-5
complex : 1.0709791E-4
giant : 1.0709791E-4
pension : 1.0709791E-4
rang : 6.425875E-4
despit : 3.2129374E-4
vaal : 1.0709791E-4
posit : 7.229109E-4
vein : 5.087151E-4
ad : 0.0019813115
grow : 1.338724E-4
ag : 1.8742135E-4
secur : 2.1419582E-4
an : 5.3548956E-5
former : 1.8742135E-4
extend : 2.409703E-4
ar : 5.3548956E-5
yukon : 1.8742135E-4
at : 4.0161717E-4
au : 5.3548956E-5
plant : 6.15813E-4
admiralti : 8.0323436E-5
feasabl : 8.0323436E-5
unsaf : 5.3548956E-5
lynn : 5.3548956E-5
joensson : 1.338724E-4
carlin : 5.3548956E-5
strong : 1.6064687E-4
deal : 8.0323436E-5
prove : 8.0323436E-5
scheme : 1.8742135E-4
homeland : 2.409703E-4
bh : 5.3548956E-5
affect : 2.1419582E-4
enquiri : 1.0709791E-4
proven : 7.229109E-4
bp : 4.5516613E-4
sixth : 5.3548956E-5
see : 4.2839165E-4
domin : 5.3548956E-5
by : 1.0709791E-4
westdeutsch : 8.0323436E-5
franc : 4.2839165E-4
montana : 2.1419582E-4
foot : 4.2839165E-4
contain : 0.001231626
set : 4.819406E-4
sex : 5.3548956E-5
co : 6.9613644E-4
food : 8.0323436E-5
figur : 6.425875E-4
ct : 8.0323436E-5
infrastructur : 8.0323436E-5
partner : 3.2129374E-4
river : 5.087151E-4
equiti : 5.3548956E-5
de : 5.3548956E-5
di : 8.0323436E-5
offic : 1.6064687E-4
dm : 5.3548956E-5
forc : 1.8742135E-4
do : 1.338724E-4
montagu : 8.0323435E-4
carolin : 2.409703E-4
sigma : 3.4806822E-4
sharehold : 3.2129374E-4
signific : 2.1419582E-4
franco : 1.338724E-4
kirkland : 5.3548956E-5
carri : 5.3548956E-5
integr : 8.0323436E-5
never : 1.0709791E-4
she : 5.3548956E-5
cyanid : 1.338724E-4
activ : 8.0323436E-5
western : 1.8742135E-4
debt : 4.2839165E-4
compar : 4.819406E-4
compet : 1.0709791E-4
indic : 6.15813E-4
deep : 5.3548956E-5
origin : 2.409703E-4
unsecur : 5.3548956E-5
for : 2.677448E-4
exclud : 1.8742135E-4
collector : 1.338724E-4
ft : 2.409703E-4
content : 8.0323436E-5
jefferson : 5.3548956E-5
winnemucca : 5.3548956E-5
rate : 0.001231626
regulatori : 1.6064687E-4
client : 1.6064687E-4
promot : 1.338724E-4
sit : 2.409703E-4
over : 8.0323436E-5
spanish : 5.3548956E-5
six : 2.409703E-4
narli : 5.3548956E-5
go : 2.409703E-4
bhp : 2.677448E-4
preciou : 2.409703E-4
pegasu : 8.0323436E-5
rehabilit : 5.3548956E-5
sjg : 5.3548956E-5
nisker : 5.3548956E-5
form : 5.3548956E-5
publish : 5.3548956E-5
ha : 1.6064687E-4
renew : 1.6064687E-4
foundat : 8.0323436E-5
bid : 8.0323436E-5
he : 1.338724E-4
prompt : 5.3548956E-5
tunnel : 2.1419582E-4
merger : 8.0323436E-5
big : 1.6064687E-4
hi : 8.0323436E-5
hl : 8.0323436E-5
crowd : 5.3548956E-5
congress : 8.0323436E-5
languish : 1.0709791E-4
canadian : 3.4806822E-4
ventur : 8.0323435E-4
output : 0.0010174302
four : 3.4806822E-4
decemb : 5.087151E-4
model : 2.1419582E-4
decis : 1.8742135E-4
zinc : 8.300088E-4
if : 1.8742135E-4
crown : 5.3548956E-5
ii : 5.3548956E-5
oct : 5.3548956E-5
in : 7.496854E-4
director : 2.1419582E-4
lower : 2.1419582E-4
termin : 5.3548956E-5
metal : 0.0010709792
tomorrow : 8.0323436E-5
worldwid : 1.338724E-4
index : 1.6064687E-4
it : 0.0016064687
suffoc : 5.3548956E-5
vertic : 8.0323436E-5
reduct : 1.338724E-4
santiago : 8.0323436E-5
gave : 1.338724E-4
john : 1.0709791E-4
begin : 3.2129374E-4
valu : 0.0010442047
weekend : 1.0709791E-4
plate : 5.3548956E-5
believ : 8.0323436E-5
amax : 1.338724E-4
world : 1.6064687E-4
anglo : 1.6064687E-4
bankruptci : 8.0323436E-5
moresbi : 5.3548956E-5
km : 1.0709791E-4
break : 3.2129374E-4
discoveri : 7.7645987E-4
draw : 8.0323436E-5
off : 1.0709791E-4
placer : 4.2839165E-4
lb : 1.8742135E-4
report : 0.0016332432
nerco : 1.8742135E-4
li : 1.6064687E-4
expans : 1.6064687E-4
constant : 8.0323436E-5
receiv : 1.8742135E-4
kinross : 1.8742135E-4
montreal : 5.3548956E-5
sign : 8.0323436E-5
northern : 2.409703E-4
while : 5.3548956E-5
jone : 5.3548956E-5
second : 3.2129374E-4
platinum : 6.425875E-4
high : 3.748427E-4
faster : 8.0323436E-5
son : 5.3548956E-5
morgan : 2.409703E-4
limit : 3.4806822E-4
claim : 3.4806822E-4
denomin : 3.748427E-4
petroleum : 2.1419582E-4
picken : 1.0709791E-4
toxic : 5.3548956E-5
mo : 8.0323436E-5
level : 8.0323435E-4
author : 2.409703E-4
meter : 1.0709791E-4
survei : 5.3548956E-5
establish : 3.4806822E-4
expand : 1.8742135E-4
na : 1.6064687E-4
apiec : 5.3548956E-5
nb : 5.3548956E-5
surfrac : 8.0323436E-5
nd : 5.3548956E-5
coal : 1.338724E-4
deka : 1.0709791E-4
produc : 0.001231626
boi : 1.6064687E-4
legisl : 8.0323436E-5
behind : 5.3548956E-5
no : 8.0323436E-5
tenth : 1.8742135E-4
underscor : 8.0323436E-5
schedul : 2.9451927E-4
switch : 1.338724E-4
matur : 2.1419582E-4
total : 4.5516613E-4
oil : 2.409703E-4
dalen : 8.0323436E-5
of : 1.338724E-4
geodom : 5.6226406E-4
homicid : 5.3548956E-5
involv : 1.6064687E-4
possibl : 6.15813E-4
heap : 1.0709791E-4
ok : 5.3548956E-5
on : 0.0019813115
technic : 5.3548956E-5
or : 0.0027845458
landesbank : 8.0323436E-5
conclus : 5.3548956E-5
ow : 1.0709791E-4
control : 4.2839165E-4
oz : 1.338724E-4
dredg : 8.0323436E-5
drill : 0.0019277624
confer : 2.1419582E-4
wenatche : 5.3548956E-5
highli : 1.0709791E-4
metallurg : 1.0709791E-4
equip : 4.819406E-4
offici : 6.9613644E-4
amen : 8.0323436E-5
easier : 1.8742135E-4
chibougamau : 5.3548956E-5
muskeg : 8.0323436E-5
nation : 3.2129374E-4
stood : 8.0323436E-5
eastward : 1.0709791E-4
necessari : 1.8742135E-4
vari : 5.3548956E-5
recent : 4.5516613E-4
attornei : 5.3548956E-5
old : 5.3548956E-5
australia : 4.5516613E-4
them : 8.0323436E-5
thei : 4.0161717E-4
edmonton : 8.0323436E-5
re : 1.338724E-4
includ : 7.496854E-4
northwestern : 8.0323436E-5
adopt : 8.0323436E-5
autumn : 1.0709791E-4
currenc : 1.6064687E-4
access : 8.0323436E-5
thhe : 5.3548956E-5
seek : 1.338724E-4
yearli : 1.0709791E-4
seen : 5.3548956E-5
seem : 1.8742135E-4
current : 4.819406E-4
democrat : 5.3548956E-5
copper : 9.638812E-4
samuel : 1.0709791E-4
implic : 5.3548956E-5
st : 2.409703E-4
exaia : 5.3548956E-5
intern : 1.6064687E-4
launch : 2.1419582E-4
interv : 3.748427E-4
emerg : 2.1419582E-4
hedg : 8.0323436E-5
hill : 1.8742135E-4
th : 1.0709791E-4
bui : 5.354896E-4
dealer : 2.9451927E-4
counti : 1.0709791E-4
to : 7.229109E-4
but : 6.425875E-4
symbol : 5.3548956E-5
joint : 2.1419582E-4
satisfactori : 8.0323436E-5
zero : 1.6064687E-4
countri : 2.409703E-4
microscop : 5.3548956E-5
variant : 5.3548956E-5
strohmey : 8.0323436E-5
up : 8.0323436E-5
us : 7.229109E-4
tonnag : 3.748427E-4
nelson : 5.3548956E-5
extract : 3.2129374E-4
ocean : 1.6064687E-4
dillut : 8.0323436E-5
region : 1.0709791E-4
support : 2.9451927E-4
vs : 1.338724E-4
sinc : 1.338724E-4
coin : 0.0036145546
higher : 4.819406E-4
drop : 2.1419582E-4
brazil : 1.338724E-4
proprietari : 5.3548956E-5
idea : 5.3548956E-5
wa : 8.0323436E-5
life : 0.001231626
we : 5.3548956E-5
gap : 1.0709791E-4
ora : 5.3548956E-5
previous : 2.409703E-4
licens : 1.338724E-4
recognit : 1.0709791E-4
trackless : 5.3548956E-5
ishikawa : 5.3548956E-5
stoppag : 1.0709791E-4
bankrupt : 1.0709791E-4
sourc : 5.3548956E-5
held : 2.1419582E-4
sach : 1.338724E-4
reach : 8.0323436E-5
april : 0.0013654984
techniqu : 1.6064687E-4
inexact : 5.3548956E-5
ontario : 4.0161717E-4
review : 8.0323436E-5
roar : 5.3548956E-5
between : 5.3548956E-5
phase : 1.0709791E-4
falconbridg : 8.0323436E-5
goal : 8.0323436E-5
method : 1.338724E-4
goldfield : 2.677448E-4
contract : 8.0323436E-5
melbourn : 8.0323436E-5
come : 2.9451927E-4
characteris : 5.3548956E-5
tamborapa : 8.0323436E-5
banker : 1.0709791E-4
utah : 5.3548956E-5
exist : 8.0323436E-5
johannesburg : 4.2839165E-4
columbia : 4.0161717E-4
seiz : 8.0323436E-5
regist : 1.338724E-4
feder : 5.3548956E-5
copp : 5.3548956E-5
south : 0.0010442047
north : 6.425875E-4
krugerrand : 1.0709791E-4
copi : 5.3548956E-5
weak : 1.6064687E-4
rock : 1.8742135E-4
climat : 1.8742135E-4
barrick : 8.0323436E-5
peseta : 1.0709791E-4
get : 1.0709791E-4
stabilis : 1.8742135E-4
accus : 5.3548956E-5
place : 1.8742135E-4
someon : 1.0709791E-4
firmer : 8.0323436E-5
sell : 3.4806822E-4
suspect : 1.0709791E-4
leaf : 1.338724E-4
lead : 7.229109E-4
fraction : 1.338724E-4
expect : 0.0023026052
help : 5.3548956E-5
site : 1.338724E-4
metalfinan : 5.3548956E-5
depth : 9.638812E-4
greenwich : 5.3548956E-5
revis : 8.0323436E-5
asset : 3.2129374E-4
chemic : 5.3548956E-5
date : 1.8742135E-4
tuesdai : 2.9451927E-4
corp : 0.001285175
hostel : 8.0323436E-5
own : 9.906557E-4
sound : 5.3548956E-5
separ : 8.0323436E-5
bours : 8.0323436E-5
yorkton : 5.3548956E-5
divers : 8.0323436E-5
econom : 1.338724E-4
replac : 8.0323436E-5
like : 5.8903854E-4
leslei : 8.0323436E-5
tax : 9.1033225E-4
council : 8.0323436E-5
fraud : 5.3548956E-5
person : 5.3548956E-5
turnov : 1.6064687E-4
here : 3.2129374E-4
note : 4.2839165E-4
week : 4.0161717E-4
line : 8.0323436E-5
link : 8.0323436E-5
deliv : 5.3548956E-5
scale : 1.0709791E-4
becom : 5.3548956E-5
februari : 9.906557E-4
recoveri : 2.9451927E-4
said : 0.025676725
provid : 3.2129374E-4
realli : 5.3548956E-5
cost : 0.0016867921
lima : 8.0323436E-5
assai : 0.0022490562
canti : 8.0323436E-5
treati : 1.338724E-4
versu : 8.0323436E-5
follow : 5.087151E-4
sufac : 5.3548956E-5
somewher : 1.0709791E-4
teberebi : 1.8742135E-4
cbt : 5.3548956E-5
kingslei : 5.3548956E-5
york : 4.5516613E-4
brussel : 8.0323436E-5
lvnvf : 5.3548956E-5
