4.380969070358363E-4
ccc : 2.2836264E-4
year : 0.0010504682
nation : 2.2836264E-4
japan : 1.3701759E-4
addit : 2.2836264E-4
ship : 2.7403518E-4
del : 9.134506E-5
beef : 1.3701759E-4
curb : 9.134506E-5
bargain : 1.3701759E-4
oilshorten : 4.1105275E-4
uncertain : 9.134506E-5
enhanc : 9.134506E-5
cover : 9.134506E-5
these : 9.134506E-5
nil : 4.1105275E-4
offer : 0.0010047957
bank : 9.134506E-5
would : 3.6538023E-4
quota : 4.1105275E-4
annual : 9.134506E-5
english : 9.134506E-5
farm : 1.8269011E-4
zealand : 1.3701759E-4
state : 1.3701759E-4
ten : 9.134506E-5
recent : 9.134506E-5
cuba : 9.134506E-5
yesterdai : 9.134506E-5
apr : 9.134506E-5
agreement : 2.7403518E-4
ad : 6.850879E-4
congression : 9.134506E-5
instruct : 1.3701759E-4
pass : 1.3701759E-4
gener : 9.134506E-5
stabil : 1.3701759E-4
bueno : 9.134506E-5
bill : 9.134506E-5
casein : 1.8269011E-4
countercycl : 9.134506E-5
australia : 1.8269011E-4
them : 9.134506E-5
sunflow : 1.3701759E-4
conserv : 9.134506E-5
extend : 2.7403518E-4
furthermor : 1.3701759E-4
includ : 5.4807035E-4
kansa : 9.134506E-5
boost : 1.3701759E-4
must : 1.3701759E-4
grower : 9.134506E-5
glenn : 9.134506E-5
czechoslovakia : 9.134506E-5
fact : 9.134506E-5
secretari : 2.2836264E-4
yeutter : 9.134506E-5
arlan : 9.134506E-5
affect : 1.3701759E-4
recommend : 1.3701759E-4
acquisit : 9.134506E-5
corpor : 9.134506E-5
two : 9.134506E-5
polici : 2.2836264E-4
rape : 9.134506E-5
current : 9.134506E-5
attack : 9.134506E-5
tariff : 1.8269011E-4
measur : 1.8269011E-4
samuel : 1.3701759E-4
wheat : 6.394154E-4
panel : 2.7403518E-4
anoth : 9.134506E-5
deleg : 2.2836264E-4
close : 1.3701759E-4
a : 9.134506E-5
contain : 3.197077E-4
d : 1.3701759E-4
okla : 9.134506E-5
kernel : 9.134506E-5
launch : 1.3701759E-4
appeal : 1.8269011E-4
union : 3.197077E-4
march : 1.3701759E-4
soviet : 1.3701759E-4
food : 1.3701759E-4
figur : 2.2836264E-4
minn : 1.3701759E-4
call : 2.2836264E-4
the : 7.76433E-4
asc : 1.8269011E-4
reuter : 1.8269011E-4
ct : 1.3701759E-4
countervail : 9.134506E-5
charg : 1.8269011E-4
sale : 1.8269011E-4
face : 1.3701759E-4
r : 1.3701759E-4
meet : 3.6538023E-4
thi : 9.134506E-5
u : 0.0010504682
w : 9.134506E-5
bui : 9.134506E-5
remov : 9.134506E-5
ask : 1.3701759E-4
oper : 3.6538023E-4
discuss : 1.8269011E-4
linse : 1.3701759E-4
southwest : 9.134506E-5
justif : 1.3701759E-4
oppos : 2.7403518E-4
smith : 9.134506E-5
branpol : 1.3701759E-4
expens : 1.3701759E-4
bulgaria : 9.134506E-5
good : 3.6538023E-4
reorgan : 1.3701759E-4
countri : 5.4807035E-4
later : 9.134506E-5
sever : 9.134506E-5
bracket : 1.8269011E-4
talk : 9.134506E-5
tobacco : 1.3701759E-4
rep : 2.7403518E-4
export : 1.8269011E-4
five : 9.134506E-5
reimburs : 1.3701759E-4
us : 1.8269011E-4
those : 9.134506E-5
area : 1.8269011E-4
shipment : 2.7403518E-4
signific : 9.134506E-5
last : 9.134506E-5
holland : 9.134506E-5
amend : 7.76433E-4
european : 9.134506E-5
reduc : 1.3701759E-4
subproduct : 1.3701759E-4
list : 1.3701759E-4
mln : 2.2836264E-4
repres : 9.134506E-5
take : 9.134506E-5
korea : 1.8269011E-4
month : 1.3701759E-4
canada : 1.3701759E-4
miscellan : 9.134506E-5
washington : 2.2836264E-4
support : 9.134506E-5
sinc : 1.8269011E-4
crop : 9.134506E-5
compar : 9.134506E-5
allow : 9.134506E-5
import : 0.0019182462
rather : 1.8269011E-4
breakdown : 3.197077E-4
rule : 1.8269011E-4
non : 9.134506E-5
we : 2.2836264E-4
content : 1.3701759E-4
life : 3.197077E-4
pound : 2.2836264E-4
determin : 2.7403518E-4
appli : 3.197077E-4
defend : 1.3701759E-4
germani : 9.134506E-5
now : 6.394154E-4
statement : 2.7403518E-4
end : 1.3701759E-4
vote : 1.3701759E-4
commod : 2.2836264E-4
wai : 1.3701759E-4
primarili : 2.2836264E-4
negoti : 1.3701759E-4
pct : 2.2836264E-4
sold : 2.2836264E-4
argentin : 1.8269011E-4
associ : 1.8269011E-4
manufactur : 9.134506E-5
licens : 9.134506E-5
apparatu : 1.3701759E-4
veget : 1.3701759E-4
distribut : 9.134506E-5
duti : 1.8269011E-4
gatt : 5.0239783E-4
dlr : 4.5672528E-4
special : 1.3701759E-4
michael : 9.134506E-5
insur : 1.3701759E-4
canari : 9.134506E-5
agre : 1.3701759E-4
fund : 1.8269011E-4
chang : 9.134506E-5
well : 1.3701759E-4
farmer : 1.3701759E-4
short : 9.134506E-5
step : 1.3701759E-4
comment : 9.134506E-5
bonu : 9.134506E-5
exempt : 4.1105275E-4
time : 1.3701759E-4
waiver : 7.3076045E-4
he : 1.3701759E-4
ireland : 2.7403518E-4
septemb : 9.134506E-5
sourc : 1.3701759E-4
geneva : 9.134506E-5
told : 2.2836264E-4
corea : 9.134506E-5
congress : 1.3701759E-4
canadian : 1.8269011E-4
program : 6.394154E-4
april : 2.2836264E-4
three : 9.134506E-5
put : 1.3701759E-4
agricultur : 8.221055E-4
retali : 1.3701759E-4
crush : 1.3701759E-4
review : 1.3701759E-4
four : 9.134506E-5
flour : 1.3701759E-4
nineti : 9.134506E-5
action : 4.1105275E-4
decemb : 9.134506E-5
join : 1.3701759E-4
per : 1.3701759E-4
decis : 1.3701759E-4
propos : 4.5672528E-4
case : 1.3701759E-4
contradict : 1.3701759E-4
period : 2.2836264E-4
fiber : 1.3701759E-4
goal : 1.3701759E-4
incent : 9.134506E-5
in : 1.3701759E-4
made : 1.8269011E-4
work : 2.7403518E-4
invit : 1.3701759E-4
iran : 9.134506E-5
it : 9.134506E-5
destin : 1.3701759E-4
studi : 3.197077E-4
consid : 9.134506E-5
system : 1.3701759E-4
futur : 1.8269011E-4
among : 1.3701759E-4
coverag : 1.3701759E-4
bulk : 9.134506E-5
dubiou : 9.134506E-5
begin : 1.3701759E-4
aid : 9.134506E-5
jointli : 9.134506E-5
tabl : 1.8269011E-4
spain : 1.3701759E-4
other : 9.134506E-5
valu : 2.2836264E-4
aim : 1.8269011E-4
south : 9.134506E-5
increas : 1.8269011E-4
australian : 9.134506E-5
tourism : 9.134506E-5
protection : 1.3701759E-4
impos : 9.134506E-5
air : 9.134506E-5
ussr : 9.134506E-5
restrict : 2.2836264E-4
requir : 4.5672528E-4
tonn : 0.0011874858
foreign : 9.134506E-5
robert : 9.134506E-5
jurisdict : 1.3701759E-4
ton : 1.3701759E-4
flaw : 1.8269011E-4
world : 9.134506E-5
stangeland : 9.134506E-5
mai : 9.134506E-5
punta : 9.134506E-5
commiss : 1.3701759E-4
accus : 1.3701759E-4
protect : 1.8269011E-4
place : 1.3701759E-4
groundnutse : 1.3701759E-4
soybean : 1.3701759E-4
product : 0.0011418132
bought : 9.134506E-5
more : 3.197077E-4
could : 9.134506E-5
sell : 9.134506E-5
urg : 4.5672528E-4
uruguai : 1.3701759E-4
dairi : 2.2836264E-4
itali : 9.134506E-5
citi : 9.134506E-5
lb : 1.8269011E-4
certain : 9.134506E-5
first : 9.134506E-5
board : 2.7403518E-4
date : 1.3701759E-4
januarid : 1.3701759E-4
subject : 1.3701759E-4
corn : 1.3701759E-4
est : 9.134506E-5
cotton : 4.1105275E-4
section : 1.3701759E-4
dan : 9.134506E-5
barrier : 5.0239783E-4
major : 9.134506E-5
find : 1.8269011E-4
west : 9.134506E-5
host : 1.3701759E-4
veg : 9.134506E-5
commun : 1.3701759E-4
grain : 2.7403518E-4
stock : 1.3701759E-4
credit : 9.134506E-5
depart : 2.7403518E-4
belgium : 9.134506E-5
all : 9.134506E-5
administr : 2.2836264E-4
new : 9.134506E-5
law : 3.197077E-4
rapese : 9.134506E-5
island : 9.134506E-5
todai : 9.134506E-5
tax : 4.1105275E-4
less : 9.134506E-5
usda : 9.134506E-5
market : 1.8269011E-4
clayton : 9.134506E-5
arnott : 1.8269011E-4
unit : 1.3701759E-4
servic : 1.3701759E-4
bob : 9.134506E-5
fiscal : 1.8269011E-4
effect : 1.8269011E-4
basic : 9.134506E-5
produc : 9.134506E-5
sugar : 4.5672528E-4
legisl : 1.3701759E-4
glickman : 2.2836264E-4
reagan : 9.134506E-5
part : 4.1105275E-4
continu : 1.3701759E-4
provis : 1.3701759E-4
eep : 4.5672528E-4
total : 1.3701759E-4
oil : 9.134506E-5
hous : 1.8269011E-4
billion : 1.3701759E-4
kan : 9.134506E-5
peanut : 6.394154E-4
sai : 1.3701759E-4
said : 0.0022836265
make : 2.2836264E-4
on : 1.8269011E-4
amount : 2.2836264E-4
move : 1.3701759E-4
cost : 2.2836264E-4
spokesman : 9.134506E-5
or : 1.8269011E-4
overal : 9.134506E-5
feedgrain : 9.134506E-5
also : 2.2836264E-4
follow : 2.7403518E-4
committe : 4.1105275E-4
comprehens : 9.134506E-5
trade : 7.76433E-4
round : 2.2836264E-4
conduct : 2.2836264E-4
mean : 9.134506E-5
domest : 2.2836264E-4
ambassador : 1.8269011E-4
lamb : 1.3701759E-4
approv : 4.5672528E-4
princip : 9.134506E-5
