8.761938140716727E-5
import : 7.1911403E-4
palm : 9.588187E-5
main : 9.588187E-5
tonn : 0.0021094012
sunflowerse : 9.588187E-5
sun : 9.588187E-5
dutch : 1.438228E-4
fell : 4.3146842E-4
compon : 1.438228E-4
rape : 1.438228E-4
oil : 9.108778E-4
hagu : 9.588187E-5
fishoil : 9.588187E-5
fat : 9.588187E-4
bear : 1.9176374E-4
said : 2.876456E-4
export : 8.6293684E-4
commod : 1.438228E-4
groundnut : 1.438228E-4
soybean : 9.588187E-5
margarin : 9.588187E-5
actual : 2.3970468E-4
in : 9.588187E-5
rapese : 9.588187E-5
apparatu : 1.438228E-4
raw : 1.9176374E-4
weight : 5.752912E-4
veget : 1.438228E-4
sunflow : 9.588187E-5
march : 9.588187E-5
mln : 7.1911403E-4
soyabean : 2.876456E-4
the : 9.588187E-5
materi : 1.9176374E-4
reuter : 1.438228E-4
includ : 9.588187E-5
rose : 7.6705497E-4
basi : 6.711731E-4
rise : 1.438228E-4
anim : 9.588187E-5
board : 1.438228E-4
