0.0014019101025146764
viru : 1.3036677E-4
year : 0.001694768
absenc : 1.7382235E-4
indianapoli : 1.7382235E-4
complet : 8.6911175E-5
analysi : 8.6911175E-5
without : 2.1727794E-4
ban : 2.1727794E-4
these : 8.6911175E-5
offer : 8.6911175E-5
describ : 1.7382235E-4
would : 2.6073353E-4
fix : 1.7382235E-4
bieszk : 8.6911175E-5
farm : 3.476447E-4
volum : 1.7382235E-4
chicago : 7.822006E-4
subsidiari : 1.3036677E-4
lloyd : 8.6911175E-5
posit : 1.7382235E-4
ad : 6.5183383E-4
tex : 8.6911175E-5
past : 8.6911175E-5
ag : 8.6911175E-5
bill : 2.6073353E-4
elig : 2.1727794E-4
buyer : 1.3036677E-4
fold : 1.7382235E-4
as : 8.6911175E-5
au : 8.6911175E-5
size : 1.7382235E-4
plant : 6.0837826E-4
juli : 2.1727794E-4
ceas : 8.6911175E-5
detail : 1.7382235E-4
hog : 0.002216235
deal : 2.1727794E-4
pork : 8.6911174E-4
miner : 2.1727794E-4
polici : 2.6073353E-4
result : 4.3455587E-4
jamaican : 8.6911175E-5
peter : 8.6911175E-5
by : 8.6911175E-5
wheat : 1.3036677E-4
measur : 1.7382235E-4
deleg : 5.2146707E-4
sen : 8.6911175E-5
close : 1.3036677E-4
a : 1.3036677E-4
b : 8.6911175E-5
c : 8.6911175E-5
set : 1.3036677E-4
d : 3.911003E-4
g : 8.6911175E-5
h : 1.3036677E-4
i : 8.6911175E-5
tradit : 8.6911175E-5
staff : 8.6911175E-5
union : 1.3036677E-4
m : 8.6911175E-5
march : 7.822006E-4
n : 1.3036677E-4
food : 2.1727794E-4
flu : 2.6073353E-4
soviet : 8.6911175E-5
figur : 1.3036677E-4
minn : 8.6911175E-5
the : 7.822006E-4
swine : 3.476447E-4
reuter : 2.6073353E-4
r : 1.3036677E-4
s : 1.7382235E-4
june : 1.7382235E-4
thi : 1.3036677E-4
t : 3.476447E-4
u : 4.3455587E-4
confin : 8.6911175E-5
under : 8.6911175E-5
glen : 8.6911175E-5
quarter : 8.6911175E-5
nine : 1.3036677E-4
london : 1.7382235E-4
featur : 1.3036677E-4
shearson : 8.6911175E-5
pryor : 8.6911175E-5
chill : 1.3036677E-4
moscow : 1.7382235E-4
down : 8.6911175E-5
specif : 8.6911175E-5
spring : 1.7382235E-4
sharpli : 8.6911175E-5
livestock : 8.6911175E-5
export : 1.7382235E-4
area : 1.7382235E-4
pat : 8.6911175E-5
practic : 2.6073353E-4
initi : 8.6911175E-5
shipment : 1.3036677E-4
need : 8.6911175E-5
reduc : 1.3036677E-4
diseas : 1.3036677E-4
wehler : 1.3036677E-4
northbrook : 8.6911175E-5
take : 2.1727794E-4
clarifi : 1.3036677E-4
bentsen : 8.6911175E-5
resolut : 8.6911175E-5
month : 5.6492264E-4
canada : 2.6073353E-4
port : 8.6911175E-5
success : 8.6911175E-5
cochran : 8.6911175E-5
octob : 1.3036677E-4
activ : 1.3036677E-4
washington : 8.6911175E-5
chuck : 8.6911175E-5
compar : 1.3036677E-4
synthet : 8.6911175E-5
some : 1.3036677E-4
compet : 8.6911175E-5
loan : 1.3036677E-4
indic : 2.6073353E-4
princ : 8.6911175E-5
harm : 8.6911175E-5
breakdown : 1.7382235E-4
back : 1.7382235E-4
compani : 8.6911175E-5
univers : 1.3036677E-4
miss : 8.6911175E-5
determin : 1.3036677E-4
rate : 2.1727794E-4
guesstim : 0.0029115244
combin : 8.6911175E-5
unfair : 8.6911175E-5
patrick : 8.6911175E-5
mercantil : 3.476447E-4
primarili : 1.3036677E-4
settl : 3.476447E-4
live : 2.1727794E-4
pct : 5.6492264E-4
rica : 8.6911175E-5
abbenhau : 8.6911175E-5
midnight : 8.6911175E-5
haiti : 8.6911175E-5
six : 4.3455587E-4
pilot : 8.6911175E-5
porcin : 8.6911175E-5
magnitud : 8.6911175E-5
dlr : 2.6073353E-4
breed : 8.6911175E-5
estim : 3.0418913E-4
better : 1.3036677E-4
ufcwu : 2.1727794E-4
agri : 8.6911175E-5
argu : 8.6911175E-5
agre : 1.3036677E-4
permit : 1.3036677E-4
farmer : 4.7801147E-4
well : 2.6073353E-4
analyst : 3.911003E-4
farrow : 1.3036677E-4
recoup : 8.6911175E-5
fresh : 1.3036677E-4
congress : 4.3455587E-4
ago : 0.0035633582
canadian : 1.3036677E-4
bio : 8.6911175E-5
degre : 1.3036677E-4
discount : 3.476447E-4
american : 1.7382235E-4
jerri : 1.3036677E-4
desir : 8.6911175E-5
slaughter : 0.0020858683
number : 3.476447E-4
ia : 8.6911175E-5
struck : 8.6911175E-5
lock : 1.7382235E-4
decemb : 2.1727794E-4
propon : 1.3036677E-4
decis : 1.7382235E-4
if : 8.6911175E-5
propos : 1.7382235E-4
newli : 8.6911175E-5
period : 3.476447E-4
in : 1.7382235E-4
made : 1.3036677E-4
lower : 2.6073353E-4
distant : 1.7382235E-4
tomorrow : 3.476447E-4
protest : 1.3036677E-4
likelihood : 1.3036677E-4
even : 1.7382235E-4
john : 2.1727794E-4
issu : 1.3036677E-4
jointli : 8.6911175E-5
shield : 8.6911175E-5
valu : 3.476447E-4
natur : 8.6911175E-5
increas : 9.5602294E-4
deliver : 8.6911175E-5
tonn : 3.0418913E-4
summer : 3.0418913E-4
settlement : 2.6073353E-4
soymeal : 8.6911175E-5
assur : 8.6911175E-5
mai : 1.3036677E-4
potato : 1.3036677E-4
member : 4.3455587E-4
commiss : 3.911003E-4
quarterli : 8.6911175E-5
heavi : 8.6911175E-5
mar : 8.6911175E-5
variou : 8.6911175E-5
grainp : 8.6911175E-5
product : 4.7801147E-4
within : 8.6911175E-5
max : 8.6911175E-5
break : 8.6911175E-5
forward : 8.6911175E-5
could : 1.7382235E-4
bought : 1.3036677E-4
strike : 8.6911175E-5
chairman : 1.7382235E-4
enterpris : 2.1727794E-4
off : 8.6911175E-5
cattl : 9.5602294E-4
bushel : 1.3036677E-4
sharp : 8.6911175E-5
citi : 1.3036677E-4
lb : 1.7382235E-4
regard : 1.3036677E-4
report : 8.6911174E-4
rose : 1.3036677E-4
feet : 1.3036677E-4
expans : 1.3036677E-4
cheaper : 1.3036677E-4
receiv : 8.6911175E-5
cent : 8.6911175E-5
main : 8.6911175E-5
missouri : 8.6911175E-5
pig : 0.0013471233
pseudorabi : 2.6073353E-4
neg : 3.0418913E-4
high : 1.3036677E-4
whether : 2.6073353E-4
limit : 1.7382235E-4
commun : 1.7382235E-4
grain : 2.6073353E-4
upward : 8.6911175E-5
all : 8.6911175E-5
administr : 8.6911175E-5
new : 1.3036677E-4
thad : 8.6911175E-5
law : 1.7382235E-4
level : 1.7382235E-4
author : 2.1727794E-4
todai : 3.476447E-4
less : 8.6911175E-5
establish : 3.0418913E-4
feed : 2.1727794E-4
omnibu : 8.6911175E-5
unit : 1.7382235E-4
servic : 8.6911175E-5
expand : 8.6911175E-5
alreadi : 2.6073353E-4
meatpack : 2.1727794E-4
produc : 0.0010863898
bodi : 8.6911175E-5
basic : 8.6911175E-5
erad : 3.911003E-4
expir : 8.6911175E-5
best : 8.6911175E-5
head : 0.0010863898
total : 1.7382235E-4
timet : 1.3036677E-4
hous : 3.0418913E-4
and : 3.476447E-4
of : 8.6911175E-5
barlei : 8.6911175E-5
floor : 3.476447E-4
on : 1.3036677E-4
blah : 1.7382235E-4
encourag : 1.3036677E-4
financ : 8.6911175E-5
spokesman : 2.1727794E-4
accord : 4.3455587E-4
control : 3.0418913E-4
committe : 5.2146707E-4
previou : 1.7382235E-4
offici : 1.3036677E-4
carcas : 1.3036677E-4
respond : 2.1727794E-4
disclos : 8.6911175E-5
nation : 4.3455587E-4
about : 8.6911175E-5
injuri : 1.3036677E-4
bargain : 8.6911175E-5
concern : 3.0418913E-4
enhanc : 8.6911175E-5
elmer : 8.6911175E-5
oversight : 1.3036677E-4
necessari : 8.6911175E-5
pact : 8.6911175E-5
protein : 1.3036677E-4
state : 4.3455587E-4
eventu : 8.6911175E-5
worker : 8.6911175E-5
brand : 8.6911175E-5
somatotropin : 8.6911175E-5
yesterdai : 1.7382235E-4
august : 8.6911175E-5
old : 8.6911175E-5
stg : 9.1256737E-4
frozen : 8.6911175E-5
processor : 1.3036677E-4
lmfe : 3.0418913E-4
includ : 3.476447E-4
boost : 8.6911175E-5
carita : 1.3036677E-4
qualiti : 8.6911175E-5
iowa : 1.3036677E-4
bearish : 2.1727794E-4
fact : 8.6911175E-5
debat : 8.6911175E-5
recommend : 1.3036677E-4
two : 1.3036677E-4
seek : 1.7382235E-4
announc : 2.1727794E-4
seem : 1.3036677E-4
fell : 2.1727794E-4
current : 8.6911175E-5
larg : 8.6911175E-5
industri : 3.0418913E-4
conjunct : 1.7382235E-4
ark : 8.6911175E-5
relationship : 1.3036677E-4
so : 1.7382235E-4
mix : 8.6911175E-5
latest : 1.3036677E-4
broaden : 1.7382235E-4
intern : 1.7382235E-4
black : 1.3036677E-4
appeal : 1.7382235E-4
abattoir : 1.3036677E-4
team : 1.3036677E-4
hedg : 3.0418913E-4
kick : 1.7382235E-4
charl : 8.6911175E-5
ask : 1.3036677E-4
oper : 3.911003E-4
to : 1.7382235E-4
mani : 8.6911175E-5
open : 8.6911175E-5
ratio : 2.1727794E-4
but : 8.6911175E-5
definit : 1.3036677E-4
attend : 1.3036677E-4
supervis : 1.3036677E-4
project : 3.911003E-4
seven : 8.6911175E-5
refin : 1.3036677E-4
technolog : 1.7382235E-4
view : 1.3036677E-4
late : 1.3036677E-4
sever : 8.6911175E-5
baucu : 8.6911175E-5
sector : 8.6911175E-5
five : 1.3036677E-4
us : 7.3874503E-4
budget : 1.7382235E-4
actual : 3.0418913E-4
endors : 8.6911175E-5
last : 3.476447E-4
might : 2.1727794E-4
weight : 5.6492264E-4
develop : 8.6911175E-5
mln : 6.0837826E-4
repres : 6.5183383E-4
introduc : 1.3036677E-4
prv : 2.1727794E-4
grasslei : 8.6911175E-5
concentr : 3.0418913E-4
vs : 8.6911175E-5
crop : 2.6073353E-4
sinc : 2.1727794E-4
vt : 1.3036677E-4
higher : 8.6911175E-5
full : 8.6911175E-5
allow : 3.911003E-4
next : 8.6911175E-5
defer : 8.6911175E-5
import : 6.0837826E-4
concept : 1.7382235E-4
show : 0.0010863898
commerci : 8.6911175E-5
effort : 1.3036677E-4
we : 3.0418913E-4
pst : 1.7382235E-4
cathol : 8.6911175E-5
appli : 1.7382235E-4
mont : 1.7382235E-4
inventori : 8.6911175E-5
wai : 1.7382235E-4
enabl : 2.6073353E-4
lehman : 8.6911175E-5
associ : 8.6911175E-5
start : 8.6911175E-5
target : 1.7382235E-4
deliveri : 8.6911175E-5
fund : 3.0418913E-4
african : 8.6911175E-5
bonu : 3.0418913E-4
step : 1.3036677E-4
time : 1.7382235E-4
stem : 1.7382235E-4
base : 1.7382235E-4
individu : 8.6911175E-5
sourc : 8.6911175E-5
minist : 8.6911175E-5
nppc : 7.3874503E-4
criteria : 2.6073353E-4
program : 0.0013905788
senat : 6.0837826E-4
three : 1.3036677E-4
april : 1.3036677E-4
agricultur : 2.1727794E-4
problem : 8.6911175E-5
price : 7.3874503E-4
lost : 1.3036677E-4
grime : 1.3036677E-4
far : 1.7382235E-4
cash : 4.3455587E-4
plan : 5.2146707E-4
nearbi : 8.6911175E-5
between : 8.6911175E-5
sundai : 1.3036677E-4
still : 8.6911175E-5
work : 8.6911175E-5
contract : 0.0012167565
melcher : 8.6911175E-5
pressur : 8.6911175E-5
leahi : 8.6911175E-5
come : 1.3036677E-4
declin : 3.0418913E-4
push : 2.1727794E-4
exist : 8.6911175E-5
consid : 8.6911175E-5
subsidi : 1.7382235E-4
futur : 9.994785E-4
suit : 1.3036677E-4
regist : 1.3036677E-4
engin : 8.6911175E-5
januari : 8.2565617E-4
direct : 1.7382235E-4
requir : 3.476447E-4
gain : 1.3036677E-4
caus : 8.6911175E-5
lean : 1.7382235E-4
low : 8.6911175E-5
get : 8.6911175E-5
fda : 3.0418913E-4
mancuso : 8.6911175E-5
more : 8.6911175E-5
sell : 1.3036677E-4
alon : 2.6073353E-4
born : 2.1727794E-4
freeman : 8.6911175E-5
lead : 3.476447E-4
expect : 7.822006E-4
mexico : 1.3036677E-4
site : 1.3036677E-4
veterinarian : 1.7382235E-4
revis : 3.476447E-4
averag : 1.7382235E-4
levitt : 2.1727794E-4
board : 8.6911175E-5
first : 8.6911175E-5
chemic : 8.6911175E-5
corp : 8.6911175E-5
corn : 1.7382235E-4
own : 8.6911175E-5
dai : 1.7382235E-4
simpli : 8.6911175E-5
drug : 3.476447E-4
costa : 8.6911175E-5
shown : 1.3036677E-4
major : 8.6911175E-5
spillov : 8.6911175E-5
creol : 8.6911175E-5
agronomist : 8.6911175E-5
consider : 1.3036677E-4
pigmeat : 2.1727794E-4
depart : 1.3036677E-4
replac : 8.6911175E-5
group : 1.3036677E-4
obtain : 2.1727794E-4
like : 1.3036677E-4
island : 8.6911175E-5
daili : 8.6911175E-5
ill : 8.6911175E-5
tax : 8.6911175E-5
usda : 3.476447E-4
anticip : 2.1727794E-4
market : 4.3455587E-4
most : 8.6911175E-5
twice : 1.3036677E-4
council : 1.3036677E-4
effect : 1.7382235E-4
safe : 3.0418913E-4
sioux : 1.3036677E-4
enjoi : 1.7382235E-4
exchang : 6.0837826E-4
rcpt : 8.6911175E-5
sponsor : 1.3036677E-4
note : 4.3455587E-4
week : 6.0837826E-4
mike : 8.6911175E-5
part : 2.6073353E-4
continu : 1.3036677E-4
insert : 1.7382235E-4
provis : 1.3036677E-4
membership : 8.6911175E-5
fuller : 2.6073353E-4
percent : 8.6911175E-5
point : 8.6911175E-5
robin : 8.6911175E-5
eep : 1.7382235E-4
reject : 1.3036677E-4
februari : 6.952894E-4
morrel : 1.7382235E-4
sai : 8.6911175E-5
relief : 8.6911175E-5
david : 8.6911175E-5
said : 0.0035199027
profit : 4.7801147E-4
herd : 2.6073353E-4
inc : 1.3036677E-4
gafta : 8.6911175E-5
facil : 2.6073353E-4
move : 1.3036677E-4
process : 1.7382235E-4
cost : 1.3036677E-4
saw : 8.6911175E-5
trader : 8.2565617E-4
tremend : 8.6911175E-5
clear : 8.6911175E-5
also : 2.6073353E-4
versu : 6.0837826E-4
improv : 2.1727794E-4
intent : 2.6073353E-4
trade : 8.6911174E-4
build : 8.6911175E-5
mean : 8.6911175E-5
meat : 2.1727794E-4
approv : 4.7801147E-4
user : 1.3036677E-4
