0.0014019101025146764
dec : 8.7176355E-5
extens : 1.3076454E-4
year : 0.0013948217
govern : 8.7176355E-5
potenti : 2.615291E-4
allan : 1.3076454E-4
complet : 9.5893996E-4
path : 1.3076454E-4
fix : 1.3076454E-4
pick : 1.7435271E-4
record : 2.1794089E-4
near : 1.3076454E-4
soft : 1.7435271E-4
solid : 2.1794089E-4
pass : 1.7435271E-4
mild : 8.7176355E-5
bill : 5.6664634E-4
whose : 8.7176355E-5
extend : 2.1794089E-4
befor : 8.7176355E-5
as : 1.7435271E-4
automak : 1.7435271E-4
plocek : 1.3076454E-4
at : 1.7435271E-4
economi : 5.6664634E-4
milder : 8.7176355E-5
much : 2.615291E-4
treatment : 1.7435271E-4
strong : 2.1794089E-4
deal : 1.3076454E-4
consolid : 1.3076454E-4
suffici : 8.7176355E-5
consecut : 8.7176355E-5
result : 1.7435271E-4
forese : 1.3076454E-4
by : 8.7176355E-5
after : 8.7176355E-5
saddl : 1.3076454E-4
set : 2.1794089E-4
d : 1.3076454E-4
f : 8.7176355E-5
gnp : 3.4870542E-4
i : 8.7176355E-5
j : 8.7176355E-5
l : 1.7435271E-4
n : 2.1794089E-4
march : 6.102345E-4
the : 0.001220469
baldrig : 2.1794089E-4
reuter : 2.615291E-4
sale : 0.0011332927
thi : 1.3076454E-4
t : 8.7176355E-5
u : 9.5893996E-4
fifth : 2.1794089E-4
paul : 8.7176355E-5
goe : 1.7435271E-4
quarter : 7.4099906E-4
thu : 1.3076454E-4
ruter : 2.1794089E-4
reserv : 8.7176355E-5
rural : 8.7176355E-5
contribut : 1.3076454E-4
convinc : 1.3076454E-4
act : 1.3076454E-4
exceed : 8.7176355E-5
export : 8.7176355E-5
area : 2.615291E-4
signific : 8.7176355E-5
retreat : 8.7176355E-5
clarifi : 8.7176355E-5
month : 7.8458723E-4
canada : 2.615291E-4
adjust : 0.001220469
success : 1.7435271E-4
octob : 3.0511725E-4
activ : 4.7946998E-4
washington : 5.230582E-4
compar : 2.615291E-4
indic : 2.615291E-4
for : 8.7176355E-5
back : 8.7176355E-5
famili : 0.001220469
determin : 1.7435271E-4
rate : 0.0031819372
realti : 8.7176355E-5
hard : 1.3076454E-4
primarili : 1.3076454E-4
pct : 0.0060587567
worsen : 1.3076454E-4
sold : 1.3076454E-4
six : 8.7176355E-5
go : 1.3076454E-4
dlr : 0.0010897045
advers : 1.3076454E-4
home : 0.0010025281
estim : 1.3076454E-4
crisanti : 1.3076454E-4
togeth : 1.3076454E-4
agre : 8.7176355E-5
permit : 6.102345E-4
well : 2.615291E-4
relat : 8.7176355E-5
grant : 8.7176355E-5
he : 1.7435271E-4
big : 8.7176355E-5
mortgag : 5.6664634E-4
ago : 2.615291E-4
canadian : 8.7176355E-5
discount : 1.3076454E-4
construct : 1.3076454E-4
output : 1.3076454E-4
number : 3.0511725E-4
slightli : 8.7176355E-5
identifi : 1.3076454E-4
four : 1.3076454E-4
decemb : 0.0013948217
if : 2.1794089E-4
nar : 8.7176355E-5
in : 6.102345E-4
made : 1.7435271E-4
lower : 1.7435271E-4
it : 1.7435271E-4
system : 8.7176355E-5
singl : 6.9741084E-4
john : 8.7176355E-5
issu : 3.0511725E-4
larger : 1.3076454E-4
brought : 2.1794089E-4
valu : 2.615291E-4
increas : 3.0511725E-4
save : 8.7176355E-5
institut : 1.3076454E-4
believ : 1.3076454E-4
summer : 3.9229362E-4
retail : 8.7176355E-5
mai : 1.3076454E-4
member : 8.7176355E-5
stand : 1.3076454E-4
ottawa : 8.7176355E-5
vacanc : 8.7176355E-5
avail : 1.7435271E-4
product : 2.1794089E-4
could : 1.3076454E-4
chairman : 8.7176355E-5
quebec : 1.7435271E-4
rental : 8.7176355E-5
prospect : 2.615291E-4
surpris : 8.7176355E-5
report : 3.9229362E-4
exampl : 8.7176355E-5
rose : 9.1535173E-4
probabl : 1.3076454E-4
montreal : 8.7176355E-5
spur : 3.0511725E-4
second : 2.1794089E-4
that : 8.7176355E-5
high : 1.3076454E-4
earlier : 4.3588178E-4
hosu : 8.7176355E-5
stock : 8.7176355E-5
new : 3.0511725E-4
law : 1.3076454E-4
level : 6.538227E-4
author : 3.4870542E-4
difficult : 1.3076454E-4
real : 8.7176355E-5
revers : 2.615291E-4
unit : 0.0064946385
alreadi : 8.7176355E-5
produc : 1.7435271E-4
tuccillo : 2.1794089E-4
total : 3.9229362E-4
hous : 0.0017871154
and : 1.7435271E-4
predict : 2.1794089E-4
row : 2.1794089E-4
capit : 1.7435271E-4
make : 1.3076454E-4
ani : 1.3076454E-4
blah : 3.0511725E-4
financ : 1.3076454E-4
economist : 1.7435271E-4
clair : 8.7176355E-5
abov : 1.7435271E-4
malcolm : 1.3076454E-4
previou : 8.7176355E-5
due : 2.615291E-4
domest : 1.3076454E-4
nation : 2.1794089E-4
japan : 8.7176355E-5
led : 1.7435271E-4
reflect : 8.7176355E-5
jan : 3.4870542E-4
annual : 5.230582E-4
state : 8.7176355E-5
lew : 2.1794089E-4
setback : 8.7176355E-5
old : 8.7176355E-5
gener : 1.3076454E-4
remain : 8.7176355E-5
pace : 3.0511725E-4
forecast : 1.3076454E-4
demand : 4.7946998E-4
ministri : 8.7176355E-5
flood : 8.7176355E-5
miller : 8.7176355E-5
re : 8.7176355E-5
includ : 1.7435271E-4
slow : 1.7435271E-4
highest : 2.615291E-4
lewi : 8.7176355E-5
boost : 1.3076454E-4
suppli : 3.9229362E-4
secretari : 1.3076454E-4
ward : 8.7176355E-5
seek : 1.3076454E-4
two : 1.7435271E-4
seem : 1.7435271E-4
fell : 0.0013076453
current : 1.3076454E-4
taken : 1.7435271E-4
came : 4.3588178E-4
builder : 1.3076454E-4
industri : 8.7176355E-5
pump : 1.3076454E-4
caution : 8.7176355E-5
apart : 8.7176355E-5
commerc : 3.4870542E-4
stori : 1.7435271E-4
th : 1.3076454E-4
assist : 1.3076454E-4
to : 1.7435271E-4
fourth : 8.7176355E-5
typic : 8.7176355E-5
but : 3.4870542E-4
seller : 8.7176355E-5
homebuild : 1.3076454E-4
strength : 2.615291E-4
project : 8.7176355E-5
lynch : 8.7176355E-5
realtor : 2.1794089E-4
countri : 1.3076454E-4
late : 8.7176355E-5
sever : 1.7435271E-4
up : 8.7176355E-5
sector : 1.7435271E-4
evalu : 8.7176355E-5
actual : 1.3076454E-4
last : 3.9229362E-4
usual : 1.3076454E-4
weight : 1.3076454E-4
doubt : 2.1794089E-4
develop : 8.7176355E-5
look : 2.615291E-4
mln : 0.0020486445
insurnc : 2.615291E-4
repres : 8.7176355E-5
median : 1.3076454E-4
concentr : 1.7435271E-4
doctyp : 8.7176355E-5
resal : 1.7435271E-4
sinc : 2.1794089E-4
higher : 1.3076454E-4
drop : 3.4870542E-4
becaus : 1.3076454E-4
show : 1.3076454E-4
non : 1.3076454E-4
steadi : 8.7176355E-5
unchang : 1.3076454E-4
we : 8.7176355E-5
wave : 8.7176355E-5
interest : 1.3076454E-4
stronger : 2.1794089E-4
now : 3.4870542E-4
leagu : 1.3076454E-4
statement : 4.7946998E-4
factor : 1.7435271E-4
inventori : 3.0511725E-4
vote : 1.3076454E-4
previous : 2.1794089E-4
associ : 2.615291E-4
start : 0.0018307035
weaker : 8.7176355E-5
grew : 8.7176355E-5
earli : 8.7176355E-5
momentum : 2.1794089E-4
equal : 1.7435271E-4
tokyo : 8.7176355E-5
insur : 8.7176355E-5
urban : 8.7176355E-5
chang : 8.7176355E-5
unusu : 8.7176355E-5
time : 3.0511725E-4
basi : 2.615291E-4
rise : 8.281754E-4
mark : 8.7176355E-5
employ : 8.7176355E-5
downward : 1.3076454E-4
reach : 8.7176355E-5
senat : 1.3076454E-4
program : 3.0511725E-4
april : 8.7176355E-5
three : 8.7176355E-5
multi : 5.6664634E-4
climb : 8.7176355E-5
sprin : 8.7176355E-5
road : 8.7176355E-5
price : 5.230582E-4
weather : 2.615291E-4
season : 0.001220469
still : 1.3076454E-4
come : 3.4870542E-4
declin : 1.3076454E-4
fail : 8.7176355E-5
consid : 1.7435271E-4
among : 1.3076454E-4
futur : 3.4870542E-4
lesli : 2.1794089E-4
lift : 8.7176355E-5
merril : 8.7176355E-5
feder : 1.7435271E-4
januari : 0.0038357598
portion : 1.3076454E-4
gain : 4.3588178E-4
weak : 8.7176355E-5
across : 1.3076454E-4
caus : 2.1794089E-4
mccarthi : 3.0511725E-4
fall : 6.9741084E-4
low : 1.7435271E-4
get : 8.7176355E-5
statist : 3.9229362E-4
obrinski : 2.1794089E-4
great : 8.7176355E-5
observ : 1.3076454E-4
expect : 3.0511725E-4
agenc : 8.7176355E-5
assess : 1.3076454E-4
inflat : 2.615291E-4
cannot : 1.7435271E-4
revis : 1.7435271E-4
averag : 8.7176355E-5
first : 4.3588178E-4
mainli : 8.7176355E-5
maffei : 8.7176355E-5
feb : 1.3076454E-4
residenti : 1.7435271E-4
corp : 3.4870542E-4
data : 2.1794089E-4
own : 1.3076454E-4
surprisingli : 8.7176355E-5
appar : 8.7176355E-5
econom : 8.7176355E-5
depart : 6.102345E-4
group : 1.7435271E-4
gross : 8.7176355E-5
bottom : 2.615291E-4
edg : 1.7435271E-4
tax : 1.3076454E-4
market : 3.4870542E-4
effect : 1.7435271E-4
job : 8.7176355E-5
temperatur : 8.7176355E-5
largest : 8.7176355E-5
note : 1.7435271E-4
volcker : 8.7176355E-5
joe : 8.7176355E-5
week : 1.3076454E-4
incom : 8.7176355E-5
scale : 8.7176355E-5
novemb : 4.3588178E-4
point : 1.3076454E-4
billion : 3.0511725E-4
car : 8.7176355E-5
februari : 0.0018307035
sai : 6.102345E-4
said : 0.004838288
compens : 1.3076454E-4
inc : 1.3076454E-4
cost : 1.7435271E-4
overal : 2.615291E-4
banner : 1.7435271E-4
also : 2.1794089E-4
improv : 2.615291E-4
follow : 8.7176355E-5
intent : 1.3076454E-4
surpass : 1.3076454E-4
trade : 1.3076454E-4
favor : 8.7176355E-5
build : 7.8458723E-4
mean : 1.7435271E-4
york : 8.7176355E-5
growth : 0.0013512336
approv : 8.7176355E-5
perman : 8.7176355E-5
