0.03040392534828704
german : 6.0010044E-4
hale : 2.4493895E-5
ccc : 7.3481686E-5
half : 0.0014451398
govern : 0.0020819812
spoke : 4.898779E-5
cci : 2.4493895E-5
azpurua : 4.898779E-5
elimin : 3.6740843E-5
repossess : 2.4493895E-5
slower : 1.2246947E-4
pretend : 3.6740843E-5
without : 6.1234736E-5
oversea : 1.3471642E-4
these : 1.9595116E-4
successfulli : 6.1234736E-5
would : 0.0035638616
cct : 2.4493895E-5
pick : 1.1022253E-4
antonia : 2.4493895E-5
midafternoon : 4.898779E-5
warrant : 1.2246947E-4
sake : 3.6740843E-5
involuntari : 2.4493895E-5
nova : 3.6740843E-5
reluct : 7.3481686E-5
switzerland : 4.898779E-5
stabil : 7.3481683E-4
neutral : 3.6740843E-5
baker : 2.3269201E-4
journalist : 1.2246947E-4
befor : 4.898779E-5
plocek : 3.6740843E-5
size : 1.2246947E-4
util : 2.4493895E-5
left : 3.9190231E-4
temper : 4.898779E-5
illinoi : 4.898779E-5
eleven : 6.1234736E-5
seri : 1.4696337E-4
much : 6.123474E-4
besid : 3.6740843E-5
arab : 2.4493895E-5
object : 1.1022253E-4
cherrin : 6.1234736E-5
ferdinand : 2.4493895E-5
govett : 4.898779E-5
lombard : 9.797558E-5
role : 2.4493894E-4
ahead : 3.061737E-4
engag : 7.3481686E-5
roll : 8.572863E-5
liro : 1.2246947E-4
hann : 2.4493895E-5
pronounc : 2.4493895E-5
turn : 2.4493894E-4
durat : 4.898779E-5
suffici : 1.3471642E-4
elect : 5.388657E-4
polici : 0.0023636608
gmt : 2.816798E-4
gold : 8.572863E-5
result : 5.878535E-4
same : 8.572863E-5
sama : 6.1234736E-5
commission : 7.3481686E-5
after : 9.797558E-5
quiet : 2.4493895E-5
surfac : 4.898779E-5
connect : 4.898779E-5
hand : 5.2661874E-4
a : 6.98076E-4
b : 9.797558E-4
rowena : 6.1234736E-5
deadlin : 6.1234736E-5
address : 7.3481686E-5
c : 2.9392674E-4
d : 3.6740841E-4
fhlbb : 8.572863E-5
e : 8.572863E-5
f : 3.061737E-4
sharper : 3.6740843E-5
g : 4.0414926E-4
gnp : 3.306676E-4
h : 3.6740843E-5
i : 8.940272E-4
kenneth : 3.6740843E-5
j : 2.2044506E-4
tradit : 2.4493895E-5
union : 7.3481686E-5
suiss : 6.1234736E-5
l : 2.816798E-4
m : 9.552619E-4
blood : 4.898779E-5
n : 4.7763094E-4
o : 3.6740843E-5
the : 0.007850293
p : 1.7145726E-4
aquino : 7.3481686E-5
halt : 7.3481686E-5
r : 1.5921032E-4
sale : 5.633596E-4
s : 3.429145E-4
halv : 4.898779E-5
thi : 8.5728633E-4
t : 7.470638E-4
u : 0.0040904805
throw : 4.898779E-5
v : 2.4493895E-5
w : 4.5313707E-4
wholesal : 4.898779E-5
y : 2.816798E-4
fifth : 2.4493895E-5
z : 2.4493895E-5
goe : 1.3471642E-4
demonstr : 1.5921032E-4
citibank : 3.1842064E-4
novel : 6.1234736E-5
discuss : 1.3471642E-4
standard : 2.816798E-4
thu : 1.3471642E-4
goh : 6.1234736E-5
taipei : 2.4493895E-5
correct : 4.898779E-5
resurg : 3.6740843E-5
kearnei : 2.4493895E-5
bahrain : 2.4493895E-5
good : 5.2661874E-4
got : 9.797558E-5
duesseldorf : 6.1234736E-5
wish : 1.8370421E-4
tie : 6.1234736E-5
middleman : 3.6740843E-5
sharpli : 2.0819811E-4
exceed : 3.6740843E-5
pai : 2.2044506E-4
serious : 8.572863E-5
implement : 8.572863E-5
tip : 2.4493895E-5
export : 3.306676E-4
jakarta : 2.4493895E-5
rome : 3.6740843E-5
area : 2.3269201E-4
par : 7.3481686E-5
practic : 7.3481686E-5
fuell : 4.898779E-5
pat : 8.572863E-5
wherea : 2.4493895E-5
fantast : 4.898779E-5
chl : 2.4493895E-5
european : 1.7145726E-4
reduc : 6.7358214E-4
clearer : 7.3481686E-5
check : 4.898779E-5
onto : 3.6740843E-5
andrew : 3.6740843E-5
macsharri : 2.4493895E-5
lack : 1.1022253E-4
gone : 8.572863E-5
freddi : 3.6740843E-5
success : 7.3481686E-5
santow : 2.4493895E-5
weekli : 1.8370421E-4
hundr : 2.4493895E-5
fortun : 8.572863E-5
harm : 6.1234736E-5
ensur : 2.4493895E-5
secreci : 2.4493895E-5
treasuri : 0.0010042497
cil : 2.4493895E-5
unquot : 3.5516146E-4
instrument : 2.9392674E-4
medium : 1.2246947E-4
instabl : 9.797558E-5
lent : 6.1234736E-5
exchequ : 2.816798E-4
primari : 9.797558E-5
outstrip : 2.4493895E-5
determin : 2.571859E-4
defus : 6.1234736E-5
protectionist : 2.4493895E-5
germani : 5.633596E-4
combin : 1.2246947E-4
patrick : 2.4493895E-5
hard : 1.3471642E-4
realign : 3.6740843E-5
preclud : 7.3481686E-5
mercantil : 8.572863E-5
lend : 0.0013594112
live : 6.1234736E-5
pct : 0.026992273
worsen : 3.6740843E-5
societi : 2.2044506E-4
coffer : 2.4493895E-5
gro : 2.2044506E-4
perform : 2.2044506E-4
myra : 2.4493895E-5
peak : 2.2044506E-4
interbank : 2.3269201E-4
room : 3.7965536E-4
energi : 8.572863E-5
better : 3.306676E-4
with : 2.2044506E-4
argu : 1.3471642E-4
tinker : 3.6740843E-5
certif : 4.1639621E-4
complaint : 3.6740843E-5
there : 8.3279243E-4
victori : 1.4696337E-4
permit : 6.1234736E-5
well : 6.613352E-4
analyst : 0.001408399
barclai : 1.4696337E-4
inject : 2.9392674E-4
outlook : 7.715577E-4
afterwhich : 2.4493895E-5
pocket : 2.4493895E-5
sydnei : 6.1234736E-5
downturn : 8.572863E-5
mortgag : 5.878535E-4
strongli : 2.4493894E-4
channel : 2.4493895E-5
focus : 1.1022253E-4
american : 9.797558E-5
penetr : 4.898779E-5
desir : 8.572863E-5
hamper : 2.4493895E-5
pioneer : 3.6740843E-5
unpaid : 3.6740843E-5
approach : 2.816798E-4
outstand : 1.2246947E-4
billon : 3.6740843E-5
peg : 4.898779E-5
variabl : 4.898779E-5
pei : 2.4493895E-5
imposit : 6.1234736E-5
per : 7.3481686E-5
write : 6.1234736E-5
doldrum : 3.6740843E-5
propos : 8.3279243E-4
flow : 1.4696337E-4
order : 1.1022253E-4
wage : 3.6740843E-5
earthquak : 2.4493895E-5
period : 0.0014206459
africa : 2.4493895E-5
went : 1.2246947E-4
revenu : 2.3269201E-4
inter : 2.4493895E-5
understand : 8.572863E-5
dismiss : 3.6740843E-5
quinn : 6.1234736E-5
indonesia : 8.572863E-5
privatis : 4.898779E-5
reform : 3.429145E-4
ever : 3.6740843E-5
winner : 4.898779E-5
million : 3.6740843E-5
even : 3.6740841E-4
aris : 4.898779E-5
selloff : 2.4493895E-5
undermin : 4.898779E-5
bulk : 9.797558E-5
proport : 1.8370421E-4
staunchli : 6.1234736E-5
bull : 2.4493895E-5
jointli : 3.6740843E-5
larger : 8.572863E-5
wait : 1.4696337E-4
buoi : 7.3481686E-5
seger : 3.6740843E-5
save : 5.878535E-4
increas : 0.0019227708
overli : 2.4493895E-5
institut : 6.7358214E-4
nigerian : 2.4493895E-5
restrict : 1.4696337E-4
mondai : 5.2661874E-4
instant : 2.4493895E-5
vogu : 3.6740843E-5
accordingli : 7.3481686E-5
tok : 3.6740843E-5
scrap : 7.3481686E-5
tom : 3.6740843E-5
particularli : 3.6740843E-5
top : 4.2864316E-4
too : 7.3481686E-5
have : 3.6740843E-5
kohl : 2.4493895E-5
slowli : 2.4493895E-5
avail : 1.8370421E-4
product : 5.388657E-4
cnn : 2.4493895E-5
question : 3.306676E-4
mothercar : 2.4493895E-5
reinvest : 4.898779E-5
walter : 3.6740843E-5
bought : 3.9190231E-4
eugen : 2.4493895E-5
roughli : 8.572863E-5
helmut : 3.6740843E-5
enterpris : 2.4493895E-5
frankfurt : 2.816798E-4
littl : 3.5516146E-4
cheap : 4.898779E-5
charact : 4.898779E-5
framework : 3.6740843E-5
regard : 3.6740843E-5
meanwhil : 8.572863E-5
rose : 7.8380463E-4
instanc : 4.898779E-5
minor : 3.6740843E-5
almost : 1.2246947E-4
fuel : 7.3481686E-5
pleas : 4.898779E-5
motiv : 2.4493895E-5
venezula : 3.6740843E-5
upon : 7.3481686E-5
fuer : 2.4493895E-5
cox : 6.1234736E-5
republ : 3.6740843E-5
quietli : 2.4493895E-5
whenev : 3.6740843E-5
detract : 4.898779E-5
sceptic : 4.898779E-5
earlier : 7.8380463E-4
biggest : 7.3481686E-5
whether : 5.143718E-4
west : 5.143718E-4
compensatori : 2.4493895E-5
plenti : 3.6740843E-5
stock : 8.205455E-4
turnabout : 6.1234736E-5
suspend : 1.4696337E-4
beneath : 9.797558E-5
law : 8.572863E-5
guilder : 0.0015431154
evid : 1.7145726E-4
subscript : 1.3471642E-4
swap : 6.0010044E-4
balladur : 2.4493895E-5
less : 5.388657E-4
revers : 1.8370421E-4
absolut : 6.1234736E-5
uniqu : 7.3481686E-5
welcom : 1.7145726E-4
annum : 2.4493895E-5
anem : 2.4493895E-5
try : 2.2044506E-4
governor : 2.0819811E-4
basic : 6.1234736E-5
erad : 2.4493895E-5
expir : 2.4493894E-4
collectivit : 2.4493895E-5
chicken : 2.4493895E-5
mopnth : 2.4493895E-5
similarli : 4.898779E-5
busi : 2.3269201E-4
unanim : 3.6740843E-5
airtight : 2.4493895E-5
fridai : 8.8178023E-4
combat : 2.4493895E-5
respons : 5.7560654E-4
debtor : 1.4696337E-4
reinforc : 4.898779E-5
distanc : 4.898779E-5
twelv : 2.4493895E-5
design : 1.8370421E-4
extra : 2.4493895E-5
suspens : 1.9595116E-4
lanc : 2.4493895E-5
land : 7.3481686E-5
floor : 9.797558E-5
encourag : 2.571859E-4
buri : 3.6740843E-5
chief : 2.3269201E-4
plc : 3.7965536E-4
accord : 7.470638E-4
hectar : 3.6740843E-5
italian : 4.898779E-5
rekindl : 2.4493895E-5
witter : 7.3481686E-5
investor : 4.7763094E-4
analys : 6.1234736E-5
conduct : 1.3471642E-4
ldn : 3.6740843E-5
plu : 2.4493895E-5
analyz : 3.6740843E-5
respond : 1.7145726E-4
conneri : 3.6740843E-5
disclos : 2.4493895E-5
japan : 0.0011022253
mastercard : 6.1234736E-5
led : 4.1639621E-4
absorb : 1.7145726E-4
concern : 7.470638E-4
enhanc : 7.3481686E-5
lessen : 3.6740843E-5
geert : 4.898779E-5
decad : 7.3481686E-5
refrain : 7.3481686E-5
pact : 5.878535E-4
let : 6.1234736E-5
state : 6.0010044E-4
press : 1.5921032E-4
eventu : 7.3481686E-5
worker : 2.4493895E-5
element : 4.898779E-5
yesterdai : 0.0015063746
began : 3.306676E-4
gener : 3.9190231E-4
want : 7.3481683E-4
night : 8.572863E-5
pace : 6.1234736E-5
forecast : 0.0022656852
inher : 4.898779E-5
kong : 2.2044506E-4
roya : 2.4493895E-5
foresaw : 3.6740843E-5
wane : 2.4493895E-5
lewi : 1.2246947E-4
shrewd : 2.4493895E-5
unnecessarili : 2.4493895E-5
must : 2.6943284E-4
creditor : 1.3471642E-4
suppli : 0.0011512131
liabil : 6.1234736E-5
cut : 0.0068460437
realist : 2.4493895E-5
toronto : 6.1234736E-5
document : 2.4493895E-5
ward : 3.6740843E-5
mainten : 2.4493895E-5
stimul : 1.1022253E-4
two : 0.0020574871
chase : 2.571859E-4
moment : 1.8370421E-4
found : 6.1234736E-5
perfectli : 2.4493895E-5
scenario : 2.4493895E-5
prais : 6.1234736E-5
attack : 4.898779E-5
residu : 2.4493895E-5
larg : 5.878535E-4
builder : 3.6740843E-5
tariff : 6.1234736E-5
acceler : 9.797558E-5
anoth : 3.9190231E-4
freez : 7.3481686E-5
advantag : 1.4696337E-4
creation : 4.898779E-5
convict : 4.898779E-5
penc : 4.898779E-5
latest : 3.061737E-4
resourc : 6.1234736E-5
pend : 2.4493895E-5
think : 2.9392674E-4
ppi : 1.2246947E-4
manhattan : 2.9392674E-4
inhibit : 2.4493895E-5
revalu : 4.898779E-5
team : 6.1234736E-5
concess : 7.3481686E-5
payabl : 1.2246947E-4
telephon : 2.4493895E-5
charg : 2.4493894E-4
brusca : 1.8370421E-4
speech : 1.3471642E-4
watch : 8.572863E-5
upth : 4.898779E-5
quit : 9.797558E-5
cabinet : 7.3481686E-5
thing : 9.797558E-5
chart : 1.2246947E-4
definit : 6.1234736E-5
attend : 9.797558E-5
smith : 2.4493895E-5
consortium : 2.4493895E-5
lid : 6.1234736E-5
reactiv : 2.4493895E-5
prepar : 1.2246947E-4
had : 2.4493895E-5
lynch : 8.572863E-5
hai : 2.4493895E-5
structur : 7.3481686E-5
late : 3.306676E-4
han : 2.4493895E-5
tordai : 8.572863E-5
entir : 4.898779E-5
shoot : 8.572863E-5
zoet : 2.4493895E-5
budget : 0.0014818807
given : 7.3481683E-4
doubl : 4.898779E-5
actual : 7.3481686E-5
pre : 7.3481686E-5
undertook : 2.4493895E-5
tension : 3.6740843E-5
last : 0.0015921032
storehous : 6.1234736E-5
adapt : 3.6740843E-5
pricecont : 2.4493895E-5
weight : 2.6943284E-4
doubt : 1.5921032E-4
develop : 6.368413E-4
courag : 2.4493895E-5
terenc : 2.4493895E-5
debentur : 1.5921032E-4
warn : 9.797558E-5
subcommitte : 1.3471642E-4
nomin : 6.1234736E-5
attent : 1.3471642E-4
riyal : 6.1234736E-5
bandwagon : 2.4493895E-5
wari : 3.6740843E-5
skeoch : 6.1234736E-5
auxiliair : 2.4493895E-5
full : 3.7965536E-4
sbci : 2.4493895E-5
depreci : 2.4493895E-5
focuss : 4.898779E-5
dominiqu : 2.4493895E-5
eonomist : 2.4493895E-5
becaus : 2.0819811E-4
concept : 8.572863E-5
effort : 4.0414926E-4
awar : 4.898779E-5
creditanstalt : 3.6740843E-5
caiss : 4.898779E-5
steadi : 2.9392674E-4
wave : 4.898779E-5
weapon : 3.6740843E-5
stronger : 1.4696337E-4
prudent : 3.6740843E-5
vote : 9.797558E-5
precis : 7.3481686E-5
pain : 2.4493895E-5
yen : 7.225699E-4
argentin : 2.4493895E-5
center : 1.7145726E-4
start : 6.123474E-4
yet : 1.8370421E-4
technician : 2.4493895E-5
earli : 0.0010409906
placat : 2.4493895E-5
equal : 6.1234736E-5
chanc : 2.3269201E-4
fallen : 1.2246947E-4
awai : 1.3471642E-4
hutton : 3.6740843E-5
deregul : 6.1234736E-5
fund : 0.003992505
downsid : 6.1234736E-5
chang : 0.0014818807
upsid : 4.898779E-5
paid : 6.1234736E-5
short : 8.0829853E-4
financi : 4.5313707E-4
unusu : 2.4493895E-5
time : 0.0012491887
downward : 1.3471642E-4
circul : 1.9595116E-4
unrealist : 3.6740843E-5
shadow : 6.1234736E-5
dominion : 3.6740843E-5
pall : 4.898779E-5
compris : 2.0819811E-4
program : 2.9392674E-4
percept : 1.1022253E-4
three : 0.0014328929
put : 1.9595116E-4
multi : 3.6740843E-5
climb : 4.898779E-5
keith : 2.4493895E-5
sweden : 4.898779E-5
tongu : 7.3481686E-5
golden : 3.6740843E-5
season : 1.8370421E-4
deflat : 3.6740843E-5
payment : 9.0627413E-4
vicker : 2.4493895E-5
enter : 5.143718E-4
attain : 3.6740843E-5
heavili : 4.898779E-5
prioriti : 4.898779E-5
undershot : 3.6740843E-5
pale : 2.4493895E-5
unaccept : 6.1234736E-5
applic : 2.571859E-4
denounc : 4.898779E-5
bankverein : 2.4493895E-5
peso : 1.1022253E-4
pressur : 0.0010164967
customarili : 3.6740843E-5
persuad : 4.898779E-5
nicho : 4.898779E-5
classifi : 2.4493895E-5
mich : 3.6740843E-5
light : 9.797558E-5
mellon : 3.6740843E-5
happi : 4.898779E-5
quot : 2.4493894E-4
philosophi : 3.6740843E-5
merril : 7.3481686E-5
recogn : 7.3481686E-5
tabl : 3.6740843E-5
vehicl : 7.3481686E-5
likeliest : 2.4493895E-5
januari : 0.0014573868
miga : 3.6740843E-5
hoar : 4.898779E-5
bright : 4.898779E-5
resili : 7.3481686E-5
smart : 2.4493895E-5
anti : 2.4493895E-5
lot : 1.1022253E-4
rebound : 8.572863E-5
roach : 7.3481686E-5
immin : 3.6740843E-5
low : 5.878535E-4
prop : 4.898779E-5
uae : 2.4493895E-5
consult : 1.4696337E-4
theme : 3.6740843E-5
grown : 7.3481686E-5
meant : 4.898779E-5
barrel : 8.572863E-5
chain : 2.4493895E-5
outcom : 6.1234736E-5
doll : 2.4493895E-5
chair : 3.6740843E-5
mildli : 6.1234736E-5
blown : 6.1234736E-5
foster : 1.1022253E-4
psycholog : 3.6740843E-5
eros : 3.6740843E-5
maffei : 2.4493895E-5
small : 1.7145726E-4
quick : 4.898779E-5
leiner : 1.3471642E-4
tell : 4.898779E-5
dai : 0.007041995
manila : 2.4493895E-5
marplan : 2.4493895E-5
flatten : 9.797558E-5
hit : 1.2246947E-4
major : 7.5931073E-4
poehl : 2.9392674E-4
shown : 3.6740843E-5
speedi : 2.4493895E-5
zone : 7.3481686E-5
magazin : 2.4493895E-5
emphasis : 1.4696337E-4
beat : 2.4493895E-5
bear : 2.4493895E-5
affair : 3.6740843E-5
titl : 3.6740843E-5
consider : 2.9392674E-4
inspir : 3.6740843E-5
group : 5.633596E-4
fundp : 2.4493895E-5
obtain : 2.4493895E-5
gross : 1.1022253E-4
klauh : 2.4493895E-5
resist : 1.5921032E-4
dampen : 8.572863E-5
format : 4.898779E-5
louvr : 4.898779E-5
particular : 1.3471642E-4
done : 4.898779E-5
formal : 3.6740843E-5
twice : 1.7145726E-4
flucuat : 2.4493895E-5
friendli : 4.898779E-5
counteract : 3.6740843E-5
soar : 4.898779E-5
sparkl : 3.6740843E-5
exchang : 0.0012124478
sustain : 1.3471642E-4
achiev : 1.4696337E-4
volcker : 8.572863E-5
tent : 2.4493895E-5
request : 4.898779E-5
adequ : 9.797558E-5
procedur : 3.6740843E-5
overdraft : 2.4493895E-5
part : 5.143718E-4
incom : 1.8370421E-4
bilater : 2.4493895E-5
schlesing : 3.6740843E-5
novemb : 1.1022253E-4
nzier : 7.3481686E-5
unexpect : 2.4493895E-5
point : 0.0043721604
caecl : 2.4493895E-5
pare : 3.6740843E-5
semiannu : 2.4493895E-5
tend : 6.1234736E-5
lender : 3.6740843E-5
multilater : 9.797558E-5
nicol : 3.6740843E-5
relief : 2.0819811E-4
pari : 6.7358214E-4
compens : 7.3481686E-5
ltd : 2.816798E-4
easi : 2.4493895E-5
park : 2.4493895E-5
facil : 6.613352E-4
erst : 2.4493895E-5
process : 4.898779E-5
built : 6.1234736E-5
attribut : 1.1022253E-4
clear : 4.5313707E-4
eighth : 7.3481686E-5
banner : 4.898779E-5
reliev : 8.572863E-5
third : 1.9595116E-4
build : 4.0414926E-4
dramat : 2.4493895E-5
mean : 1.9595116E-4
neither : 2.4493895E-5
earn : 2.4493895E-5
cooper : 1.7145726E-4
further : 4.898779E-4
hongkong : 3.6740843E-5
account : 8.940272E-4
marketplac : 7.3481686E-5
stimulu : 2.4493895E-5
been : 2.4493895E-5
recov : 8.572863E-5
ident : 2.4493895E-5
japanes : 1.9595116E-4
pfennig : 9.797558E-5
safer : 2.4493895E-5
allan : 6.1234736E-5
addit : 3.5516146E-4
railwai : 2.4493895E-5
parliament : 8.572863E-5
der : 2.4493895E-5
path : 3.6740843E-5
mostli : 4.898779E-5
chia : 3.6740843E-5
trim : 6.1234736E-5
record : 2.571859E-4
crisi : 1.1022253E-4
nervou : 1.4696337E-4
accommod : 1.2246947E-4
partli : 3.5516146E-4
runup : 3.6740843E-5
chicago : 1.5921032E-4
subsidiari : 1.4696337E-4
lloyd : 1.8370421E-4
you : 6.1234736E-5
soft : 9.797558E-5
jump : 7.3481686E-5
prime : 0.002535118
happen : 3.6740843E-5
perceiv : 8.572863E-5
pass : 2.2044506E-4
past : 3.429145E-4
burnham : 4.898779E-5
impact : 2.9392674E-4
mild : 3.6740843E-5
bill : 0.0030862307
electricit : 2.4493895E-5
enthusiast : 7.3481686E-5
percentag : 5.878535E-4
especi : 1.1022253E-4
court : 6.1234736E-5
whose : 8.572863E-5
distort : 6.1234736E-5
cours : 1.9595116E-4
ralli : 1.7145726E-4
buyer : 1.3471642E-4
senior : 1.2246947E-4
carefulli : 4.898779E-5
dealt : 4.898779E-5
juli : 1.2246947E-4
milder : 2.4493895E-5
preserv : 8.572863E-5
organ : 8.572863E-5
treatment : 2.4493895E-5
zurich : 3.6740843E-5
troubl : 2.4493895E-5
unwilling : 3.6740843E-5
wednesdai : 4.1639621E-4
corpor : 1.8370421E-4
hot : 2.4493895E-5
pursu : 6.1234736E-5
oesterreichischen : 2.4493895E-5
minu : 3.6740843E-5
releas : 4.0414926E-4
pave : 3.6740843E-5
peter : 9.797558E-5
spark : 3.6740843E-5
inde : 6.1234736E-5
term : 0.0022044505
celebr : 3.6740843E-5
annuiti : 4.898779E-5
brad : 7.3481686E-5
regul : 2.816798E-4
fluctuat : 1.5921032E-4
mind : 1.1022253E-4
marco : 3.6740843E-5
dehesa : 2.4493895E-5
staff : 7.3481686E-5
right : 1.2246947E-4
march : 0.0040782336
opposit : 7.3481686E-5
reuter : 0.0024738833
yuan : 2.4493895E-5
insid : 3.6740843E-5
june : 6.0010044E-4
meet : 0.0018125483
answer : 1.3471642E-4
stage : 1.8370421E-4
borrow : 0.0015063746
thursdai : 5.0212484E-4
maximum : 2.4493895E-5
paus : 8.572863E-5
under : 8.572863E-5
paul : 1.1022253E-4
irresist : 2.4493895E-5
deserv : 3.6740843E-5
quarter : 0.0015431154
buttros : 4.898779E-5
wysoglad : 3.6740843E-5
conglomer : 3.6740843E-5
london : 0.0011879539
bundesbank : 0.001408399
reserv : 0.0040904805
dip : 7.3481686E-5
easter : 2.4493895E-5
dir : 1.4696337E-4
down : 6.123474E-4
hold : 0.0010042497
trail : 2.4493895E-5
convinc : 1.9595116E-4
later : 4.898779E-4
elabor : 7.3481686E-5
prior : 3.6740843E-5
margaret : 4.898779E-5
bracket : 8.572863E-5
legal : 4.898779E-5
club : 6.1234736E-5
talk : 4.1639621E-4
telex : 2.4493895E-5
signal : 9.675088E-4
richard : 8.572863E-5
accompani : 6.1234736E-5
test : 3.9190231E-4
count : 6.1234736E-5
prematur : 1.4696337E-4
repli : 1.2246947E-4
lacei : 3.6740843E-5
take : 0.0012369417
retroact : 3.6740843E-5
month : 0.0035516147
final : 1.8370421E-4
octob : 1.2246947E-4
perhap : 1.7145726E-4
interven : 6.2459434E-4
publicli : 4.898779E-5
some : 1.8370421E-4
loan : 0.0014451398
troublesom : 2.4493895E-5
bacp : 2.4493895E-5
rather : 3.429145E-4
session : 5.2661874E-4
divis : 4.898779E-5
back : 5.633596E-4
compani : 1.3471642E-4
bach : 3.6740843E-5
underli : 4.898779E-5
miss : 3.6740843E-5
pound : 6.613352E-4
goldman : 2.4493895E-5
houston : 2.4493895E-5
uncoupl : 4.898779E-5
kommerzialbank : 2.4493895E-5
maria : 3.6740843E-5
just : 2.4493895E-5
softer : 2.4493895E-5
divid : 1.4696337E-4
asid : 8.572863E-5
stabl : 3.5516146E-4
sole : 2.4493895E-5
coincid : 7.3481686E-5
sold : 2.2044506E-4
coupl : 1.8370421E-4
manufactur : 2.571859E-4
relax : 2.4493895E-5
custom : 0.001408399
raymond : 2.4493895E-5
und : 3.6740843E-5
dlr : 0.0041639623
advers : 4.898779E-5
troi : 2.4493895E-5
home : 3.1842064E-4
michael : 2.4493895E-5
condit : 3.9190231E-4
print : 3.6740843E-5
juri : 3.6740843E-5
tame : 3.6740843E-5
although : 3.7965536E-4
interpret : 6.1234736E-5
macdonald : 2.4493895E-5
iron : 6.1234736E-5
worthi : 3.6740843E-5
relat : 8.572863E-5
blanket : 2.4493895E-5
grant : 6.1234736E-5
westminist : 2.4493895E-5
holt : 3.6740843E-5
explain : 9.797558E-5
spokeswoman : 8.572863E-5
basket : 8.572863E-5
discount : 0.001408399
convers : 2.4493895E-5
visibl : 4.898779E-5
ignor : 4.898779E-5
convert : 1.5921032E-4
libor : 2.4493894E-4
construct : 2.4493895E-5
hope : 7.715577E-4
attempt : 3.429145E-4
soon : 6.123474E-4
tarrant : 2.4493895E-5
assembl : 7.3481686E-5
influenc : 1.4696337E-4
america : 2.4493895E-5
inexor : 2.4493895E-5
renegoti : 2.4493895E-5
supplier : 3.6740843E-5
action : 8.205455E-4
androsch : 2.4493895E-5
nomura : 2.4493895E-5
converg : 2.4493895E-5
rapidli : 3.6740843E-5
fear : 2.6943284E-4
creat : 1.8370421E-4
reynold : 2.4493895E-5
incent : 1.2246947E-4
made : 4.6538402E-4
chop : 3.6740843E-5
abil : 6.1234736E-5
undercut : 3.6740843E-5
wherebi : 3.6740843E-5
texa : 2.4493895E-5
manag : 2.571859E-4
auster : 7.3481686E-5
marin : 6.1234736E-5
hong : 1.9595116E-4
purchas : 4.898779E-4
afford : 4.898779E-5
field : 3.6740843E-5
taupo : 8.572863E-5
singl : 1.5921032E-4
doe : 4.898779E-5
stalei : 2.4493895E-5
impedi : 3.6740843E-5
greenwel : 2.4493895E-5
dol : 3.6740843E-5
abbei : 2.4493895E-5
satoshi : 7.3481686E-5
upset : 4.898779E-5
britain : 5.0212484E-4
coinag : 2.4493895E-5
unfortun : 4.898779E-5
phenomenon : 8.572863E-5
nikko : 7.3481686E-5
guaranti : 2.4493895E-5
overrid : 2.4493895E-5
summer : 1.1022253E-4
mac : 3.6740843E-5
eight : 3.429145E-4
mention : 6.1234736E-5
robert : 7.3481686E-5
mae : 2.4493895E-5
mad : 2.4493895E-5
government : 2.4493895E-5
file : 3.6740843E-5
mai : 0.0017268196
buoyant : 9.797558E-5
stream : 1.3471642E-4
member : 2.0819811E-4
herald : 6.1234736E-5
steve : 2.4493895E-5
stand : 1.9595116E-4
quarterli : 8.572863E-5
natwest : 4.898779E-5
surround : 3.6740843E-5
heavi : 1.5921032E-4
stanc : 2.9392674E-4
vacanc : 2.4493895E-5
mar : 2.4493895E-5
independ : 3.6740843E-5
variou : 3.6740843E-5
insan : 3.6740843E-5
sloan : 9.797558E-5
within : 3.6740841E-4
forward : 1.3471642E-4
could : 0.001408399
strike : 2.4493895E-5
health : 4.898779E-5
westpac : 9.797558E-5
urg : 1.9595116E-4
trigger : 4.898779E-5
quebec : 2.4493895E-5
reschedul : 1.9595116E-4
rental : 2.4493895E-5
prospect : 5.878535E-4
chri : 4.898779E-5
breakout : 4.898779E-5
explan : 6.1234736E-5
probabl : 4.5313707E-4
deceler : 3.6740843E-5
return : 3.5516146E-4
cheaper : 4.898779E-5
evapor : 1.3471642E-4
subject : 1.4696337E-4
bonus : 4.898779E-5
feel : 1.4696337E-4
edward : 2.4493895E-5
main : 3.1842064E-4
british : 2.571859E-4
nigel : 1.8370421E-4
radio : 2.4493895E-5
karen : 3.6740843E-5
fine : 8.572863E-5
find : 1.2246947E-4
rubio : 3.6740843E-5
commun : 8.572863E-5
credit : 0.0011144722
exactli : 3.6740843E-5
errat : 2.4493895E-5
spate : 3.6740843E-5
upward : 4.1639621E-4
alter : 8.572863E-5
ideal : 4.898779E-5
carolina : 3.6740843E-5
sooner : 4.898779E-5
baht : 6.1234736E-5
occur : 3.5516146E-4
drove : 3.6740843E-5
psbr : 1.1022253E-4
bangkok : 2.4493895E-5
difficult : 1.2246947E-4
dry : 3.6740843E-5
fill : 6.1234736E-5
tata : 2.4493895E-5
failur : 3.6740843E-5
heart : 2.4493895E-5
seriou : 3.6740843E-5
guarante : 1.1022253E-4
servic : 1.8370421E-4
specialist : 2.4493895E-5
bancshar : 2.4493895E-5
nonetheless : 2.4493895E-5
present : 2.0819811E-4
curtail : 7.3481686E-5
sentiment : 2.816798E-4
ratcliff : 3.6740843E-5
best : 8.572863E-5
certainli : 2.4493895E-5
capitalis : 1.1022253E-4
fundament : 1.4696337E-4
execut : 3.6740843E-5
sterl : 0.0017513135
hour : 1.3471642E-4
hous : 9.43015E-4
mel : 2.4493895E-5
bale : 2.4493895E-5
expeditur : 3.6740843E-5
repeat : 1.1022253E-4
met : 1.8370421E-4
make : 6.4908824E-4
capit : 7.225699E-4
fulfil : 2.4493895E-5
heard : 3.6740843E-5
stiker : 2.4493895E-5
spokesman : 5.388657E-4
abov : 1.1022253E-4
accomod : 2.4493895E-5
scotia : 3.6740843E-5
evidenc : 4.898779E-5
sought : 8.572863E-5
competit : 6.368413E-4
discredit : 2.4493895E-5
due : 4.898779E-4
tougher : 2.4493895E-5
domest : 3.6740841E-4
mere : 6.1234736E-5
underlin : 3.6740843E-5
threat : 3.6740843E-5
princip : 3.6740843E-5
stoltenberg : 2.4493895E-5
inform : 1.1022253E-4
salomon : 3.6740843E-5
depend : 2.0819811E-4
commit : 1.7145726E-4
about : 2.4493895E-5
opec : 3.6740843E-5
curb : 1.3471642E-4
danger : 1.3471642E-4
prudenti : 3.6740843E-5
cover : 2.816798E-4
firm : 3.306676E-4
bank : 0.017549876
reflect : 6.4908824E-4
seipp : 1.1022253E-4
flexibl : 1.3471642E-4
curv : 8.572863E-5
stick : 2.4493895E-5
band : 0.0010287436
immedi : 0.0012736826
coordin : 3.6740843E-5
setback : 4.898779E-5
suntrust : 4.898779E-5
pointer : 4.898779E-5
bootl : 7.3481686E-5
august : 1.1022253E-4
backdrop : 3.6740843E-5
therebi : 3.6740843E-5
mhc : 2.4493895E-5
impati : 2.4493895E-5
ebel : 2.4493895E-5
ministri : 3.061737E-4
benefit : 8.572863E-5
flood : 6.1234736E-5
miller : 2.4493895E-5
forgiv : 3.6740843E-5
highest : 8.572863E-5
boost : 3.061737E-4
except : 7.3481686E-5
programm : 3.6740843E-5
qualiti : 7.3481686E-5
nevertheless : 3.6740843E-5
fact : 2.571859E-4
fitzwat : 2.4493895E-5
monthli : 7.3481686E-5
mid : 9.797558E-5
unjustifi : 2.4493895E-5
global : 3.6740843E-5
arabian : 2.4493895E-5
long : 6.85829E-4
announc : 9.0627413E-4
fell : 5.5111264E-4
caraca : 2.4493895E-5
into : 2.4493895E-5
saturdai : 9.797558E-5
fade : 2.4493895E-5
unless : 7.3481686E-5
dogmat : 4.898779E-5
excess : 1.4696337E-4
ian : 6.1234736E-5
industri : 7.470638E-4
defin : 3.6740843E-5
fred : 3.6740843E-5
free : 1.2246947E-4
relationship : 3.6740843E-5
mix : 4.898779E-5
ought : 8.572863E-5
sidewai : 2.4493895E-5
stiff : 2.4493895E-5
reaction : 3.061737E-4
though : 1.7145726E-4
stifl : 3.6740843E-5
polit : 3.1842064E-4
cmca : 2.4493895E-5
appeal : 3.6740843E-5
commerc : 7.3481686E-5
appear : 2.2044506E-4
face : 2.571859E-4
simon : 2.4493895E-5
mismatch : 3.6740843E-5
progress : 6.1234736E-5
oper : 6.7358214E-4
mani : 3.429145E-4
mcginlei : 6.1234736E-5
open : 8.695333E-4
stai : 1.2246947E-4
ratio : 1.1022253E-4
seller : 3.6740843E-5
ramirez : 1.1022253E-4
treat : 2.4493895E-5
undervalu : 2.4493895E-5
monei : 0.0042496906
invest : 5.0212484E-4
afterward : 6.1234736E-5
seven : 3.9190231E-4
project : 4.898779E-5
shrug : 7.3481686E-5
genuin : 2.4493895E-5
whatev : 3.6740843E-5
loom : 2.4493895E-5
sever : 1.7145726E-4
loos : 2.4493895E-5
mkt : 2.4493895E-5
tobacco : 2.4493895E-5
bare : 7.3481686E-5
five : 7.3481683E-4
evalu : 4.898779E-5
edouard : 2.4493895E-5
endors : 1.3471642E-4
eurodollar : 7.3481686E-5
swiftli : 2.4493895E-5
felt : 1.1022253E-4
look : 6.368413E-4
mln : 0.004849791
qtr : 2.4493895E-5
repres : 1.2246947E-4
raton : 2.4493895E-5
hermann : 2.4493895E-5
korea : 2.4493895E-5
disrupt : 6.1234736E-5
amorn : 2.4493895E-5
bankamerica : 3.6740843E-5
concentr : 4.898779E-5
guid : 4.898779E-5
corazon : 3.6740843E-5
alloc : 4.4089011E-4
conflict : 1.1022253E-4
allow : 1.2246947E-4
squar : 7.3481686E-5
mmc : 1.3471642E-4
mmb : 2.4493895E-5
lawsuit : 4.898779E-5
commerci : 3.5516146E-4
rule : 4.0414926E-4
detect : 8.572863E-5
everi : 6.1234736E-5
organis : 6.1234736E-5
speed : 3.6740843E-5
auction : 2.2044506E-4
peopl : 1.2246947E-4
allot : 8.572863E-5
summari : 4.898779E-5
outsid : 8.572863E-5
admit : 4.898779E-5
common : 7.3481686E-5
interest : 0.0035638616
appli : 2.0819811E-4
hockin : 1.1022253E-4
outturn : 3.6740843E-5
herrhausen : 1.4696337E-4
linnebank : 4.898779E-5
commod : 8.572863E-5
presid : 2.571859E-4
middl : 4.898779E-5
healthi : 2.4493895E-5
exposur : 2.9392674E-4
again : 4.2864316E-4
euromonei : 2.4493895E-5
insur : 7.3481686E-5
ifo : 2.4493895E-5
basl : 2.4493895E-5
formula : 4.898779E-5
comment : 7.103229E-4
step : 2.3269201E-4
basi : 4.4089011E-4
televis : 3.6740843E-5
excit : 1.2246947E-4
sten : 2.4493895E-5
mark : 0.0019962525
insul : 2.4493895E-5
base : 0.0017268196
stem : 9.797558E-5
euphoria : 7.3481686E-5
employ : 6.1234736E-5
septemb : 2.3269201E-4
minist : 3.306676E-4
trend : 4.0414926E-4
safeti : 2.4493895E-5
carrol : 6.1234736E-5
whole : 1.1022253E-4
senat : 8.572863E-5
preliminari : 2.4493895E-5
theori : 2.4493895E-5
consist : 1.2246947E-4
venezuela : 3.6740843E-5
agricultur : 1.2246947E-4
loss : 2.9392674E-4
vulner : 1.1022253E-4
businessmen : 4.898779E-5
critic : 3.6740843E-5
sprin : 2.4493895E-5
otto : 7.3481686E-5
price : 0.0016778318
isda : 1.3471642E-4
lost : 2.4493895E-5
normalis : 3.6740843E-5
zentralbank : 2.4493895E-5
vak : 4.898779E-5
still : 4.1639621E-4
work : 2.3269201E-4
lose : 7.3481686E-5
vat : 2.4493895E-5
hesit : 3.6740843E-5
declin : 0.0015553624
wors : 6.1234736E-5
benchmark : 7.3481686E-5
suitabl : 2.4493895E-5
necessit : 4.898779E-5
fail : 1.5921032E-4
solomon : 2.4493895E-5
toward : 1.5921032E-4
restructur : 6.1234736E-5
dilson : 3.6740843E-5
among : 4.898779E-4
lesli : 9.797558E-5
discourag : 3.6740843E-5
variat : 4.898779E-5
refund : 2.4493895E-5
spain : 2.9392674E-4
steel : 3.6740843E-5
tradeabl : 2.4493895E-5
singapor : 3.6740843E-5
steep : 4.898779E-5
iif : 2.4493895E-5
impos : 3.6740843E-5
secret : 3.6740843E-5
requir : 0.0012246948
rupe : 9.797558E-5
foreign : 9.920028E-4
across : 6.1234736E-5
fall : 0.0018370422
eas : 8.695333E-4
decreas : 3.6740843E-5
girozentral : 2.4493895E-5
reced : 2.4493895E-5
steer : 6.1234736E-5
event : 7.3481686E-5
minneapoli : 3.6740843E-5
reward : 7.3481686E-5
coupon : 1.9595116E-4
bullish : 1.8370421E-4
loui : 4.898779E-5
ebc : 2.4493895E-5
hasti : 2.4493895E-5
elector : 8.572863E-5
appropri : 8.572863E-5
agenda : 9.797558E-5
opinion : 9.797558E-5
outflow : 1.9595116E-4
imperi : 8.572863E-5
agenc : 1.4696337E-4
liquid : 0.0015921032
pacif : 4.898779E-5
cannot : 1.3471642E-4
spar : 2.4493895E-5
averag : 0.0012246948
first : 0.0012614356
mainli : 8.572863E-5
indian : 7.3481686E-5
prefer : 1.2246947E-4
perfect : 2.4493895E-5
lambert : 4.898779E-5
rediscount : 7.3481686E-5
brokerag : 3.6740843E-5
poll : 1.8370421E-4
float : 1.2246947E-4
tight : 3.6740841E-4
stringent : 2.4493895E-5
space : 3.6740843E-5
genossenschaftlich : 2.4493895E-5
monetari : 6.85829E-4
telecommun : 2.4493895E-5
portfolio : 4.898779E-5
appar : 1.1022253E-4
from : 2.2044506E-4
clearli : 9.797558E-5
depart : 2.4493894E-4
retrac : 7.3481686E-5
upturn : 1.5921032E-4
offset : 3.1842064E-4
bottom : 1.5921032E-4
ill : 8.572863E-5
edg : 2.3269201E-4
fals : 3.6740843E-5
anticip : 1.4696337E-4
uncondit : 2.4493895E-5
middai : 8.572863E-5
phillip : 2.0819811E-4
lequipemen : 2.4493895E-5
provision : 8.572863E-5
enjoi : 4.898779E-5
guidelin : 1.5921032E-4
carniv : 7.3481686E-5
seemingli : 2.4493895E-5
imf : 1.7145726E-4
arrai : 3.6740843E-5
manuel : 2.4493895E-5
strung : 3.6740843E-5
winter : 2.4493895E-5
outright : 3.1842064E-4
membership : 6.1234736E-5
occas : 6.1234736E-5
network : 2.4493895E-5
liber : 3.6740843E-5
trace : 3.6740843E-5
jackson : 2.4493895E-5
public : 3.7965536E-4
paper : 6.4908824E-4
briefli : 2.4493895E-5
mercuri : 2.4493895E-5
spend : 2.9392674E-4
craig : 2.4493895E-5
confeder : 7.3481686E-5
austrian : 6.1234736E-5
track : 2.4493895E-5
bancorp : 3.6740843E-5
inc : 7.470638E-4
banqu : 2.4493895E-5
repay : 1.5921032E-4
stephen : 7.3481686E-5
overal : 2.4493894E-4
spent : 3.6740843E-5
trader : 2.2044506E-4
seaga : 4.898779E-5
mntl : 3.6740843E-5
instead : 2.9392674E-4
improv : 5.143718E-4
rush : 1.9595116E-4
jack : 3.6740843E-5
unlik : 5.2661874E-4
trade : 0.0022534383
round : 3.1842064E-4
growth : 0.0025106242
slash : 3.6740843E-5
redeposit : 3.6740843E-5
perman : 7.3481686E-5
marlin : 2.4493895E-5
aignan : 2.4493895E-5
habitat : 7.3481686E-5
refus : 1.2246947E-4
year : 0.004482383
absenc : 2.4493895E-5
via : 4.0414926E-4
dutch : 2.4493894E-4
temporari : 8.5728633E-4
describ : 1.3471642E-4
commerzbank : 8.572863E-5
substanti : 1.1022253E-4
permiss : 3.6740843E-5
poor : 3.6740843E-5
quota : 4.898779E-5
saver : 7.3481686E-5
volum : 2.3269201E-4
farm : 3.6740843E-5
absent : 4.898779E-5
near : 3.7965536E-4
rai : 2.4493895E-5
aberr : 6.1234736E-5
agreement : 0.0022166974
minneaploi : 3.6740843E-5
unchangd : 3.6740843E-5
remsperg : 3.6740843E-5
pool : 3.6740843E-5
merchant : 8.572863E-5
moratorium : 9.797558E-5
conserv : 1.3471642E-4
furthermor : 3.6740843E-5
stop : 1.7145726E-4
guess : 1.4696337E-4
fairli : 7.3481686E-5
handl : 2.4493895E-5
ceas : 6.1234736E-5
economi : 0.001641091
detail : 9.797558E-5
oversold : 7.3481686E-5
boston : 8.572863E-5
cardhold : 4.898779E-5
least : 4.0414926E-4
consolid : 8.572863E-5
unab : 3.6740843E-5
cede : 3.6740843E-5
dollar : 0.002106475
secretli : 2.4493895E-5
forese : 3.6740843E-5
jamaican : 3.6740843E-5
measur : 8.5728633E-4
close : 8.8178023E-4
deduc : 3.6740843E-5
saint : 3.6740843E-5
expenditur : 1.1022253E-4
policymak : 4.898779E-5
abl : 2.0819811E-4
jeremi : 3.6740843E-5
neck : 7.3481686E-5
irv : 7.3481686E-5
karnoski : 6.1234736E-5
materi : 1.1022253E-4
swing : 2.4493895E-5
industrialis : 7.3481686E-5
fast : 7.3481686E-5
abu : 2.4493895E-5
exce : 2.4493895E-5
uncertainti : 1.5921032E-4
nine : 1.8370421E-4
camdessu : 3.6740843E-5
eager : 4.898779E-5
beneficiari : 4.898779E-5
fellner : 9.797558E-5
rural : 3.6740843E-5
interst : 2.4493895E-5
contribut : 1.4696337E-4
sumita : 5.0212484E-4
ohio : 2.4493895E-5
specif : 7.3481686E-5
euromarket : 4.898779E-5
aggreg : 3.061737E-4
overshoot : 1.5921032E-4
gibb : 1.1022253E-4
act : 3.5516146E-4
post : 1.8370421E-4
nathan : 3.6740843E-5
zur : 3.6740843E-5
rel : 3.429145E-4
finish : 4.898779E-5
add : 0.0010164967
initi : 3.061737E-4
need : 0.001408399
pose : 6.1234736E-5
steadili : 8.572863E-5
wrote : 4.898779E-5
equival : 8.572863E-5
jaim : 2.4493895E-5
insist : 9.797558E-5
scrimgeour : 2.4493895E-5
massiv : 3.6740843E-5
liberalis : 1.8370421E-4
els : 2.4493895E-5
respect : 5.633596E-4
retreat : 8.572863E-5
jerom : 2.4493895E-5
transact : 4.6538402E-4
risen : 7.3481686E-5
canada : 3.306676E-4
altern : 9.797558E-5
unav : 3.1842064E-4
washington : 6.0010044E-4
conced : 2.4493895E-5
trust : 4.0414926E-4
propect : 4.898779E-5
companion : 2.4493895E-5
braddock : 2.4493895E-5
famili : 8.572863E-5
consequ : 7.3481686E-5
overnight : 2.9392674E-4
prevent : 2.0819811E-4
stretch : 8.572863E-5
mcente : 1.1022253E-4
accomplish : 4.898779E-5
eileen : 2.4493895E-5
dhabi : 2.4493895E-5
wroblewski : 1.1022253E-4
rico : 8.572863E-5
scope : 2.0819811E-4
end : 0.0012002009
benefici : 4.898779E-5
simmond : 6.1234736E-5
stoval : 2.4493895E-5
particip : 3.7965536E-4
contin : 4.898779E-5
anyth : 1.4696337E-4
howev : 0.0010409906
estim : 0.0015798563
special : 2.816798E-4
togeth : 1.4696337E-4
philippin : 2.2044506E-4
agre : 8.3279243E-4
paolo : 2.4493895E-5
exempt : 8.572863E-5
albeit : 2.4493895E-5
smaller : 1.2246947E-4
sensit : 4.898779E-5
told : 6.613352E-4
specul : 3.5516146E-4
charter : 7.3481686E-5
cabl : 2.4493895E-5
ago : 2.0819811E-4
slim : 4.898779E-5
rid : 3.6740843E-5
reiner : 4.898779E-5
riski : 4.898779E-5
occurr : 2.4493895E-5
toll : 3.6740843E-5
uptrend : 6.1234736E-5
upheav : 3.6740843E-5
mccormick : 6.1234736E-5
slightli : 2.6943284E-4
number : 2.3269201E-4
identifi : 1.5921032E-4
slack : 3.6740843E-5
specifi : 3.6740843E-5
narrow : 3.9190231E-4
overdon : 4.898779E-5
similar : 3.6740841E-4
viewpoint : 3.6740843E-5
shape : 4.898779E-5
invit : 2.816798E-4
swiss : 1.4696337E-4
ceil : 1.2246947E-4
tough : 2.4493895E-5
exit : 3.6740843E-5
system : 0.0017145727
mariano : 2.4493895E-5
likelihood : 8.572863E-5
spot : 3.6740843E-5
driven : 2.4493895E-5
issu : 0.00188603
aid : 8.572863E-5
jame : 1.4696337E-4
other : 3.6740841E-4
aim : 2.9392674E-4
tone : 4.898779E-5
singer : 1.7145726E-4
boca : 2.4493895E-5
against : 2.4493895E-5
retain : 3.6740843E-5
promptli : 2.4493895E-5
air : 6.1234736E-5
slowdown : 8.572863E-5
local : 1.8370421E-4
retail : 1.5921032E-4
arifin : 2.4493895E-5
resum : 8.572863E-5
crude : 4.898779E-5
simex : 7.3481686E-5
manufacturer : 2.4493895E-5
withstand : 2.4493895E-5
valid : 2.4493895E-5
ncf : 2.4493895E-5
assur : 3.6740843E-5
pictur : 4.898779E-5
vacuum : 3.6740843E-5
assum : 4.898779E-5
yield : 0.0011512131
optimist : 1.1022253E-4
speak : 9.797558E-5
share : 1.8370421E-4
deficit : 0.0013226704
holidai : 4.898779E-5
tender : 0.0015921032
oesterreichisch : 2.4493895E-5
milwauke : 2.4493895E-5
chairman : 2.4493894E-4
boat : 3.6740843E-5
sharp : 2.571859E-4
notic : 7.3481686E-5
hatchet : 3.6740843E-5
surpris : 6.613352E-4
citi : 9.797558E-5
slip : 2.0819811E-4
exampl : 1.1022253E-4
cite : 9.797558E-5
strongest : 2.4493895E-5
movement : 2.6943284E-4
royal : 6.1234736E-5
pertain : 3.6740843E-5
francisco : 4.898779E-5
shed : 7.3481686E-5
shake : 4.898779E-5
ebulli : 2.4493895E-5
ongpin : 7.3481686E-5
cent : 1.2246947E-4
est : 3.6740843E-5
correspond : 4.898779E-5
spur : 1.7145726E-4
neg : 1.2246947E-4
bureau : 1.3471642E-4
complement : 2.4493895E-5
net : 2.816798E-4
whelan : 6.1234736E-5
oblig : 6.1234736E-5
belgium : 1.3471642E-4
all : 1.9595116E-4
bode : 3.6740843E-5
new : 0.0030739838
took : 1.7145726E-4
unreservedli : 3.6740843E-5
simplic : 7.3481686E-5
alp : 4.898779E-5
schulmann : 4.898779E-5
steepen : 2.4493895E-5
todai : 0.0045926054
touch : 6.1234736E-5
choos : 1.3471642E-4
rememb : 4.898779E-5
real : 2.816798E-4
lethargi : 4.898779E-5
rumour : 6.1234736E-5
unit : 4.2864316E-4
pemberton : 1.9595116E-4
alreadi : 2.9392674E-4
amd : 3.6740843E-5
therefor : 3.6740843E-5
postal : 2.4493895E-5
bodi : 1.3471642E-4
joseph : 3.6740843E-5
gear : 4.898779E-5
martha : 3.6740843E-5
amp : 7.3481686E-5
inequit : 2.4493895E-5
media : 3.6740843E-5
around : 0.0011022253
favour : 2.2044506E-4
shortli : 1.4696337E-4
harden : 2.4493895E-5
disappoint : 6.1234736E-5
unexpectedli : 2.4493895E-5
resolv : 8.572863E-5
toyko : 3.6740843E-5
calcul : 1.7145726E-4
and : 2.4493894E-4
stockbrok : 9.797558E-5
predict : 2.4493894E-4
gilt : 1.7145726E-4
harder : 2.4493895E-5
ani : 8.572863E-5
ann : 2.4493895E-5
misgiv : 6.1234736E-5
abroad : 2.4493894E-4
financ : 7.5931073E-4
strategi : 2.0819811E-4
anz : 7.3481686E-5
qualifi : 2.4493895E-5
citicorp : 1.1022253E-4
committe : 5.878535E-4
dispar : 3.6740843E-5
lanston : 3.6740843E-5
previou : 2.4493894E-4
martin : 9.797558E-5
rpt : 2.4493895E-5
until : 1.3471642E-4
estat : 6.1234736E-5
dull : 2.4493895E-5
jeffrei : 1.7145726E-4
reason : 4.1639621E-4
charlott : 2.4493895E-5
unemploy : 4.898779E-5
slifer : 9.797558E-5
thought : 1.9595116E-4
concession : 4.898779E-5
maintain : 2.6943284E-4
belgian : 7.3481686E-5
shift : 1.8370421E-4
echo : 3.6740843E-5
johnson : 2.4493895E-5
compos : 3.6740843E-5
bargain : 3.6740843E-5
nil : 2.4493895E-5
compon : 4.898779E-5
jan : 2.4493895E-5
despatch : 2.4493895E-5
fragil : 3.6740843E-5
annual : 3.7965536E-4
hellmuth : 2.4493895E-5
zealand : 1.4696337E-4
alfr : 2.4493895E-5
mistak : 2.4493895E-5
resort : 3.6740843E-5
siregar : 2.4493895E-5
margin : 1.9595116E-4
apr : 2.4493895E-5
circumst : 4.898779E-5
remain : 0.0012981765
welfar : 4.898779E-5
demand : 0.0011267192
confound : 2.4493895E-5
slow : 3.1842064E-4
letter : 4.898779E-5
deposit : 0.001408399
depositor : 7.3481686E-5
tomrorow : 3.6740843E-5
dunn : 3.6740843E-5
continent : 6.1234736E-5
volatil : 1.3471642E-4
bearish : 3.6740843E-5
dublin : 2.4493895E-5
scrambl : 6.1234736E-5
refco : 2.4493895E-5
worth : 2.4493894E-4
tactic : 4.898779E-5
turbul : 1.4696337E-4
default : 1.1022253E-4
handel : 4.898779E-5
taken : 2.0819811E-4
came : 4.4089011E-4
grace : 3.6740843E-5
ripe : 4.898779E-5
capel : 9.797558E-5
broader : 4.898779E-5
arm : 8.572863E-5
popular : 1.8370421E-4
broken : 4.898779E-5
vice : 7.3481686E-5
outweigh : 4.898779E-5
black : 3.6740843E-5
holder : 6.1234736E-5
innov : 7.3481686E-5
broker : 1.8370421E-4
balanc : 6.4908824E-4
fulli : 8.572863E-5
tour : 3.6740843E-5
call : 0.0010777314
facilit : 9.797558E-5
such : 1.1022253E-4
calm : 7.3481686E-5
classic : 2.4493895E-5
essenti : 2.4493895E-5
remaind : 8.572863E-5
ask : 3.7965536E-4
moir : 2.4493895E-5
principl : 1.1022253E-4
setter : 4.898779E-5
understood : 6.1234736E-5
dilemma : 7.3481686E-5
through : 3.6740843E-5
cohen : 2.4493895E-5
oppos : 3.6740843E-5
strength : 4.5313707E-4
florida : 4.898779E-5
run : 3.1842064E-4
enact : 6.1234736E-5
philip : 2.4493895E-5
research : 7.3481686E-5
worri : 2.9392674E-4
either : 1.2246947E-4
view : 3.306676E-4
shortag : 0.001396152
white : 3.6740843E-5
ionterest : 2.4493895E-5
acknowledg : 3.6740843E-5
pierr : 2.4493895E-5
thailand : 7.3481686E-5
huge : 2.4493895E-5
sovereign : 6.1234736E-5
those : 3.6740843E-5
difficulti : 7.3481686E-5
imposs : 1.2246947E-4
town : 2.4493895E-5
taboo : 2.4493895E-5
might : 3.1842064E-4
examin : 3.6740843E-5
alic : 3.6740843E-5
deflationari : 4.898779E-5
dure : 3.6740843E-5
effici : 3.6740843E-5
rein : 6.1234736E-5
iggi : 4.898779E-5
longer : 2.2044506E-4
introduc : 1.4696337E-4
privat : 2.9392674E-4
consum : 1.7145726E-4
reportedli : 2.4493895E-5
name : 8.572863E-5
inflow : 8.572863E-5
haumer : 2.4493895E-5
resal : 5.0212484E-4
notabl : 3.6740843E-5
next : 9.0627413E-4
crunch : 4.898779E-5
import : 5.0212484E-4
mood : 2.4493895E-5
reli : 3.6740843E-5
boom : 2.4493895E-5
alli : 2.4493895E-5
abolish : 1.2246947E-4
attract : 2.6943284E-4
book : 7.3481686E-5
truck : 2.4493895E-5
show : 0.0017268196
unspecifi : 2.4493895E-5
cautious : 3.6740843E-5
disappear : 1.3471642E-4
focu : 3.6740843E-5
non : 1.7145726E-4
summit : 2.4493895E-5
shot : 2.4493895E-5
eurobond : 4.898779E-5
not : 2.9392674E-4
central : 0.0013839051
midland : 2.2044506E-4
defend : 7.3481686E-5
now : 3.9190231E-4
introduct : 1.2246947E-4
leagu : 3.6740843E-5
nearli : 1.3471642E-4
statement : 5.7560654E-4
overcom : 2.4493895E-5
annualis : 3.6740843E-5
effervesc : 3.6740843E-5
hanov : 9.797558E-5
factor : 6.613352E-4
wai : 6.4908824E-4
enabl : 2.4493895E-5
negoti : 1.9595116E-4
lehman : 3.6740843E-5
wisconsin : 3.6740843E-5
elizabeth : 2.4493895E-5
bonn : 4.898779E-5
thirdli : 3.6740843E-5
associ : 4.5313707E-4
maximium : 2.4493895E-5
europ : 8.572863E-5
josef : 3.6740843E-5
emphasi : 3.6740843E-5
duti : 3.6740843E-5
war : 1.1022253E-4
greet : 2.4493895E-5
duth : 2.4493895E-5
mamman : 6.1234736E-5
bond : 0.0016043502
grew : 2.0819811E-4
target : 0.0019840056
momentum : 9.797558E-5
tokyo : 3.061737E-4
deliveri : 3.6740843E-5
what : 1.1022253E-4
refer : 7.3481686E-5
decontrol : 4.898779E-5
african : 8.572863E-5
nervous : 1.1022253E-4
risk : 6.123474E-4
bonu : 3.6740843E-5
window : 1.7145726E-4
rise : 0.002780057
underpin : 4.898779E-5
braverman : 6.1234736E-5
leader : 4.898779E-5
facilti : 8.572863E-5
fought : 4.898779E-5
when : 6.1234736E-5
significantli : 1.2246947E-4
aubrei : 2.4493895E-5
issuer : 2.816798E-4
jim : 3.6740843E-5
modest : 1.1022253E-4
plai : 1.8370421E-4
cass : 2.4493895E-5
cast : 3.6740843E-5
kathleen : 2.4493895E-5
envis : 3.6740843E-5
far : 5.143718E-4
quickli : 3.061737E-4
broad : 1.2246947E-4
electron : 4.898779E-5
axp : 2.4493895E-5
cash : 3.6740841E-4
plan : 6.85829E-4
greater : 4.898779E-5
nearbi : 2.4493895E-5
case : 1.4696337E-4
give : 3.6740841E-4
item : 4.898779E-5
multipl : 3.6740843E-5
toler : 8.572863E-5
dresdner : 2.4493895E-5
obviou : 4.898779E-5
trunk : 2.4493895E-5
stubbornli : 2.4493895E-5
lowest : 1.9595116E-4
reassembl : 4.898779E-5
collaps : 1.2246947E-4
explicit : 2.4493895E-5
studi : 9.797558E-5
consid : 1.9595116E-4
futur : 0.0012246948
slide : 9.797558E-5
prevail : 6.1234736E-5
sizabl : 2.4493895E-5
suit : 1.9595116E-4
explor : 2.4493895E-5
card : 5.143718E-4
care : 7.3481686E-5
implicit : 2.4493895E-5
portion : 4.898779E-5
repo : 8.572863E-5
direct : 1.8370421E-4
australian : 1.2246947E-4
pattern : 3.6740843E-5
irish : 3.6740843E-5
fever : 3.6740843E-5
keef : 6.1234736E-5
surplu : 5.143718E-4
rozich : 7.3481686E-5
desjardin : 4.898779E-5
compil : 3.6740843E-5
gain : 6.85829E-4
labour : 3.6740843E-5
caus : 3.7965536E-4
mccarthi : 1.2246947E-4
cushion : 1.3471642E-4
mechan : 4.898779E-5
freedom : 4.898779E-5
protect : 8.572863E-5
manoeuvr : 4.898779E-5
berlin : 2.4493895E-5
collater : 6.1234736E-5
indonesian : 2.4493895E-5
stress : 1.7145726E-4
grip : 6.1234736E-5
wilmington : 2.4493895E-5
consumpt : 4.898779E-5
more : 2.0819811E-4
alon : 7.3481686E-5
clement : 9.797558E-5
morn : 8.450394E-4
great : 6.1234736E-5
kahan : 6.1234736E-5
bore : 2.4493895E-5
wrong : 3.6740843E-5
inflat : 0.0016288441
gemeinwirtschaft : 2.4493895E-5
harri : 6.1234736E-5
indebted : 6.1234736E-5
advanc : 7.715577E-4
certain : 6.1234736E-5
board : 4.0414926E-4
sacrific : 7.3481686E-5
feb : 6.1234736E-5
bout : 3.6740843E-5
fed : 0.0030127491
fee : 4.5313707E-4
broadli : 1.3471642E-4
simpli : 1.1022253E-4
cloud : 2.4493895E-5
georgia : 3.6740843E-5
gazett : 3.6740843E-5
threaten : 1.1022253E-4
few : 2.4493895E-5
ridden : 2.4493895E-5
unrepres : 4.898779E-5
strain : 7.3481686E-5
england : 0.0015063746
hunt : 3.6740843E-5
orient : 2.4493895E-5
profil : 4.898779E-5
amsterdam : 1.2246947E-4
daili : 1.9595116E-4
adad : 2.4493895E-5
rais : 0.0022166974
plea : 4.898779E-5
usda : 8.572863E-5
both : 4.898779E-5
syndic : 3.6740843E-5
market : 0.010054744
most : 1.4696337E-4
warburg : 1.5921032E-4
keen : 1.1022253E-4
ameritrust : 2.4493895E-5
transfer : 3.6740843E-5
unsur : 4.898779E-5
fft : 3.6740843E-5
overhaul : 3.6740843E-5
effect : 0.0017880544
keep : 3.9190231E-4
elev : 2.4493895E-5
topic : 4.898779E-5
job : 6.1234736E-5
option : 1.5921032E-4
appreci : 8.572863E-5
weigh : 3.6740843E-5
bombai : 2.4493895E-5
largest : 9.797558E-5
joe : 2.4493895E-5
game : 7.3481686E-5
reagan : 8.572863E-5
unveil : 1.1022253E-4
guillermo : 2.4493895E-5
crucial : 3.6740843E-5
sparkassen : 2.4493895E-5
continu : 0.0010777314
remark : 2.816798E-4
everyon : 3.6740843E-5
resid : 4.898779E-5
donor : 1.1022253E-4
along : 1.3471642E-4
billion : 0.0047518155
reject : 8.572863E-5
arrang : 4.1639621E-4
sai : 0.0017513135
sheet : 1.2246947E-4
wil : 3.6740843E-5
messag : 8.572863E-5
david : 8.572863E-5
profit : 1.4696337E-4
grigg : 8.572863E-5
sam : 2.4493895E-5
optima : 3.6740843E-5
imfwo : 3.6740843E-5
rest : 1.8370421E-4
san : 3.6740843E-5
breach : 2.4493895E-5
move : 0.0019962525
amount : 7.8380463E-4
wit : 4.898779E-5
jpm : 2.4493895E-5
saw : 1.4696337E-4
tremend : 2.4493895E-5
also : 0.0014696337
suchet : 2.4493895E-5
enough : 2.9392674E-4
fhl : 3.6740843E-5
kingdom : 8.572863E-5
diminish : 1.4696337E-4
differ : 2.4493895E-5
jasper : 3.6740843E-5
spread : 4.7763094E-4
afternoon : 5.633596E-4
histor : 2.4493895E-5
situat : 1.2246947E-4
fargo : 3.6740843E-5
eurosterl : 1.1022253E-4
favor : 2.4493895E-5
latter : 3.6740843E-5
front : 1.3471642E-4
approv : 2.816798E-4
user : 2.4493895E-5
confid : 1.4696337E-4
extent : 2.4493895E-5
hearten : 4.898779E-5
extens : 3.6740843E-5
bad : 1.2246947E-4
potenti : 1.8370421E-4
decre : 4.898779E-5
bring : 6.4908824E-4
complet : 4.898779E-5
ban : 2.4493895E-5
offer : 0.0012002009
fit : 2.4493895E-5
suffer : 8.572863E-5
bar : 3.6740843E-5
unsettl : 3.6740843E-5
fix : 3.306676E-4
nza : 2.4493895E-5
draft : 6.1234736E-5
loath : 3.6740843E-5
rank : 3.6740843E-5
pension : 2.4493895E-5
portend : 3.6740843E-5
rang : 0.0012002009
neglect : 2.4493895E-5
despit : 1.9595116E-4
surg : 3.306676E-4
posit : 4.0414926E-4
ad : 0.0017513135
grow : 3.306676E-4
sure : 2.4493895E-5
saunderson : 3.6740843E-5
shrink : 3.6740843E-5
ag : 1.3471642E-4
am : 3.6740843E-5
secur : 0.0010777314
an : 7.3481686E-5
greatli : 2.4493895E-5
saudi : 2.4493895E-5
former : 3.6740843E-5
fomc : 9.797558E-5
extend : 1.8370421E-4
ar : 2.4493895E-5
fold : 2.4493895E-5
as : 1.1022253E-4
automak : 7.3481686E-5
at : 5.7560654E-4
constitut : 3.6740843E-5
bellweth : 2.4493895E-5
drive : 3.6740843E-5
brother : 4.898779E-5
hurt : 9.797558E-5
sdr : 2.4493895E-5
dean : 7.3481686E-5
deal : 4.4089011E-4
strong : 4.7763094E-4
prove : 1.2246947E-4
be : 1.7145726E-4
scheme : 8.572863E-5
allianc : 3.6740843E-5
affect : 1.9595116E-4
bi : 6.1234736E-5
bk : 2.4493895E-5
enquiri : 3.7965536E-4
dead : 2.4493895E-5
buildup : 6.1234736E-5
bn : 2.4493895E-5
drain : 5.388657E-4
pontiac : 8.572863E-5
see : 8.5728633E-4
domin : 2.4493895E-5
bt : 2.4493895E-5
by : 4.6538402E-4
civil : 2.4493895E-5
franc : 9.43015E-4
barnei : 2.4493895E-5
subdu : 6.1234736E-5
fla : 2.4493895E-5
insuffici : 7.3481686E-5
saddl : 7.3481686E-5
panel : 8.572863E-5
deleg : 4.898779E-5
ca : 2.4493895E-5
cd : 1.3471642E-4
set : 0.0017268196
contain : 1.5921032E-4
schade : 7.3481686E-5
co : 6.85829E-4
suspici : 2.4493895E-5
sfb : 2.4493895E-5
figur : 7.103229E-4
ct : 4.898779E-5
withdrew : 2.4493895E-5
franz : 2.4493895E-5
partner : 4.898779E-5
standbi : 2.4493895E-5
confin : 4.898779E-5
visa : 9.797558E-5
somewhat : 7.3481686E-5
voter : 8.572863E-5
interview : 2.816798E-4
equiti : 6.1234736E-5
de : 1.2246947E-4
justif : 2.4493895E-5
featur : 3.6740843E-5
di : 8.572863E-5
offic : 7.3481686E-5
deck : 4.898779E-5
fora : 2.4493895E-5
payrol : 2.4493895E-5
forc : 3.9190231E-4
extern : 2.4493895E-5
parti : 2.2044506E-4
bet : 4.898779E-5
du : 2.4493895E-5
midsess : 3.6740843E-5
outlin : 3.6740843E-5
montagu : 2.4493895E-5
rare : 3.6740843E-5
contact : 4.898779E-5
fnb : 2.4493895E-5
ec : 3.6740843E-5
michel : 2.4493895E-5
which : 3.6740843E-5
signific : 2.816798E-4
em : 7.3481686E-5
carri : 1.2246947E-4
complain : 4.898779E-5
reapprais : 3.6740843E-5
abund : 3.6740843E-5
fourteen : 2.4493895E-5
et : 2.4493895E-5
never : 4.898779E-5
she : 4.898779E-5
clarifi : 7.3481686E-5
aggress : 6.1234736E-5
tranch : 1.3471642E-4
adjust : 5.388657E-4
felip : 2.4493895E-5
fob : 2.4493895E-5
activ : 3.5516146E-4
western : 4.898779E-5
fa : 2.4493895E-5
upham : 2.4493895E-5
fb : 2.4493895E-5
debt : 0.0015186215
compar : 0.0017268196
compet : 1.1022253E-4
indic : 0.0010287436
deep : 3.6740843E-5
stiffer : 2.4493895E-5
delai : 1.4696337E-4
criticis : 3.6740843E-5
origin : 4.898779E-5
for : 3.9190231E-4
exclud : 7.3481686E-5
clash : 3.6740843E-5
depress : 3.6740843E-5
funaro : 6.1234736E-5
content : 9.797558E-5
burden : 6.1234736E-5
symposium : 1.3471642E-4
leigh : 1.3471642E-4
hover : 7.3481686E-5
westminst : 2.3269201E-4
rate : 0.027310694
sanction : 9.797558E-5
majendi : 2.4493895E-5
regulatori : 6.1234736E-5
await : 3.6740843E-5
exclus : 4.898779E-5
unfair : 6.1234736E-5
client : 7.3481686E-5
promot : 6.1234736E-5
gaug : 1.4696337E-4
samaila : 2.4493895E-5
settl : 8.572863E-5
battl : 4.898779E-5
sit : 2.4493895E-5
over : 1.3471642E-4
spanish : 6.1234736E-5
bhf : 2.4493895E-5
outperform : 2.4493895E-5
gi : 3.6740843E-5
six : 9.43015E-4
someth : 2.571859E-4
bounc : 4.898779E-5
gm : 2.4493895E-5
bound : 6.1234736E-5
go : 4.1639621E-4
gatt : 4.898779E-5
dalla : 4.898779E-5
counter : 4.898779E-5
kept : 7.3481686E-5
irrelev : 3.6740843E-5
contrari : 3.6740843E-5
treasur : 4.898779E-5
counten : 3.6740843E-5
crisanti : 3.6740843E-5
unruli : 2.4493895E-5
form : 3.1842064E-4
wyss : 6.1234736E-5
publish : 4.898779E-5
ha : 3.6740843E-5
farmer : 2.4493895E-5
restor : 7.3481686E-5
refinanc : 3.6740843E-5
avoid : 4.898779E-5
renew : 6.1234736E-5
gate : 3.6740843E-5
bid : 5.2661874E-4
kassenoblig : 2.4493895E-5
disburs : 6.1234736E-5
fresh : 2.4493895E-5
he : 0.0010654845
waiver : 4.898779E-5
prompt : 4.898779E-5
assign : 9.797558E-5
peasant : 6.1234736E-5
big : 9.797558E-5
hi : 4.898779E-5
postpon : 3.6740843E-5
select : 4.898779E-5
hk : 2.4493895E-5
congress : 6.1234736E-5
canadian : 1.4696337E-4
altogeth : 8.572863E-5
easili : 4.898779E-5
degre : 3.6740843E-5
hr : 3.6740843E-5
bit : 9.797558E-5
obstacl : 1.1022253E-4
output : 2.9392674E-4
veri : 6.1234736E-5
promis : 6.1234736E-5
william : 9.797558E-5
four : 6.613352E-4
decemb : 1.9595116E-4
ordinari : 6.1234736E-5
join : 1.3471642E-4
drag : 3.6740843E-5
decis : 3.1842064E-4
moder : 1.3471642E-4
if : 4.5313707E-4
french : 1.1022253E-4
crown : 4.898779E-5
kern : 4.898779E-5
in : 0.0010899784
inquiri : 3.6740843E-5
director : 1.8370421E-4
lower : 0.0017880544
tomorrow : 0.0019227708
index : 4.898779E-4
worldwid : 3.6740843E-5
is : 1.1022253E-4
it : 0.0014328929
inevit : 3.6740843E-5
decid : 3.6740841E-4
urgenc : 3.6740843E-5
oda : 4.898779E-5
iv : 2.4493895E-5
reduct : 6.85829E-4
advisori : 6.1234736E-5
raul : 2.4493895E-5
resler : 4.898779E-5
contrast : 2.4493895E-5
becam : 3.6740843E-5
bkb : 2.4493895E-5
gave : 1.9595116E-4
john : 4.898779E-5
begin : 4.6538402E-4
paragraph : 7.3481686E-5
valu : 3.5516146E-4
brought : 1.3471642E-4
widen : 1.1022253E-4
optim : 7.3481686E-5
weekend : 3.6740843E-5
harwood : 8.572863E-5
believ : 6.0010044E-4
gerhard : 2.4493895E-5
lure : 3.6740843E-5
settlement : 9.797558E-5
world : 3.429145E-4
meantim : 3.6740843E-5
tradition : 3.6740843E-5
penal : 3.6740843E-5
optic : 2.4493895E-5
consensu : 6.1234736E-5
belief : 8.572863E-5
ottawa : 3.6740843E-5
delight : 4.898779E-5
side : 8.572863E-5
break : 3.9190231E-4
prestig : 2.4493895E-5
overtli : 4.898779E-5
lawson : 7.960516E-4
draw : 1.4696337E-4
comfort : 9.797558E-5
itali : 1.1022253E-4
expansionist : 2.4493895E-5
la : 4.898779E-5
report : 6.7358214E-4
indirectli : 2.9392674E-4
oral : 2.4493895E-5
li : 3.6740843E-5
expans : 1.3471642E-4
auto : 9.797558E-5
constant : 2.4493895E-5
koerner : 2.4493895E-5
lo : 2.4493895E-5
receiv : 1.7145726E-4
montreal : 7.3481686E-5
bribe : 3.6740843E-5
adequaci : 3.6740843E-5
sign : 4.6538402E-4
endang : 2.4493895E-5
angel : 2.4493895E-5
directli : 9.797558E-5
while : 1.2246947E-4
northern : 2.4493895E-5
anger : 2.4493895E-5
roger : 3.6740843E-5
jone : 6.1234736E-5
rupiah : 8.572863E-5
second : 4.2864316E-4
sidelin : 4.898779E-5
plaza : 3.6740843E-5
that : 4.898779E-4
high : 0.0012491887
faster : 7.3481686E-5
split : 8.572863E-5
conclud : 9.797558E-5
morgan : 8.572863E-5
than : 2.4493895E-5
marshal : 3.6740843E-5
limit : 3.6740841E-4
denomin : 1.3471642E-4
pessimist : 2.4493895E-5
brian : 4.898779E-5
administr : 2.0819811E-4
entri : 4.898779E-5
mo : 3.6740843E-5
level : 0.0020574871
author : 0.002314673
survei : 1.1022253E-4
thrown : 3.6740843E-5
thai : 1.4696337E-4
my : 2.4493895E-5
modif : 2.4493895E-5
establish : 1.1022253E-4
expand : 9.797558E-5
na : 1.1022253E-4
fiscal : 3.306676E-4
venezuelan : 2.4493895E-5
nd : 3.6740843E-5
coal : 2.4493895E-5
produc : 3.6740841E-4
legisl : 1.1022253E-4
proverbi : 2.4493895E-5
unilater : 3.6740843E-5
bon : 2.4493895E-5
heat : 6.1234736E-5
no : 1.4696337E-4
behind : 1.5921032E-4
code : 7.3481686E-5
student : 4.898779E-5
bridg : 2.4493895E-5
rundown : 3.6740843E-5
roost : 7.3481686E-5
schedul : 8.572863E-5
afloat : 2.4493895E-5
switch : 3.6740843E-5
matur : 0.002314673
head : 3.6740841E-4
mccullei : 4.898779E-5
total : 8.695333E-4
deni : 8.572863E-5
oil : 3.7965536E-4
of : 6.613352E-4
deutsch : 1.2246947E-4
benson : 4.898779E-5
involv : 2.2044506E-4
possibl : 5.633596E-4
thoma : 8.572863E-5
fight : 3.6740843E-5
hear : 2.4493895E-5
on : 0.0033801575
blah : 0.0019595115
brief : 1.2246947E-4
disclosur : 3.6740843E-5
technic : 1.1022253E-4
respark : 2.4493895E-5
economist : 0.001641091
or : 7.3481686E-5
lobbi : 2.4493895E-5
influx : 8.572863E-5
clair : 2.4493895E-5
social : 3.6740843E-5
conclus : 6.1234736E-5
cross : 4.898779E-5
ow : 1.4696337E-4
control : 2.0819811E-4
confer : 4.4089011E-4
drew : 1.7145726E-4
highli : 7.3481686E-5
comprehens : 6.1234736E-5
pretti : 2.4493895E-5
extrem : 4.898779E-5
equip : 7.3481686E-5
offici : 0.0011512131
quarrel : 3.6740843E-5
incorpor : 2.4493895E-5
easier : 8.572863E-5
voluntarili : 2.4493895E-5
imedi : 4.898779E-5
horst : 2.4493895E-5
kleinwort : 4.898779E-5
nation : 0.001408399
upper : 6.1234736E-5
stood : 1.3471642E-4
paint : 3.6740843E-5
expiri : 9.797558E-5
behalf : 1.1022253E-4
exert : 2.4493895E-5
necessari : 2.2044506E-4
vari : 3.6740843E-5
strengthen : 8.572863E-5
drawn : 3.6740843E-5
vienna : 2.4493895E-5
recent : 9.920028E-4
bro : 2.4493895E-5
pinpoint : 3.6740843E-5
materialis : 1.1022253E-4
choke : 3.6740843E-5
alcohol : 3.6740843E-5
secondari : 4.898779E-5
karl : 9.797558E-5
varieti : 6.1234736E-5
old : 1.4696337E-4
stg : 0.008340172
dent : 3.6740843E-5
sti : 2.4493895E-5
them : 4.898779E-5
australia : 1.3471642E-4
hike : 1.8370421E-4
then : 1.5921032E-4
mtrc : 2.4493895E-5
thei : 6.4908824E-4
accept : 5.143718E-4
indiffer : 2.4493895E-5
re : 8.572863E-5
includ : 5.2661874E-4
mixtur : 3.6740843E-5
adopt : 2.0819811E-4
brasilia : 2.4493895E-5
madrid : 1.1022253E-4
autumn : 3.6740843E-5
glori : 4.898779E-5
minut : 6.1234736E-5
motor : 4.898779E-5
currenc : 0.0011512131
secretari : 1.2246947E-4
access : 3.6740843E-5
cautiou : 2.4493894E-4
sum : 3.6740843E-5
seek : 1.7145726E-4
sun : 2.4493895E-5
yearli : 3.6740843E-5
kei : 3.9190231E-4
seen : 3.7965536E-4
seem : 4.0414926E-4
poorest : 3.6740843E-5
current : 0.0010654845
democrat : 3.6740843E-5
japsper : 2.4493895E-5
persist : 6.1234736E-5
implic : 6.1234736E-5
detroit : 6.1234736E-5
so : 1.1022253E-4
pump : 3.6740843E-5
caution : 2.2044506E-4
thatcher : 4.898779E-5
apart : 7.3481686E-5
calendar : 2.4493895E-5
st : 4.898779E-5
intern : 6.4908824E-4
onc : 3.6740843E-5
norma : 2.4493895E-5
centr : 9.797558E-5
launch : 1.8370421E-4
amid : 2.4493895E-5
store : 8.572863E-5
intervent : 9.43015E-4
stori : 4.898779E-5
closer : 3.6740843E-5
emerg : 1.4696337E-4
confirm : 1.2246947E-4
pledg : 6.1234736E-5
pull : 2.4493895E-5
chartist : 7.3481686E-5
th : 2.4493895E-5
comerica : 3.6740843E-5
ti : 3.6740843E-5
daid : 3.6740843E-5
bui : 4.6538402E-4
remov : 1.2246947E-4
dealer : 0.001873783
shanghai : 3.6740843E-5
assist : 0.002314673
to : 0.0012491887
fourth : 1.2246947E-4
typic : 2.4493895E-5
but : 0.0015553624
shortfal : 2.6943284E-4
joint : 7.3481686E-5
strenuou : 4.898779E-5
expens : 1.5921032E-4
willing : 3.6740843E-5
express : 9.797558E-5
deterior : 3.6740843E-5
rotberg : 6.1234736E-5
zero : 1.1022253E-4
countri : 0.0011879539
hypothecair : 6.1234736E-5
jamaica : 7.3481686E-5
uk : 8.572863E-5
unoffici : 4.898779E-5
assumpt : 3.6740843E-5
up : 3.6740841E-4
written : 4.898779E-5
sector : 2.9392674E-4
us : 6.613352E-4
usual : 1.9595116E-4
solut : 3.6740843E-5
flavor : 4.898779E-5
substitut : 6.1234736E-5
brake : 3.6740843E-5
chancellor : 6.368413E-4
taiwan : 6.1234736E-5
opt : 4.898779E-5
recess : 6.1234736E-5
extract : 4.898779E-5
brazilian : 3.6740843E-5
hint : 1.4696337E-4
know : 9.797558E-5
bolster : 6.1234736E-5
foncier : 4.898779E-5
region : 1.2246947E-4
support : 9.0627413E-4
sinc : 9.185211E-4
higher : 9.185211E-4
punt : 4.898779E-5
drop : 0.0010899784
brazil : 2.0819811E-4
idea : 8.572863E-5
wa : 6.1234736E-5
wien : 2.4493895E-5
life : 8.572863E-5
we : 6.2459434E-4
unchang : 0.0012369417
brett : 4.898779E-5
wellington : 6.1234736E-5
gonzalez : 2.4493895E-5
flush : 3.6740843E-5
gap : 1.1022253E-4
inventori : 3.1842064E-4
recept : 4.898779E-5
downpay : 3.6740843E-5
blip : 6.1234736E-5
choic : 7.3481686E-5
normal : 1.1022253E-4
pittsburgh : 4.898779E-5
socialist : 2.4493895E-5
gradual : 1.3471642E-4
dwindl : 3.6740843E-5
slight : 6.1234736E-5
previous : 2.0819811E-4
wide : 1.8370421E-4
newspap : 4.898779E-5
accumul : 2.4493895E-5
recognis : 1.2246947E-4
weaker : 9.797558E-5
distribut : 4.898779E-5
weaken : 1.2246947E-4
norman : 3.6740843E-5
stone : 7.3481686E-5
succeed : 3.6740843E-5
accru : 3.6740843E-5
sourc : 8.205455E-4
individu : 2.4493895E-5
held : 2.0819811E-4
fortnightli : 3.6740843E-5
ampl : 3.6740843E-5
reach : 1.4696337E-4
sach : 2.4493895E-5
seminar : 3.6740843E-5
justifi : 8.572863E-5
react : 1.1022253E-4
none : 6.1234736E-5
type : 6.1234736E-5
april : 0.0022166974
realis : 3.6740843E-5
beyond : 9.797558E-5
balnc : 3.6740843E-5
problem : 5.388657E-4
road : 2.4493895E-5
review : 1.1022253E-4
yo : 3.6740843E-5
tighter : 3.6740843E-5
weather : 1.2246947E-4
vithoon : 2.4493895E-5
routin : 4.898779E-5
tighten : 1.7145726E-4
pietsch : 2.4493895E-5
phase : 3.6740843E-5
comm : 2.4493895E-5
goal : 1.1022253E-4
method : 2.4493895E-5
contract : 0.0011267192
sluggish : 3.6740843E-5
come : 0.0010042497
credibl : 1.5921032E-4
melbourn : 3.6740843E-5
banker : 9.675088E-4
push : 4.0414926E-4
exist : 6.1234736E-5
intact : 4.898779E-5
drexel : 4.898779E-5
gdp : 1.8370421E-4
purs : 3.6740843E-5
ongo : 2.4493895E-5
orgnaiz : 4.898779E-5
seiz : 2.4493895E-5
opportun : 6.1234736E-5
exact : 2.4493895E-5
lift : 1.4696337E-4
feder : 0.0015921032
ecuador : 6.1234736E-5
regist : 6.1234736E-5
deconomi : 2.4493895E-5
henc : 3.6740843E-5
flag : 2.4493895E-5
amro : 2.4493895E-5
south : 2.4493895E-5
testimoni : 4.898779E-5
north : 3.6740843E-5
copi : 6.1234736E-5
our : 2.4493895E-5
weak : 3.9190231E-4
out : 1.2246947E-4
impress : 4.898779E-5
noon : 3.6740843E-5
megabank : 1.3471642E-4
climat : 2.4493895E-5
induc : 2.4493895E-5
flat : 8.572863E-5
get : 3.061737E-4
peseta : 2.6943284E-4
stabilis : 2.3269201E-4
salli : 2.4493895E-5
statist : 1.5921032E-4
packag : 4.1639621E-4
place : 1.2246947E-4
power : 6.1234736E-5
leav : 4.1639621E-4
alwai : 4.898779E-5
festiv : 6.1234736E-5
regular : 1.5921032E-4
bankca : 2.4493895E-5
firmer : 1.1022253E-4
danish : 3.6740843E-5
obrinski : 6.1234736E-5
reviv : 1.5921032E-4
sell : 2.3269201E-4
pickup : 9.797558E-5
suggest : 7.470638E-4
suspect : 1.1022253E-4
observ : 4.898779E-5
lead : 4.898779E-4
torino : 2.4493895E-5
expect : 0.0038210475
help : 0.0024738833
assess : 1.2246947E-4
repurchas : 0.0021554627
self : 2.4493895E-5
revis : 0.0010287436
asset : 4.2864316E-4
minimum : 2.3269201E-4
chemic : 1.1022253E-4
date : 2.3269201E-4
dress : 2.4493895E-5
reiter : 6.1234736E-5
tuesdai : 2.816798E-4
corp : 4.7763094E-4
data : 6.7358214E-4
sound : 1.2246947E-4
own : 6.1234736E-5
surprisingli : 3.6740843E-5
begun : 1.3471642E-4
separ : 4.898779E-5
argentina : 4.898779E-5
zentralsparkass : 2.4493895E-5
should : 2.4493895E-5
econom : 7.8380463E-4
replac : 2.6943284E-4
versa : 2.4493895E-5
tap : 1.2246947E-4
sens : 1.1022253E-4
stopout : 2.4493895E-5
upcom : 2.4493895E-5
indirect : 1.8370421E-4
reconsid : 3.6740843E-5
like : 0.0019840056
onli : 3.6740843E-5
unpleas : 2.4493895E-5
brace : 4.898779E-5
tax : 9.0627413E-4
sent : 6.1234736E-5
interim : 7.3481686E-5
council : 2.3269201E-4
tandem : 7.3481686E-5
reaffirm : 6.1234736E-5
safe : 2.4493895E-5
ground : 1.9595116E-4
populair : 2.4493895E-5
dash : 3.6740843E-5
temperatur : 2.4493895E-5
here : 7.3481686E-5
note : 0.0023636608
week : 0.0041027274
line : 6.2459434E-4
noth : 7.3481686E-5
deliv : 3.6740843E-5
link : 1.4696337E-4
counterparti : 1.5921032E-4
scale : 3.6740843E-5
becom : 1.9595116E-4
provis : 8.572863E-5
tune : 2.4493895E-5
robin : 3.6740843E-5
can : 7.3481686E-5
cap : 8.572863E-5
satisfi : 9.797558E-5
car : 3.6740843E-5
tcf : 3.6740843E-5
februari : 0.0017513135
recoveri : 1.5921032E-4
said : 0.03467111
provid : 9.0627413E-4
realli : 2.2044506E-4
emin : 2.4493895E-5
cost : 5.5111264E-4
will : 1.8370421E-4
readi : 1.3471642E-4
passeng : 2.4493895E-5
match : 2.3269201E-4
intens : 7.3481686E-5
leed : 6.1234736E-5
harold : 2.4493895E-5
stanlei : 6.1234736E-5
versu : 6.1234736E-5
follow : 0.0019595115
categori : 1.3471642E-4
intent : 1.5921032E-4
temperton : 8.572863E-5
york : 8.8178023E-4
wedd : 2.4493895E-5
categor : 3.6740843E-5
delhi : 2.4493895E-5
brussel : 3.6740843E-5
intend : 1.8370421E-4
emir : 2.4493895E-5
snap : 2.4493895E-5
