3.504775256286691E-4
minist : 1.4224752E-4
told : 1.4224752E-4
bring : 1.8966335E-4
ship : 9.4831674E-5
opec : 9.4831674E-5
program : 1.4224752E-4
complet : 1.4224752E-4
ventur : 1.4224752E-4
three : 9.4831674E-5
ban : 2.3707919E-4
multi : 9.4831674E-5
would : 9.4831674E-5
price : 4.2674254E-4
paralyz : 1.8966335E-4
sulfur : 1.4224752E-4
near : 1.4224752E-4
per : 9.4831674E-5
recent : 1.4224752E-4
earthquak : 2.8449504E-4
majeur : 2.8449504E-4
mile : 9.4831674E-5
work : 1.8966335E-4
contract : 9.957326E-4
espinosa : 9.4831674E-5
it : 1.4224752E-4
auster : 1.8966335E-4
conserv : 9.4831674E-5
ministri : 1.4224752E-4
coast : 2.8449504E-4
field : 1.8966335E-4
adopt : 1.4224752E-4
reventador : 9.4831674E-5
grade : 1.8966335E-4
javier : 9.4831674E-5
weekdai : 1.4224752E-4
declar : 9.4831674E-5
indefinit : 9.4831674E-5
ecuador : 2.8449504E-4
regist : 9.4831674E-5
diesel : 1.8966335E-4
strong : 9.4831674E-5
singapor : 1.4224752E-4
cut : 9.4831674E-5
weekend : 1.4224752E-4
least : 9.4831674E-5
increas : 9.4831674E-5
communiqu : 9.4831674E-5
two : 9.4831674E-5
announc : 1.8966335E-4
crude : 9.4831674E-5
foreign : 1.4224752E-4
logist : 1.4224752E-4
deputi : 9.4831674E-5
get : 9.4831674E-5
member : 9.4831674E-5
measur : 2.3707919E-4
after : 9.4831674E-5
volcano : 1.4224752E-4
pump : 9.4831674E-5
holidai : 1.4224752E-4
cetan : 1.4224752E-4
heavi : 1.4224752E-4
mine : 1.4224752E-4
a : 9.4831674E-5
barrel : 2.3707919E-4
avail : 1.4224752E-4
product : 2.8449504E-4
fernando : 9.4831674E-5
km : 9.4831674E-5
pipelin : 9.4831674E-5
intern : 9.4831674E-5
d : 9.4831674E-5
e : 9.4831674E-5
could : 9.4831674E-5
g : 9.4831674E-5
centr : 9.4831674E-5
kill : 1.4224752E-4
naphtha : 9.4831674E-5
co : 1.4224752E-4
march : 2.8449504E-4
quito : 3.3191085E-4
the : 2.3707919E-4
mercal : 9.4831674E-5
expect : 1.8966335E-4
ct : 9.4831677E-4
sale : 4.2674254E-4
agenc : 1.4224752E-4
gallon : 2.3707919E-4
pacif : 9.4831674E-5
thursdai : 1.4224752E-4
quak : 4.2674254E-4
chevron : 9.4831674E-5
interview : 1.8966335E-4
joint : 9.4831674E-5
airlin : 1.4224752E-4
tx : 1.4224752E-4
corp : 1.8966335E-4
fuel : 7.586534E-4
own : 1.4224752E-4
aviat : 9.4831674E-5
forc : 9.4831674E-5
main : 9.4831674E-5
dai : 2.8449504E-4
refin : 1.4224752E-4
countri : 9.4831674E-5
earlier : 9.4831674E-5
post : 3.793267E-4
sever : 9.4831674E-5
limit : 9.4831674E-5
jet : 3.3191085E-4
depart : 9.4831674E-5
petroleum : 1.4224752E-4
export : 9.4831674E-5
alvit : 9.4831674E-5
new : 9.4831674E-5
defens : 2.3707919E-4
todai : 3.3191085E-4
rout : 1.8966335E-4
basin : 9.4831674E-5
rais : 1.8966335E-4
mln : 2.3707919E-4
amazon : 9.4831674E-5
market : 9.4831674E-5
chv : 1.4224752E-4
take : 2.3707919E-4
month : 2.3707919E-4
ocean : 9.4831674E-5
petrol : 1.4224752E-4
shell : 1.4224752E-4
effect : 9.4831674E-5
washington : 1.4224752E-4
texaco : 1.8966335E-4
repair : 9.4831674E-5
line : 2.8449504E-4
part : 1.8966335E-4
link : 9.4831674E-5
scale : 9.4831674E-5
compani : 1.4224752E-4
medium : 2.8449504E-4
point : 9.4831674E-5
peopl : 1.8966335E-4
east : 1.4224752E-4
oil : 4.7415838E-4
award : 3.3191085E-4
houston : 1.8966335E-4
suspens : 1.4224752E-4
statement : 1.4224752E-4
santo : 9.4831674E-5
possibl : 9.4831674E-5
ga : 1.4224752E-4
said : 0.0011379801
inc : 2.8449504E-4
on : 1.4224752E-4
pct : 2.3707919E-4
caltex : 1.8966335E-4
six : 2.3707919E-4
also : 9.4831674E-5
procur : 9.4831674E-5
dlr : 6.1640586E-4
kerosen : 1.8966335E-4
energi : 2.8449504E-4
domest : 9.4831674E-5
york : 9.4831674E-5
televis : 1.8966335E-4
