8.761938140716727E-5
registr : 6.733683E-4
linse : 9.619547E-5
jul : 9.619547E-5
feb : 4.8097735E-4
sorghum : 9.619547E-5
jun : 1.442932E-4
year : 1.442932E-4
prev : 4.328796E-4
show : 2.4048868E-4
air : 9.619547E-5
tonn : 9.619547E-5
sunflowerse : 1.442932E-4
nil : 0.0010100524
total : 7.695638E-4
oil : 1.442932E-4
mai : 2.4048868E-4
februari : 1.442932E-4
bracket : 2.885864E-4
wheat : 1.442932E-4
grain : 1.442932E-4
export : 1.442932E-4
mar : 3.847819E-4
soybean : 1.9239094E-4
product : 1.442932E-4
bread : 9.619547E-5
apr : 3.847819E-4
shipment : 9.619547E-5
argentin : 1.442932E-4
grainoi : 9.619547E-5
sunoil : 9.619547E-5
linoil : 9.619547E-5
bueno : 9.619547E-5
oilse : 2.4048868E-4
veget : 9.619547E-5
also : 9.619547E-5
subproduct : 3.847819E-4
follow : 2.885864E-4
march : 1.442932E-4
figur : 9.619547E-5
the : 9.619547E-5
month : 9.619547E-5
futur : 9.619547E-5
maiz : 9.619547E-5
were : 2.885864E-4
detail : 9.619547E-5
board : 1.442932E-4
crop : 9.619547E-5
thousand : 1.442932E-4
