7.009550512573382E-4
extens : 1.3714285E-4
bad : 1.8285714E-4
disclos : 2.742857E-4
year : 3.2E-4
govern : 9.142857E-5
nation : 9.142857E-5
foreclosur : 3.6571428E-4
nil : 5.0285715E-4
offer : 5.0285715E-4
firm : 7.3142856E-4
bank : 6.857143E-4
palladium : 4.5714286E-4
near : 1.3714285E-4
delectricit : 1.3714285E-4
state : 1.3714285E-4
worker : 9.142857E-5
recent : 9.142857E-5
ad : 1.3714285E-4
august : 2.2857143E-4
pnb : 3.2E-4
outokumpu : 1.3714285E-4
secur : 1.3714285E-4
demand : 2.2857143E-4
ounc : 5.485714E-4
harjavalta : 1.3714285E-4
accept : 9.142857E-5
extend : 1.3714285E-4
alcad : 1.8285714E-4
valdosta : 9.142857E-5
includ : 1.3714285E-4
plant : 2.2857143E-4
grade : 3.2E-4
deposit : 5.0285715E-4
juli : 1.3714285E-4
creditor : 2.742857E-4
except : 9.142857E-5
detail : 9.142857E-5
refineri : 3.2E-4
penn : 1.3714285E-4
southern : 9.142857E-5
deal : 1.8285714E-4
cut : 1.8285714E-4
least : 1.3714285E-4
monthli : 9.142857E-5
two : 2.2857143E-4
seek : 1.3714285E-4
tsvetmetpromexport : 2.2857143E-4
moment : 9.142857E-5
result : 4.5714286E-4
gold : 1.3714285E-4
sec : 1.3714285E-4
mint : 2.2857143E-4
vancouv : 1.3714285E-4
current : 1.3714285E-4
found : 5.0285715E-4
civil : 9.142857E-5
franc : 9.142857E-5
larg : 1.3714285E-4
copper : 7.3142856E-4
term : 1.8285714E-4
industri : 2.2857143E-4
surfac : 1.3714285E-4
anoth : 9.142857E-5
close : 1.8285714E-4
advantag : 9.142857E-5
latest : 9.142857E-5
stagnant : 9.142857E-5
mine : 6.4E-4
calendar : 1.8285714E-4
a : 1.3714285E-4
c : 9.142857E-5
set : 1.8285714E-4
incorrect : 2.742857E-4
f : 9.142857E-5
g : 1.3714285E-4
maker : 2.742857E-4
staff : 2.2857143E-4
j : 1.3714285E-4
appeal : 1.3714285E-4
co : 1.3714285E-4
m : 9.142857E-5
march : 5.942857E-4
soviet : 2.742857E-4
figur : 2.2857143E-4
the : 6.4E-4
reuter : 1.3714285E-4
r : 1.3714285E-4
sale : 1.3714285E-4
face : 9.142857E-5
s : 9.142857E-5
u : 2.742857E-4
w : 9.142857E-5
ask : 2.2857143E-4
y : 9.142857E-5
oper : 4.5714286E-4
to : 9.142857E-5
salari : 9.142857E-5
open : 2.2857143E-4
bulletin : 9.142857E-5
closur : 2.2857143E-4
quarter : 9.142857E-5
standard : 2.742857E-4
agent : 2.742857E-4
london : 1.3714285E-4
monei : 1.8285714E-4
sumitomo : 2.742857E-4
project : 9.142857E-5
nicel : 1.3714285E-4
rouyn : 1.3714285E-4
valentchit : 1.8285714E-4
bracket : 2.742857E-4
talk : 3.6571428E-4
marinduqu : 9.142857E-5
us : 1.3714285E-4
add : 9.142857E-5
area : 1.8285714E-4
difficulti : 2.742857E-4
initi : 3.6571428E-4
last : 1.3714285E-4
marathon : 9.142857E-5
dure : 9.142857E-5
develop : 9.142857E-5
check : 1.8285714E-4
repli : 9.142857E-5
list : 9.142857E-5
mln : 1.8285714E-4
take : 1.8285714E-4
wire : 9.142857E-5
month : 4.1142857E-4
pekka : 9.142857E-5
wari : 1.3714285E-4
washington : 9.142857E-5
debt : 2.2857143E-4
sinc : 1.3714285E-4
cie : 9.142857E-5
compar : 1.3714285E-4
higher : 1.3714285E-4
drop : 1.3714285E-4
alton : 9.142857E-5
indic : 1.3714285E-4
loan : 2.2857143E-4
delai : 2.2857143E-4
submit : 1.3714285E-4
lawsuit : 1.3714285E-4
for : 9.142857E-5
compani : 2.742857E-4
we : 1.3714285E-4
burden : 1.3714285E-4
central : 1.8285714E-4
determin : 1.3714285E-4
capac : 1.3714285E-4
ga : 9.142857E-5
end : 9.142857E-5
cathod : 2.2857143E-4
briquett : 1.8285714E-4
wai : 9.142857E-5
presid : 9.142857E-5
pct : 2.2857143E-4
nickel : 0.0015085714
six : 9.142857E-5
manufactur : 9.142857E-5
newspap : 1.8285714E-4
exposur : 1.8285714E-4
start : 9.142857E-5
yet : 1.3714285E-4
dlr : 1.8285714E-4
troi : 9.142857E-5
estim : 1.3714285E-4
hole : 1.3714285E-4
rehabilit : 1.3714285E-4
tokyo : 9.142857E-5
finnish : 9.142857E-5
deliveri : 1.8285714E-4
philippin : 4.1142857E-4
although : 2.2857143E-4
comment : 2.742857E-4
financi : 9.142857E-5
time : 2.742857E-4
rise : 9.142857E-5
he : 1.8285714E-4
base : 2.2857143E-4
pocket : 9.142857E-5
sourc : 1.3714285E-4
minist : 1.8285714E-4
select : 1.3714285E-4
told : 9.142857E-5
lme : 1.3714285E-4
properti : 2.2857143E-4
hr : 1.3714285E-4
program : 4.1142857E-4
preliminari : 9.142857E-5
three : 1.8285714E-4
approach : 1.3714285E-4
april : 2.742857E-4
output : 5.942857E-4
slightli : 9.142857E-5
price : 4.1142857E-4
foreclos : 1.8285714E-4
struck : 9.142857E-5
payment : 3.2E-4
zinc : 1.3714285E-4
order : 1.3714285E-4
applic : 1.3714285E-4
period : 3.2E-4
nonoc : 9.142857E-5
method : 1.8285714E-4
in : 1.3714285E-4
peso : 5.485714E-4
metal : 5.942857E-4
nmic : 0.0010971428
it : 4.1142857E-4
banker : 1.3714285E-4
peripheri : 3.2E-4
manag : 1.8285714E-4
stainless : 9.142857E-5
privatis : 9.142857E-5
purchas : 2.742857E-4
studi : 1.3714285E-4
consid : 9.142857E-5
reduct : 1.3714285E-4
field : 1.8285714E-4
light : 9.142857E-5
silver : 2.742857E-4
issu : 9.142857E-5
engin : 1.8285714E-4
steel : 9.142857E-5
valu : 4.1142857E-4
januari : 2.742857E-4
ail : 9.142857E-5
technigen : 2.2857143E-4
increas : 9.142857E-5
plate : 9.142857E-5
tonn : 9.142857E-4
summer : 3.2E-4
labour : 9.142857E-5
foreign : 9.142857E-5
rock : 3.2E-4
deputi : 9.142857E-5
file : 1.8285714E-4
fall : 1.3714285E-4
mai : 9.142857E-5
low : 9.142857E-5
commiss : 9.142857E-5
place : 1.3714285E-4
protect : 1.8285714E-4
holidai : 1.3714285E-4
finland : 1.3714285E-4
avail : 1.3714285E-4
product : 2.2857143E-4
railroad : 9.142857E-5
rescu : 9.142857E-5
question : 1.3714285E-4
more : 2.2857143E-4
bought : 9.142857E-5
could : 9.142857E-5
sulphid : 1.3714285E-4
sell : 9.142857E-5
quebec : 1.3714285E-4
lead : 2.2857143E-4
noranda : 1.3714285E-4
expect : 1.3714285E-4
help : 2.2857143E-4
lb : 2.2857143E-4
storeag : 9.142857E-5
report : 9.142857E-5
aluminium : 1.3714285E-4
asset : 1.8285714E-4
minimum : 9.142857E-5
first : 1.3714285E-4
mainli : 1.3714285E-4
chemic : 9.142857E-5
small : 1.3714285E-4
feet : 3.2E-4
aguilar : 1.8285714E-4
corp : 4.5714286E-4
receiv : 9.142857E-5
own : 1.3714285E-4
section : 2.2857143E-4
dai : 3.6571428E-4
manila : 1.3714285E-4
correspond : 9.142857E-5
platinum : 5.942857E-4
high : 1.3714285E-4
earlier : 1.3714285E-4
major : 9.142857E-5
zone : 1.3714285E-4
find : 5.942857E-4
whether : 1.3714285E-4
enrich : 2.2857143E-4
credit : 9.142857E-5
purra : 9.142857E-5
oblig : 2.742857E-4
group : 9.142857E-5
all : 1.3714285E-4
like : 1.3714285E-4
receivership : 1.8285714E-4
helsinki : 9.142857E-5
onli : 1.3714285E-4
ill : 2.742857E-4
saft : 2.2857143E-4
embassi : 9.142857E-5
rais : 1.8285714E-4
solicit : 1.3714285E-4
seriou : 1.3714285E-4
market : 2.742857E-4
unit : 4.1142857E-4
dbp : 3.6571428E-4
transfer : 9.142857E-5
edt : 1.8285714E-4
keep : 1.3714285E-4
cadmium : 9.142857E-5
cumul : 9.142857E-5
produc : 4.1142857E-4
batteri : 9.142857E-5
job : 1.8285714E-4
exchang : 1.3714285E-4
turnov : 4.1142857E-4
arthur : 9.142857E-5
largest : 9.142857E-5
week : 3.2E-4
busi : 1.3714285E-4
around : 1.3714285E-4
general : 9.142857E-5
total : 9.142857E-5
east : 9.142857E-5
award : 1.3714285E-4
billion : 2.2857143E-4
extra : 9.142857E-5
suspens : 1.8285714E-4
sai : 9.142857E-5
said : 0.0036571429
ltd : 1.3714285E-4
inc : 2.742857E-4
on : 2.742857E-4
electrolyt : 1.3714285E-4
move : 1.3714285E-4
cost : 3.2E-4
oy : 9.142857E-5
also : 1.3714285E-4
follow : 9.142857E-5
drill : 2.2857143E-4
citicorp : 2.742857E-4
highli : 1.3714285E-4
emploi : 1.3714285E-4
situat : 1.3714285E-4
investor : 1.3714285E-4
pc : 9.142857E-5
trade : 1.8285714E-4
equip : 9.142857E-5
round : 9.142857E-5
due : 3.2E-4
mean : 1.3714285E-4
olin : 9.142857E-5
offici : 2.742857E-4
domest : 9.142857E-5
threat : 1.3714285E-4
intend : 1.3714285E-4
whichev : 1.8285714E-4
