7.009550512573382E-4
reason : 1.7887488E-4
cornsor : 1.3415616E-4
nation : 1.3415616E-4
govern : 5.3662463E-4
year : 4.919059E-4
shift : 2.235936E-4
defici : 1.3415616E-4
led : 1.3415616E-4
bal : 1.3415616E-4
without : 1.7887488E-4
cover : 8.943744E-5
offer : 1.3415616E-4
denver : 6.707808E-4
reflect : 8.943744E-5
amarlo : 1.3415616E-4
would : 8.943744E-5
farm : 1.7887488E-4
volum : 5.3662463E-4
stick : 2.6831232E-4
chicago : 0.0010285305
recent : 8.943744E-5
yesterdai : 2.235936E-4
sure : 8.943744E-5
ad : 2.6831232E-4
grow : 8.943744E-5
circumst : 2.6831232E-4
tex : 1.3415616E-4
past : 3.1303102E-4
gener : 8.943744E-5
want : 1.3415616E-4
stabil : 1.3415616E-4
elig : 3.5774976E-4
redempt : 1.3415616E-4
an : 8.943744E-5
conserv : 8.943744E-5
benefit : 6.2606204E-4
extend : 1.3415616E-4
lyng : 8.943744E-5
includ : 8.943744E-5
kansa : 1.7887488E-4
grade : 8.943744E-5
plant : 0.0014757178
juli : 8.943744E-5
must : 8.943744E-5
handl : 1.3415616E-4
grower : 8.943744E-5
suppli : 1.3415616E-4
iowa : 1.3415616E-4
deal : 1.7887488E-4
secretari : 1.3415616E-4
ahead : 8.943744E-5
yellow : 8.943744E-5
corpor : 8.943744E-5
two : 2.235936E-4
dollar : 8.943744E-5
announc : 8.943744E-5
soyb : 1.7887488E-4
result : 1.7887488E-4
current : 1.3415616E-4
releas : 3.1303102E-4
peter : 8.943744E-5
excess : 1.7887488E-4
taken : 1.3415616E-4
wheat : 8.4965565E-4
hand : 2.235936E-4
st : 1.3415616E-4
a : 8.943744E-5
think : 2.235936E-4
though : 1.3415616E-4
d : 8.943744E-5
i : 8.943744E-5
abl : 8.943744E-5
tradit : 8.943744E-5
l : 5.3662463E-4
telephon : 8.943744E-5
n : 2.6831232E-4
march : 1.7887488E-4
figur : 1.3415616E-4
the : 3.1303102E-4
call : 9.838118E-4
asc : 1.7887488E-4
halt : 8.943744E-5
sale : 1.3415616E-4
u : 4.0246846E-4
v : 0.0010732493
x : 4.0246846E-4
ask : 1.3415616E-4
y : 3.1303102E-4
exce : 1.3415616E-4
to : 1.3415616E-4
under : 8.943744E-5
mani : 8.943744E-5
thing : 8.943744E-5
tripl : 1.3415616E-4
stai : 8.943744E-5
ratio : 1.3415616E-4
cwt : 5.8134337E-4
sorghum : 4.919059E-4
reserv : 5.8134337E-4
offic : 1.3415616E-4
duluth : 6.707808E-4
dl : 8.943744E-5
cinci : 3.5774976E-4
down : 8.943744E-5
hold : 2.235936E-4
spring : 1.3415616E-4
acr : 8.4965565E-4
sww : 3.1303102E-4
amarillo : 1.3415616E-4
late : 1.3415616E-4
sever : 8.943744E-5
rel : 8.943744E-5
portland : 1.3415616E-4
five : 8.943744E-5
us : 2.6831232E-4
richard : 8.943744E-5
given : 1.3415616E-4
wheatb : 1.3415616E-4
last : 1.3415616E-4
dismal : 8.943744E-5
reduc : 1.3415616E-4
hrw : 3.1303102E-4
complain : 1.3415616E-4
look : 8.943744E-5
mln : 2.235936E-4
vi : 3.1303102E-4
month : 4.0246846E-4
lubbock : 3.5774976E-4
port : 1.3415616E-4
activ : 1.7887488E-4
washington : 2.6831232E-4
region : 1.7887488E-4
support : 8.943744E-5
memphi : 0.0011626867
crop : 0.0012521241
next : 8.943744E-5
allow : 1.7887488E-4
baltimor : 1.3415616E-4
loan : 0.0012521241
inadvertantli : 8.943744E-5
rather : 1.3415616E-4
treasuri : 8.943744E-5
seattl : 5.8134337E-4
attract : 1.7887488E-4
breakdown : 1.3415616E-4
for : 1.7887488E-4
commerci : 8.943744E-5
back : 1.3415616E-4
steadi : 1.3415616E-4
avg : 3.1303102E-4
rate : 7.154995E-4
interest : 2.235936E-4
gulf : 0.0013862803
sacrif : 8.943744E-5
commod : 2.6831232E-4
pct : 5.8134337E-4
normal : 8.943744E-5
oat : 0.0026384045
six : 8.943744E-5
dlr : 5.8134337E-4
howev : 8.943744E-5
rice : 2.235936E-4
bond : 8.943744E-5
estim : 1.3415616E-4
with : 1.3415616E-4
certif : 8.943744E-5
evnsvll : 2.235936E-4
chang : 8.943744E-5
permit : 1.3415616E-4
farmer : 0.00174403
short : 8.943744E-5
analyst : 8.943744E-5
exempt : 1.7887488E-4
basi : 8.943744E-5
prompt : 1.3415616E-4
outlook : 1.7887488E-4
toledo : 9.390931E-4
rye : 1.7887488E-4
base : 4.471872E-4
congress : 1.3415616E-4
reach : 1.7887488E-4
ago : 6.707808E-4
hr : 3.5774976E-4
program : 4.919059E-4
senat : 8.943744E-5
preliminari : 8.943744E-5
three : 1.3415616E-4
april : 1.7887488E-4
put : 8.943744E-5
agricultur : 3.5774976E-4
price : 8.943744E-4
action : 2.6831232E-4
payment : 5.8134337E-4
enter : 2.235936E-4
per : 3.5774976E-4
plan : 1.3415616E-4
ii : 1.3415616E-4
profession : 1.7887488E-4
oct : 8.943744E-5
give : 8.943744E-5
termin : 8.943744E-5
lose : 8.943744E-5
contract : 6.2606204E-4
mpl : 4.0246846E-4
index : 8.943744E-5
iv : 8.943744E-4
declin : 8.943744E-5
phil : 4.0246846E-4
fail : 2.235936E-4
purchas : 1.3415616E-4
reduct : 8.943744E-5
field : 8.943744E-5
even : 8.943744E-5
subsidi : 2.235936E-4
futur : 5.3662463E-4
lift : 4.0246846E-4
gave : 1.3415616E-4
aid : 1.7887488E-4
allevi : 1.3415616E-4
valu : 1.7887488E-4
januari : 8.943744E-5
south : 2.235936E-4
iii : 1.3415616E-4
increas : 3.5774976E-4
restrict : 1.3415616E-4
requir : 2.6831232E-4
believ : 8.943744E-5
lot : 1.3415616E-4
peoria : 0.0012521241
lou : 1.3415616E-4
deputi : 8.943744E-5
climat : 8.943744E-5
file : 1.7887488E-4
mai : 2.6831232E-4
low : 2.6831232E-4
too : 8.943744E-5
decreas : 1.7887488E-4
natl : 3.1303102E-4
kc : 4.919059E-4
member : 1.3415616E-4
lubbck : 3.1303102E-4
grown : 1.3415616E-4
protect : 1.7887488E-4
place : 8.943744E-5
penal : 8.943744E-5
minneapoli : 1.7887488E-4
soybean : 0.0011626867
avail : 2.235936E-4
product : 2.235936E-4
loui : 2.6831232E-4
myer : 1.3415616E-4
appropri : 8.943744E-5
bushel : 7.154995E-4
lead : 8.943744E-5
help : 8.943744E-5
expect : 3.1303102E-4
citi : 2.6831232E-4
la : 4.919059E-4
slip : 1.3415616E-4
lb : 8.943744E-5
report : 2.235936E-4
probabl : 1.7887488E-4
rose : 1.7887488E-4
averag : 1.3415616E-4
board : 2.235936E-4
mainli : 8.943744E-5
feb : 2.235936E-4
lo : 3.5774976E-4
gambl : 1.3415616E-4
receiv : 1.3415616E-4
almost : 8.943744E-5
corn : 0.0012521241
norf : 7.154995E-4
own : 1.7887488E-4
sign : 1.7887488E-4
cotton : 4.0246846E-4
dai : 3.1303102E-4
that : 8.943744E-5
pik : 8.943744E-5
major : 8.943744E-5
acreag : 4.471872E-4
certifi : 3.5774976E-4
outlai : 1.7887488E-4
limit : 1.7887488E-4
from : 1.3415616E-4
grain : 6.707808E-4
depart : 1.7887488E-4
stock : 1.3415616E-4
credit : 8.943744E-5
new : 1.7887488E-4
upcom : 8.943744E-5
comparison : 8.943744E-5
evansvil : 7.6021824E-4
sorg : 1.3415616E-4
voic : 1.3415616E-4
level : 4.919059E-4
like : 4.0246846E-4
onli : 3.1303102E-4
ill : 1.3415616E-4
done : 1.3415616E-4
usda : 9.838118E-4
establish : 1.3415616E-4
market : 3.5774976E-4
guarante : 2.6831232E-4
servic : 8.943744E-5
unit : 8.943744E-5
twice : 2.6831232E-4
effect : 1.7887488E-4
exchang : 1.3415616E-4
produc : 8.943744E-5
here : 8.943744E-5
largest : 8.943744E-5
week : 1.3415616E-4
busi : 8.943744E-5
continu : 8.943744E-5
fridai : 4.0246846E-4
matur : 8.943744E-5
oil : 1.3415616E-4
calcul : 8.943744E-5
billion : 8.943744E-5
februari : 1.7887488E-4
repeat : 8.943744E-5
cincinnati : 7.6021824E-4
land : 8.943744E-5
barlei : 4.0246846E-4
relief : 8.943744E-5
track : 8.943744E-4
said : 0.00210178
make : 8.943744E-5
hear : 8.943744E-5
on : 3.1303102E-4
durum : 2.235936E-4
will : 1.3415616E-4
feedgrain : 1.7887488E-4
cross : 2.6831232E-4
complianc : 3.5774976E-4
trader : 3.1303102E-4
also : 8.943744E-5
follow : 1.7887488E-4
histor : 8.943744E-5
brly : 1.3415616E-4
trade : 3.1303102E-4
stockton : 4.919059E-4
cbt : 1.7887488E-4
previou : 1.3415616E-4
due : 2.235936E-4
mean : 8.943744E-5
offici : 1.7887488E-4
srw : 3.1303102E-4
easier : 1.3415616E-4
