2.628581442215018E-4
year : 1.4023279E-4
govern : 9.3488525E-5
japan : 1.8697705E-4
belvieu : 9.3488525E-5
ship : 9.3488525E-5
complet : 1.4023279E-4
dutch : 9.3488525E-5
firm : 1.4023279E-4
reflect : 9.3488525E-5
cargo : 1.8697705E-4
tet : 1.4023279E-4
past : 9.3488525E-5
demand : 1.8697705E-4
thei : 9.3488525E-5
saudi : 9.3488525E-5
buyer : 9.3488525E-5
labor : 9.3488525E-5
as : 9.3488525E-5
rd : 9.3488525E-5
size : 1.8697705E-4
includ : 1.4023279E-4
left : 9.3488525E-5
except : 9.3488525E-5
must : 1.8697705E-4
cftc : 3.2720983E-4
suppli : 1.8697705E-4
strong : 9.3488525E-5
access : 1.8697705E-4
two : 1.4023279E-4
sea : 2.3372131E-4
bp : 9.3488525E-5
announc : 1.4023279E-4
by : 9.3488525E-5
mix : 4.6744262E-4
calendar : 9.3488525E-5
fluctuat : 1.8697705E-4
st : 9.3488525E-5
pipelin : 1.8697705E-4
deadlin : 1.4023279E-4
intern : 1.4023279E-4
c : 1.8697705E-4
d : 9.3488525E-5
spottp : 9.3488525E-5
f : 3.2720983E-4
shellp : 9.3488525E-5
march : 1.4023279E-4
figur : 3.739541E-4
o : 9.3488525E-5
the : 6.076754E-4
ct : 1.4023279E-4
swing : 2.8046558E-4
nymex : 9.3488525E-5
s : 9.3488525E-5
u : 1.4023279E-4
gallon : 5.1418686E-4
bppost : 9.3488525E-5
maximum : 9.3488525E-5
to : 1.4023279E-4
seller : 1.4023279E-4
specif : 1.4023279E-4
later : 1.4023279E-4
post : 1.4023279E-4
prior : 1.8697705E-4
algerian : 9.3488525E-5
pai : 1.4023279E-4
five : 1.8697705E-4
eastern : 9.3488525E-5
last : 2.8046558E-4
gasolin : 1.8697705E-4
check : 1.8697705E-4
thin : 9.3488525E-5
take : 9.3488525E-5
month : 8.88141E-4
shell : 1.4023279E-4
consum : 1.4023279E-4
fob : 1.8697705E-4
electr : 1.4023279E-4
receipt : 1.8697705E-4
washington : 9.3488525E-5
higher : 9.3488525E-5
drop : 1.4023279E-4
cif : 9.3488525E-5
submit : 2.8046558E-4
book : 9.3488525E-5
show : 2.8046558E-4
unchang : 3.739541E-4
alert : 1.4023279E-4
regulatori : 9.3488525E-5
gulf : 3.2720983E-4
end : 1.8697705E-4
ga : 2.3372131E-4
mercantil : 9.3488525E-5
mont : 1.4023279E-4
commod : 9.3488525E-5
pct : 0.0013088393
sold : 1.4023279E-4
previous : 1.8697705E-4
wide : 9.3488525E-5
dlr : 0.0010283737
howev : 2.3372131E-4
earli : 1.8697705E-4
energi : 2.3372131E-4
resembl : 1.8697705E-4
deliveri : 5.6093116E-4
beliview : 2.8046558E-4
well : 9.3488525E-5
basi : 1.4023279E-4
rise : 3.2720983E-4
base : 1.4023279E-4
spokeswoman : 5.1418686E-4
gsp : 1.8697705E-4
ago : 1.4023279E-4
april : 1.8697705E-4
three : 9.3488525E-5
put : 1.4023279E-4
price : 0.0012620951
far : 9.3488525E-5
payment : 1.4023279E-4
decemb : 1.8697705E-4
per : 1.4023279E-4
propos : 9.3488525E-5
method : 2.8046558E-4
in : 3.739541E-4
contract : 7.0116395E-4
termin : 1.8697705E-4
inter : 9.3488525E-5
index : 3.739541E-4
preced : 1.4023279E-4
texa : 2.8046558E-4
declin : 1.4023279E-4
push : 9.3488525E-5
futur : 2.3372131E-4
spot : 1.4023279E-4
partial : 9.3488525E-5
feder : 9.3488525E-5
algeria : 9.3488525E-5
natur : 1.4023279E-4
januari : 3.739541E-4
north : 2.3372131E-4
direct : 9.3488525E-5
increas : 1.8697705E-4
pattern : 2.8046558E-4
propan : 8.88141E-4
tonn : 1.8697705E-4
arabia : 9.3488525E-5
noon : 1.8697705E-4
premium : 2.3372131E-4
eas : 1.8697705E-4
commiss : 9.3488525E-5
alwai : 9.3488525E-5
barrel : 1.8697705E-4
avail : 9.3488525E-5
lpg : 1.4023279E-4
within : 1.8697705E-4
transmiss : 9.3488525E-5
consumpt : 9.3488525E-5
sell : 9.3488525E-5
fraction : 9.3488525E-5
sharp : 9.3488525E-5
mediterranean : 2.8046558E-4
expect : 1.4023279E-4
cannot : 1.4023279E-4
rose : 4.2069837E-4
minimum : 9.3488525E-5
royal : 9.3488525E-5
board : 1.4023279E-4
small : 1.4023279E-4
cent : 9.3488525E-5
fuel : 9.3488525E-5
subject : 1.4023279E-4
est : 9.3488525E-5
british : 9.3488525E-5
dai : 4.6744262E-4
pumpov : 1.4023279E-4
second : 9.3488525E-5
high : 1.4023279E-4
earlier : 1.8697705E-4
major : 9.3488525E-5
certifi : 9.3488525E-5
limit : 1.8697705E-4
depart : 1.4023279E-4
petroleum : 1.4023279E-4
group : 9.3488525E-5
new : 1.8697705E-4
offset : 1.8697705E-4
level : 4.2069837E-4
daili : 9.3488525E-5
rais : 1.4023279E-4
done : 9.3488525E-5
market : 2.3372131E-4
unit : 1.4023279E-4
transfer : 2.8046558E-4
coal : 2.3372131E-4
updat : 1.4023279E-4
nonetheless : 9.3488525E-5
governor : 1.8697705E-4
exchang : 6.5441965E-4
heat : 9.3488525E-5
tenth : 9.3488525E-5
week : 2.8046558E-4
line : 1.8697705E-4
busi : 1.8697705E-4
lavera : 1.4023279E-4
med : 9.3488525E-5
east : 9.3488525E-5
oil : 1.8697705E-4
and : 9.3488525E-5
februari : 4.6744262E-4
said : 0.0020567474
make : 1.8697705E-4
facil : 1.8697705E-4
cost : 2.8046558E-4
bottl : 9.3488525E-5
plc : 9.3488525E-5
accord : 6.076754E-4
overal : 9.3488525E-5
trader : 2.8046558E-4
also : 1.8697705E-4
follow : 2.8046558E-4
categori : 9.3488525E-5
trade : 1.8697705E-4
butan : 3.2720983E-4
york : 1.8697705E-4
offici : 9.3488525E-5
easier : 1.4023279E-4
approv : 1.8697705E-4
storag : 1.4023279E-4
