0.0015771488653290107
extent : 1.7414018E-4
german : 2.1767523E-4
half : 3.4828036E-4
year : 3.4828036E-4
govern : 2.1767523E-4
japanes : 6.094906E-4
plough : 1.3060514E-4
addit : 1.3060514E-4
saidac : 8.707009E-5
dutch : 2.6121028E-4
offer : 1.7414018E-4
suffer : 8.707009E-5
would : 8.707009E-5
fix : 1.3060514E-4
complex : 3.4828036E-4
ten : 8.707009E-5
chicago : 1.3060514E-4
cuba : 8.707009E-5
soft : 8.707009E-5
newslett : 1.7414018E-4
ad : 0.0010883762
anhui : 1.7414018E-4
raw : 1.7414018E-4
elig : 2.6121028E-4
sunflow : 2.1767523E-4
percentag : 1.3060514E-4
saudi : 1.7414018E-4
mill : 8.707009E-5
extend : 8.707009E-5
left : 8.707009E-5
rbd : 1.3060514E-4
plant : 8.707009E-5
juli : 1.7414018E-4
detail : 2.6121028E-4
much : 8.707009E-5
czechoslovakia : 8.707009E-5
strong : 8.707009E-5
affect : 2.1767523E-4
dead : 1.3060514E-4
soil : 8.707009E-5
result : 1.7414018E-4
rape : 2.1767523E-4
rapesunflow : 8.707009E-5
by : 2.6121028E-4
wheat : 0.0030909881
insuffici : 8.707009E-5
a : 1.3060514E-4
c : 2.6121028E-4
set : 8.707009E-5
f : 3.047453E-4
union : 7.836308E-4
co : 8.707009E-5
march : 0.0015672616
soviet : 4.3535046E-4
figur : 5.659556E-4
the : 6.965607E-4
materi : 1.7414018E-4
reuter : 2.1767523E-4
sale : 5.659556E-4
june : 2.1767523E-4
u : 3.918154E-4
y : 8.707009E-5
river : 1.3060514E-4
london : 8.707009E-5
featur : 1.3060514E-4
branpol : 1.3060514E-4
bulgaria : 8.707009E-5
rural : 8.707009E-5
down : 8.707009E-5
good : 8.707009E-5
farmland : 1.3060514E-4
spring : 1.3060514E-4
red : 8.707009E-5
later : 1.3060514E-4
algerian : 8.707009E-5
bracket : 1.7414018E-4
talk : 3.047453E-4
export : 0.0023508924
add : 1.3060514E-4
area : 8.707009E-5
chines : 8.707009E-5
shipment : 0.0013931214
need : 1.3060514E-4
equival : 8.707009E-5
subproduct : 1.3060514E-4
centigrad : 1.3060514E-4
respect : 3.918154E-4
month : 1.3060514E-4
port : 1.7414018E-4
injur : 8.707009E-5
compar : 1.7414018E-4
some : 8.707009E-5
delai : 1.3060514E-4
origin : 1.3060514E-4
breakdown : 3.047453E-4
for : 8.707009E-5
medium : 8.707009E-5
india : 8.707009E-5
content : 8.707009E-5
overnight : 6.530257E-4
load : 5.2242057E-4
retend : 8.707009E-5
rate : 1.3060514E-4
germani : 8.707009E-5
await : 8.707009E-5
end : 3.047453E-4
hard : 1.7414018E-4
pct : 0.001959077
spanish : 1.7414018E-4
six : 2.1767523E-4
veget : 1.7414018E-4
rice : 2.1767523E-4
estim : 2.6121028E-4
china : 9.1423595E-4
agre : 1.3060514E-4
ha : 4.3535046E-4
rainfal : 1.7414018E-4
avoid : 1.3060514E-4
blanket : 8.707009E-5
bid : 3.047453E-4
colza : 3.047453E-4
yangtz : 2.1767523E-4
corea : 8.707009E-5
poland : 2.6121028E-4
canadian : 7.836308E-4
ffcop : 8.707009E-5
degre : 1.7414018E-4
convert : 1.7414018E-4
desir : 1.7414018E-4
pea : 8.707009E-5
soon : 1.3060514E-4
winnipeg : 3.047453E-4
flour : 1.7414018E-4
four : 8.707009E-5
fishoil : 8.707009E-5
decemb : 1.3060514E-4
french : 3.047453E-4
rapidli : 1.3060514E-4
margarin : 8.707009E-5
arid : 8.707009E-5
period : 6.530257E-4
africa : 8.707009E-5
fiber : 1.3060514E-4
in : 3.047453E-4
made : 1.3060514E-4
it : 3.4828036E-4
moistur : 8.707009E-5
purchas : 8.707009E-5
field : 1.3060514E-4
spot : 8.707009E-5
gave : 2.6121028E-4
liaon : 8.707009E-5
other : 8.707009E-5
rotterdam : 8.707009E-5
valu : 1.3060514E-4
undisclos : 8.707009E-5
weekend : 2.6121028E-4
increas : 1.7414018E-4
air : 8.707009E-5
ussr : 8.707009E-5
tonn : 0.008881149
mondai : 8.707009E-5
soymeal : 1.3060514E-4
particularli : 1.7414018E-4
world : 8.707009E-5
mai : 3.4828036E-4
yield : 1.3060514E-4
commiss : 8.707009E-5
sunmeal : 1.3060514E-4
groundnutse : 1.3060514E-4
heavi : 1.3060514E-4
soybean : 4.3535046E-4
tender : 5.659556E-4
variou : 8.707009E-5
avail : 2.1767523E-4
product : 2.1767523E-4
bought : 4.7888551E-4
itali : 3.047453E-4
boat : 8.707009E-5
sharp : 8.707009E-5
prospect : 2.6121028E-4
meanwhil : 2.1767523E-4
report : 3.4828036E-4
rose : 0.0010448411
probabl : 8.707009E-5
cotton : 2.1767523E-4
main : 1.3060514E-4
northern : 8.707009E-5
guangdong : 8.707009E-5
west : 3.047453E-4
sow : 9.1423595E-4
grain : 4.7888551E-4
stock : 2.1767523E-4
belgium : 8.707009E-5
tanzania : 1.3060514E-4
new : 2.6121028E-4
took : 1.7414018E-4
guilder : 2.1767523E-4
comparison : 2.1767523E-4
rapese : 0.0034392686
todai : 3.047453E-4
hubei : 1.3060514E-4
difficult : 2.6121028E-4
dry : 8.707009E-5
less : 8.707009E-5
feed : 1.7414018E-4
unit : 8.707009E-5
alreadi : 8.707009E-5
snow : 3.047453E-4
morocco : 8.707009E-5
huai : 1.3060514E-4
busi : 7.400958E-4
fridai : 8.707009E-5
respons : 1.3060514E-4
total : 1.3060514E-4
oil : 0.0016107967
saidta : 8.707009E-5
hous : 1.3060514E-4
and : 8.707009E-5
barlei : 6.094906E-4
make : 1.7414018E-4
on : 1.3060514E-4
durum : 8.707009E-5
spokesman : 1.3060514E-4
egypt : 8.707009E-5
oilse : 3.918154E-4
hectar : 2.6121028E-4
sri : 1.7414018E-4
soyabean : 2.6121028E-4
previou : 1.3060514E-4
maiz : 3.047453E-4
offici : 8.707009E-5
cebeco : 8.707009E-5
princip : 8.707009E-5
japan : 2.1767523E-4
turkei : 3.4828036E-4
sown : 1.3060514E-4
ship : 6.094906E-4
enhanc : 8.707009E-5
provinci : 8.707009E-5
cover : 3.4828036E-4
nil : 3.918154E-4
compon : 1.3060514E-4
tapioca : 8.707009E-5
damag : 3.918154E-4
alfr : 8.707009E-5
state : 8.707009E-5
cargo : 8.707009E-5
yesterdai : 1.3060514E-4
apr : 1.7414018E-4
bueno : 8.707009E-5
forecast : 8.707009E-5
handelsraad : 8.707009E-5
ministri : 1.3060514E-4
thei : 8.707009E-5
flood : 8.707009E-5
accept : 2.1767523E-4
malt : 1.7414018E-4
includ : 1.7414018E-4
must : 8.707009E-5
peke : 1.3060514E-4
anim : 1.7414018E-4
provinc : 8.707009E-5
cut : 2.1767523E-4
sun : 8.707009E-5
two : 2.1767523E-4
seen : 8.707009E-5
announc : 8.707009E-5
fell : 9.1423595E-4
current : 1.3060514E-4
larg : 8.707009E-5
anoth : 2.1767523E-4
colombia : 1.7414018E-4
latest : 1.7414018E-4
calendar : 1.3060514E-4
storm : 3.918154E-4
oilrap : 8.707009E-5
broker : 8.707009E-5
emerg : 2.1767523E-4
glut : 1.3060514E-4
bui : 4.3535046E-4
counti : 8.707009E-5
dealer : 8.707009E-5
oper : 1.7414018E-4
through : 1.3060514E-4
linse : 1.3060514E-4
sunflowerse : 1.3060514E-4
refin : 8.707009E-5
late : 1.7414018E-4
up : 8.707009E-5
maiea : 8.707009E-5
five : 1.3060514E-4
crusher : 6.094906E-4
actual : 2.1767523E-4
doubl : 1.3060514E-4
flaxse : 8.707009E-5
eastern : 8.707009E-5
last : 3.4828036E-4
holland : 8.707009E-5
weight : 5.2242057E-4
dure : 2.6121028E-4
mln : 0.0015672616
lanka : 3.047453E-4
netherland : 1.3060514E-4
warm : 1.3060514E-4
privat : 8.707009E-5
ocean : 8.707009E-5
concentr : 1.3060514E-4
lash : 1.3060514E-4
sinc : 2.1767523E-4
crop : 3.918154E-4
higher : 2.1767523E-4
drop : 2.1767523E-4
next : 8.707009E-5
arriv : 1.3060514E-4
brazil : 8.707009E-5
import : 8.2716584E-4
yesterda : 8.707009E-5
cornfeedm : 8.707009E-5
show : 4.7888551E-4
swept : 8.707009E-5
cold : 8.707009E-5
unchang : 1.3060514E-4
peopl : 8.707009E-5
central : 1.7414018E-4
nearli : 1.3060514E-4
grainoil : 8.707009E-5
gulf : 1.3060514E-4
commod : 1.3060514E-4
normal : 2.6121028E-4
harvest : 1.3060514E-4
argentin : 1.7414018E-4
start : 1.7414018E-4
toepfer : 8.707009E-5
earli : 8.707009E-5
deliveri : 8.707009E-5
canari : 8.707009E-5
imprt : 8.707009E-5
jilin : 1.3060514E-4
israel : 8.707009E-5
risk : 1.7414018E-4
bonu : 2.1767523E-4
comment : 2.6121028E-4
unusu : 8.707009E-5
basi : 6.094906E-4
rouen : 2.6121028E-4
rise : 4.3535046E-4
bangladesh : 8.707009E-5
mark : 1.3060514E-4
cornglutenfe : 8.707009E-5
sourc : 6.094906E-4
olein : 1.3060514E-4
palm : 1.7414018E-4
biffex : 8.707009E-5
whole : 1.7414018E-4
compris : 1.3060514E-4
program : 8.707009E-5
fair : 8.707009E-5
april : 6.965607E-4
three : 1.3060514E-4
agricultur : 2.1767523E-4
price : 2.1767523E-4
far : 1.7414018E-4
frost : 2.1767523E-4
henan : 1.7414018E-4
fat : 8.707009E-4
greec : 8.707009E-5
weather : 1.3060514E-4
season : 0.0011754462
between : 8.707009E-5
groundnut : 1.3060514E-4
sundai : 1.3060514E-4
still : 1.3060514E-4
work : 1.3060514E-4
iran : 8.707009E-5
destin : 2.1767523E-4
coast : 8.707009E-5
shipm : 1.3060514E-4
futur : 1.7414018E-4
feder : 8.707009E-5
spain : 2.1767523E-4
mauritania : 2.6121028E-4
algeria : 7.836308E-4
south : 2.1767523E-4
freight : 1.3060514E-4
north : 8.707009E-5
gain : 1.3060514E-4
arabia : 2.1767523E-4
across : 8.707009E-5
caus : 1.3060514E-4
timechart : 8.707009E-5
fall : 3.047453E-4
wee : 8.707009E-5
place : 1.7414018E-4
leav : 8.707009E-5
hamburg : 8.707009E-5
tornado : 1.3060514E-4
sudan : 8.707009E-5
suggest : 1.3060514E-4
kill : 3.918154E-4
morn : 8.707009E-5
expect : 3.918154E-4
usag : 7.400958E-4
agenc : 2.6121028E-4
assess : 1.3060514E-4
muddi : 1.3060514E-4
citruspulp : 1.3060514E-4
averag : 1.7414018E-4
advanc : 1.3060514E-4
board : 3.047453E-4
first : 1.7414018E-4
corp : 8.707009E-5
januarid : 1.3060514E-4
corn : 2.1767523E-4
drum : 8.707009E-5
pakistan : 1.7414018E-4
dai : 2.6121028E-4
flatten : 1.3060514E-4
rumor : 1.3060514E-4
hit : 8.707009E-5
major : 8.707009E-5
hagu : 8.707009E-5
jordan : 1.3060514E-4
bear : 1.7414018E-4
consider : 8.707009E-5
depart : 1.3060514E-4
bean : 1.3060514E-4
rain : 2.1767523E-4
spell : 1.3060514E-4
like : 2.1767523E-4
island : 8.707009E-5
daili : 8.707009E-5
sunk : 1.3060514E-4
tonen : 8.707009E-5
sent : 8.707009E-5
usda : 2.1767523E-4
market : 3.918154E-4
wehat : 1.3060514E-4
cereal : 6.094906E-4
option : 1.3060514E-4
temperatur : 1.7414018E-4
week : 3.047453E-4
part : 1.3060514E-4
continu : 6.530257E-4
winter : 2.1767523E-4
point : 1.3060514E-4
eep : 9.5777103E-4
east : 1.3060514E-4
paper : 1.3060514E-4
billion : 3.918154E-4
cypru : 8.707009E-5
reject : 8.707009E-5
jiangsu : 8.707009E-5
februari : 2.1767523E-4
sai : 8.707009E-5
relief : 1.7414018E-4
said : 0.004788855
pari : 1.7414018E-4
amount : 1.3060514E-4
trader : 1.7414018E-4
also : 1.3060514E-4
versu : 8.707009E-5
enough : 1.3060514E-4
improv : 2.1767523E-4
follow : 2.6121028E-4
hailstorm : 1.3060514E-4
meal : 2.1767523E-4
trade : 4.3535046E-4
cooper : 8.707009E-5
