0.004819065977394199
cancel : 6.452654E-5
german : 3.5489595E-4
half : 2.903694E-4
year : 0.005291176
govern : 0.0015486368
via : 6.452654E-5
dutch : 9.67898E-5
these : 6.452654E-5
temporari : 6.452654E-5
would : 0.0018712695
substanti : 9.67898E-5
victor : 6.452654E-5
volum : 9.67898E-5
sake : 9.67898E-5
agreement : 1.6131635E-4
stabil : 1.6131635E-4
pool : 9.67898E-5
redempt : 9.67898E-5
conserv : 6.452654E-5
befor : 2.2584287E-4
stop : 1.935796E-4
size : 6.452654E-5
economi : 2.5810616E-4
detail : 1.935796E-4
arab : 9.67898E-5
flight : 9.67898E-5
lire : 2.903694E-4
lombard : 9.67898E-5
role : 9.67898E-5
kuo : 6.452654E-5
least : 1.6131635E-4
karachi : 6.452654E-5
suffici : 9.67898E-5
dollar : 0.0013873206
polici : 2.903694E-4
gold : 0.0012905308
result : 9.6789806E-4
rebuilt : 1.2905308E-4
ringgit : 3.5489595E-4
measur : 3.5489595E-4
close : 4.5168574E-4
hand : 1.6131635E-4
rebuild : 9.67898E-5
a : 3.5489595E-4
b : 4.5168574E-4
c : 3.226327E-4
d : 1.6131635E-4
e : 6.452654E-5
f : 1.6131635E-4
g : 2.2584287E-4
h : 6.452654E-5
gnp : 1.2905308E-4
i : 4.5168574E-4
j : 1.6131635E-4
abl : 9.67898E-5
tradit : 9.67898E-5
m : 2.903694E-4
n : 4.8394903E-4
the : 0.0028069043
p : 1.935796E-4
sale : 1.6131635E-4
r : 1.2905308E-4
s : 1.935796E-4
t : 6.130021E-4
thi : 4.194225E-4
u : 0.002290692
w : 1.6131635E-4
y : 6.452654E-5
z : 9.67898E-5
exce : 6.452654E-5
salari : 9.67898E-5
goe : 1.2905308E-4
discuss : 3.871592E-4
taipei : 2.2584287E-4
contribut : 2.2584287E-4
good : 0.0012905308
sharpli : 5.162123E-4
exceed : 6.452654E-5
rel : 9.67898E-5
pai : 1.2905308E-4
implement : 6.452654E-5
syeduzzaman : 1.2905308E-4
avert : 6.452654E-5
export : 0.0010324246
rome : 6.452654E-5
par : 6.452654E-5
initi : 6.452654E-5
practic : 9.67898E-5
chi : 1.935796E-4
need : 3.226327E-4
european : 3.5489595E-4
paz : 9.67898E-5
equival : 3.226327E-4
reduc : 3.226327E-4
massiv : 6.452654E-5
liberalis : 4.194225E-4
andrew : 6.452654E-5
respect : 9.67898E-5
transact : 7.743184E-4
risen : 1.6131635E-4
canada : 1.6131635E-4
success : 1.2905308E-4
washington : 2.903694E-4
weekli : 2.2584287E-4
treasuri : 7.743184E-4
breakdown : 2.2584287E-4
instrument : 1.935796E-4
medium : 1.2905308E-4
exchequ : 6.452654E-5
prevent : 6.452654E-5
determin : 1.2905308E-4
protectionist : 6.452654E-5
germani : 1.2905308E-4
end : 0.0024842718
realign : 2.2584287E-4
hard : 2.5810616E-4
ridicul : 6.452654E-5
lend : 9.67898E-5
pct : 0.004452331
worsen : 1.2905308E-4
foodgrain : 6.452654E-5
umbrella : 6.452654E-5
perform : 9.67898E-5
particip : 1.2905308E-4
anyth : 6.452654E-5
interbank : 9.67898E-5
howev : 2.2584287E-4
estim : 7.743184E-4
special : 2.2584287E-4
with : 9.67898E-5
argu : 1.2905308E-4
agre : 3.5489595E-4
china : 2.903694E-4
certif : 2.2584287E-4
feket : 2.5810616E-4
there : 1.6131635E-4
well : 9.67898E-5
analyst : 6.452654E-5
exempt : 9.67898E-5
banknot : 9.67898E-5
kock : 1.6131635E-4
sydnei : 6.452654E-5
smaller : 6.452654E-5
told : 3.871592E-4
specul : 3.226327E-4
ago : 7.420552E-4
jano : 6.452654E-5
american : 6.452654E-5
outstand : 1.935796E-4
retali : 1.6131635E-4
slightli : 3.226327E-4
peg : 1.2905308E-4
imposit : 9.67898E-5
devalu : 6.452654E-4
flow : 1.6131635E-4
propos : 2.2584287E-4
wage : 9.67898E-5
shorter : 9.67898E-5
order : 9.67898E-5
invis : 6.452654E-5
similar : 6.452654E-5
period : 3.226327E-4
africa : 9.67898E-5
shape : 9.67898E-5
revenu : 6.452654E-5
swiss : 2.5810616E-4
dismiss : 9.67898E-5
ceil : 1.6131635E-4
ever : 6.452654E-5
system : 5.162123E-4
remit : 6.452654E-5
even : 6.452654E-5
bulk : 1.2905308E-4
issu : 4.5168574E-4
aid : 3.5489595E-4
other : 1.2905308E-4
wait : 9.67898E-5
aim : 9.67898E-5
increas : 0.0012582674
save : 6.452654E-5
dismantl : 9.67898E-5
institut : 9.67898E-5
protection : 2.5810616E-4
restrict : 4.8394903E-4
tonn : 1.6131635E-4
local : 6.130021E-4
mondai : 9.67898E-5
tian : 6.452654E-5
drawdown : 1.2905308E-4
deficit : 5.4847554E-4
avail : 8.065817E-4
product : 5.162123E-4
question : 9.67898E-5
bought : 1.6131635E-4
spirit : 1.2905308E-4
premier : 6.452654E-5
chairman : 2.2584287E-4
frankfurt : 1.935796E-4
littl : 1.2905308E-4
sharp : 9.67898E-5
meanwhil : 6.452654E-5
exampl : 1.6131635E-4
rose : 0.0030004838
movement : 9.67898E-5
almost : 1.2905308E-4
remitt : 3.5489595E-4
cent : 9.67898E-5
spur : 6.452654E-5
neg : 9.67898E-5
earlier : 8.065817E-4
whether : 2.5810616E-4
west : 3.5489595E-4
bureau : 9.67898E-5
stock : 1.6131635E-4
net : 0.0011614776
oblig : 1.2905308E-4
cpi : 1.2905308E-4
traffic : 1.935796E-4
all : 2.2584287E-4
suspend : 9.67898E-5
new : 6.130021E-4
took : 3.871592E-4
guilder : 4.5168574E-4
swap : 2.903694E-4
todai : 8.7110826E-4
real : 1.935796E-4
unit : 3.5489595E-4
were : 1.935796E-4
governor : 2.2584287E-4
basic : 6.452654E-5
headach : 9.67898E-5
around : 3.226327E-4
favour : 9.67898E-5
badli : 6.452654E-5
resolv : 9.67898E-5
calcul : 6.452654E-5
ration : 4.8394903E-4
and : 6.452654E-5
design : 2.2584287E-4
extra : 6.452654E-5
predict : 1.935796E-4
encourag : 6.452654E-5
abroad : 9.67898E-5
financ : 3.871592E-4
chief : 9.67898E-5
accord : 7.097919E-4
tackl : 9.67898E-5
procur : 9.67898E-5
italian : 6.452654E-5
inspector : 6.452654E-5
qualifi : 2.903694E-4
chien : 1.2905308E-4
committe : 9.67898E-5
investor : 6.452654E-5
qatar : 6.452654E-5
previou : 3.871592E-4
plu : 1.2905308E-4
equilibrium : 1.935796E-4
reason : 2.5810616E-4
japan : 5.162123E-4
maintain : 9.67898E-5
shift : 9.67898E-5
ship : 9.67898E-5
simultan : 6.452654E-5
bargain : 9.67898E-5
concern : 6.452654E-5
compon : 1.2905308E-4
strateg : 6.452654E-5
jan : 1.2905308E-4
pact : 1.2905308E-4
annual : 2.903694E-4
let : 6.452654E-5
state : 4.5168574E-4
press : 1.6131635E-4
yesterdai : 1.6131635E-4
remain : 2.5810616E-4
pace : 1.2905308E-4
want : 1.935796E-4
night : 1.935796E-4
forecast : 1.935796E-4
statu : 1.2905308E-4
demand : 1.6131635E-4
ounc : 5.807388E-4
slow : 1.2905308E-4
wang : 1.935796E-4
deposit : 9.6789806E-4
lewi : 6.452654E-5
must : 3.5489595E-4
creditor : 2.2584287E-4
peke : 9.67898E-5
suppli : 1.6131635E-4
overse : 6.452654E-5
liabil : 2.5810616E-4
valuat : 1.6131635E-4
cut : 5.162123E-4
two : 4.8394903E-4
worth : 3.5489595E-4
oslo : 6.452654E-5
taken : 2.2584287E-4
came : 1.935796E-4
larg : 1.6131635E-4
grace : 9.67898E-5
tariff : 4.5168574E-4
where : 6.452654E-5
attach : 9.67898E-5
anoth : 9.67898E-5
latest : 1.935796E-4
think : 9.67898E-5
vice : 1.935796E-4
outweigh : 9.67898E-5
surplus : 3.226327E-4
black : 6.452654E-5
revalu : 2.903694E-4
balanc : 6.452654E-4
libya : 6.452654E-5
call : 2.2584287E-4
charg : 1.2905308E-4
gustavo : 6.452654E-5
principl : 9.67898E-5
quit : 6.452654E-5
hungari : 5.162123E-4
prepai : 6.452654E-5
strength : 1.2905308E-4
disregard : 6.452654E-5
run : 1.935796E-4
prepar : 1.2905308E-4
either : 9.67898E-5
view : 1.2905308E-4
late : 9.67898E-5
han : 6.452654E-5
thailand : 1.6131635E-4
huge : 9.67898E-5
budget : 6.452654E-5
actual : 1.2905308E-4
given : 9.67898E-5
pre : 6.452654E-5
last : 0.0014195838
might : 6.452654E-5
develop : 2.5810616E-4
dure : 6.452654E-5
petricioli : 1.6131635E-4
longer : 9.67898E-5
nomin : 6.452654E-5
privat : 1.2905308E-4
consum : 9.67898E-5
wari : 9.67898E-5
name : 6.452654E-5
inflow : 4.194225E-4
budapest : 6.452654E-5
receipt : 1.2905308E-4
full : 1.935796E-4
next : 4.194225E-4
import : 0.0015809002
attract : 1.2905308E-4
book : 6.452654E-5
show : 0.0014841104
effort : 1.6131635E-4
non : 1.935796E-4
peru : 2.903694E-4
summit : 6.452654E-5
central : 0.0012582674
stronger : 6.452654E-5
nearli : 2.2584287E-4
now : 1.2905308E-4
statement : 8.065817E-4
shien : 6.452654E-5
annualis : 6.452654E-5
factor : 1.6131635E-4
wai : 6.452654E-5
enabl : 1.6131635E-4
negoti : 1.935796E-4
yen : 4.194225E-4
shore : 1.2905308E-4
yet : 6.452654E-5
bond : 3.226327E-4
grew : 2.2584287E-4
earli : 6.452654E-5
starv : 6.452654E-5
target : 6.775286E-4
tokyo : 6.452654E-5
repatri : 6.452654E-5
equal : 1.2905308E-4
fallen : 9.67898E-5
bolivia : 5.162123E-4
fund : 9.033715E-4
chang : 8.065817E-4
african : 2.2584287E-4
israel : 1.935796E-4
paid : 2.5810616E-4
short : 1.2905308E-4
risk : 6.452654E-5
financi : 1.2905308E-4
time : 8.065817E-4
window : 9.67898E-5
rise : 0.004226488
circul : 4.5168574E-4
compris : 9.67898E-5
three : 3.226327E-4
put : 1.6131635E-4
modest : 1.935796E-4
climb : 9.67898E-5
far : 2.903694E-4
quickli : 9.67898E-5
season : 6.452654E-5
payment : 6.775286E-4
vicker : 6.452654E-5
heavili : 1.935796E-4
attain : 6.452654E-5
prioriti : 4.5168574E-4
plan : 5.4847554E-4
cash : 7.097919E-4
greater : 9.67898E-5
give : 1.935796E-4
pressur : 7.097919E-4
iraq : 6.452654E-5
preced : 1.6131635E-4
persuad : 6.452654E-5
rangoon : 9.67898E-5
studi : 6.452654E-5
consid : 2.2584287E-4
nogal : 3.226327E-4
futur : 6.452654E-5
slide : 2.2584287E-4
quot : 1.2905308E-4
expansionari : 6.452654E-5
januari : 0.0032908535
australian : 1.2905308E-4
direct : 9.67898E-5
paperwork : 1.2905308E-4
surplu : 0.0012582674
counterbalanc : 1.2905308E-4
gain : 1.6131635E-4
arabia : 1.6131635E-4
caus : 1.6131635E-4
cushion : 9.67898E-5
low : 3.226327E-4
meant : 1.2905308E-4
stress : 1.6131635E-4
outcom : 6.452654E-5
consumpt : 6.452654E-5
more : 6.452654E-5
alon : 6.452654E-5
redress : 6.452654E-5
mexico : 8.065817E-4
inflat : 5.162123E-4
certain : 6.452654E-5
chao : 6.452654E-5
advanc : 1.935796E-4
feb : 2.903694E-4
pakistan : 6.452654E-5
broadli : 6.452654E-5
dai : 2.5810616E-4
simpli : 1.6131635E-4
hit : 1.935796E-4
major : 1.6131635E-4
threaten : 9.67898E-5
gazett : 9.67898E-5
jordan : 1.6131635E-4
consider : 1.935796E-4
group : 9.67898E-5
england : 1.935796E-4
desper : 6.452654E-5
gross : 3.5489595E-4
dispos : 6.452654E-5
profil : 9.67898E-5
resist : 6.452654E-5
amsterdam : 6.452654E-5
rais : 9.67898E-5
both : 6.452654E-5
market : 0.0013550572
formal : 9.67898E-5
intensifi : 1.2905308E-4
transfer : 6.130021E-4
friendli : 6.452654E-5
keep : 1.935796E-4
effect : 5.807388E-4
soar : 2.903694E-4
cumul : 6.452654E-5
exchang : 0.0025487982
omit : 6.452654E-5
sustain : 9.67898E-5
achiev : 1.6131635E-4
appreci : 1.935796E-4
largest : 1.2905308E-4
dhaka : 6.452654E-5
adequ : 6.452654E-5
part : 9.67898E-5
incom : 6.130021E-4
conting : 9.67898E-5
continu : 6.775286E-4
bilater : 9.67898E-5
remark : 9.67898E-5
billion : 0.01668011
sixteen : 6.452654E-5
arrang : 9.67898E-5
sheet : 2.903694E-4
sai : 5.807388E-4
david : 6.452654E-5
pari : 4.194225E-4
ltd : 6.452654E-5
profit : 9.67898E-5
chen : 6.452654E-5
facil : 2.5810616E-4
rest : 2.5810616E-4
amount : 1.2905308E-4
process : 6.452654E-5
move : 6.452654E-5
built : 1.6131635E-4
clear : 6.452654E-5
estenssoro : 6.452654E-5
also : 6.130021E-4
reliev : 6.452654E-5
enough : 1.2905308E-4
rollov : 1.2905308E-4
third : 2.2584287E-4
dramat : 6.452654E-5
mean : 6.452654E-5
earn : 3.5489595E-4
cooper : 2.903694E-4
cheng : 2.2584287E-4
approv : 6.452654E-5
account : 5.162123E-4
confid : 2.903694E-4
dec : 1.2905308E-4
extens : 9.67898E-5
decre : 2.2584287E-4
japanes : 1.6131635E-4
bring : 9.67898E-5
addit : 6.452654E-5
parliament : 1.2905308E-4
rand : 0.0022261655
offer : 7.743184E-4
iredal : 6.452654E-5
suffer : 9.67898E-5
mostli : 9.67898E-5
trim : 9.67898E-5
fix : 1.6131635E-4
pretoria : 1.2905308E-4
record : 5.162123E-4
partli : 3.5489595E-4
aa : 6.452654E-5
despit : 1.6131635E-4
prime : 9.67898E-5
posit : 3.5489595E-4
surg : 1.6131635E-4
ad : 0.0012905308
grow : 2.2584287E-4
amman : 6.452654E-5
past : 9.67898E-5
shock : 1.2905308E-4
bill : 7.743184E-4
especi : 2.2584287E-4
al : 6.452654E-5
secur : 6.452654E-5
saudi : 9.67898E-5
panic : 6.452654E-5
ar : 6.452654E-5
as : 9.67898E-5
at : 2.2584287E-4
juli : 9.67898E-5
preserv : 1.6131635E-4
organ : 9.67898E-5
sdr : 1.2905308E-4
zurich : 9.67898E-5
strong : 2.903694E-4
deal : 1.2905308E-4
scheme : 2.2584287E-4
affect : 9.67898E-5
see : 6.452654E-5
releas : 1.935796E-4
by : 1.935796E-4
franc : 0.0031618003
term : 4.5168574E-4
regul : 9.67898E-5
set : 6.775286E-4
ming : 1.2905308E-4
right : 2.903694E-4
quicken : 9.67898E-5
co : 1.2905308E-4
march : 0.0038070655
food : 1.6131635E-4
figur : 0.001451847
reuter : 0.0010001613
june : 4.194225E-4
meet : 3.5489595E-4
partner : 6.452654E-5
answer : 1.2905308E-4
standbi : 6.452654E-5
stage : 9.67898E-5
petition : 1.2905308E-4
borrow : 7.097919E-4
accrual : 1.6131635E-4
paul : 6.452654E-5
under : 2.2584287E-4
interview : 2.903694E-4
da : 6.452654E-5
equiti : 6.452654E-5
quarter : 5.807388E-4
de : 1.6131635E-4
nimit : 6.452654E-5
london : 9.67898E-5
bundesbank : 0.0010324246
reserv : 0.007969027
offic : 2.5810616E-4
extern : 1.2905308E-4
forc : 6.452654E-5
parti : 6.452654E-5
hold : 0.0015809002
later : 9.67898E-5
prior : 9.67898E-5
club : 5.162123E-4
bracket : 2.2584287E-4
deduct : 9.67898E-5
em : 2.5810616E-4
brown : 6.452654E-5
complain : 6.452654E-5
take : 2.5810616E-4
never : 1.2905308E-4
month : 0.002645588
expatri : 6.452654E-5
adjust : 2.2584287E-4
tranch : 2.2584287E-4
final : 1.935796E-4
activ : 9.67898E-5
western : 1.2905308E-4
interven : 1.6131635E-4
debt : 0.0017744798
compar : 0.0011292144
some : 6.452654E-5
deep : 6.452654E-5
loan : 0.0012260042
indic : 9.67898E-5
criticis : 9.67898E-5
exclud : 6.452654E-5
for : 9.67898E-5
back : 4.194225E-4
compani : 2.2584287E-4
underli : 2.903694E-4
heavier : 6.452654E-5
malaysia : 6.452654E-5
samurai : 6.452654E-5
content : 9.67898E-5
pound : 1.935796E-4
rate : 0.0016454267
promot : 1.2905308E-4
outward : 6.452654E-5
softer : 6.452654E-5
stabl : 2.903694E-4
kuwait : 6.452654E-5
six : 1.6131635E-4
manufactur : 6.452654E-5
go : 2.2584287E-4
dlr : 0.007549605
form : 9.67898E-5
publish : 2.5810616E-4
bureaucrat : 6.452654E-5
relat : 9.67898E-5
diplomat : 1.6131635E-4
bid : 9.67898E-5
disburs : 2.2584287E-4
grant : 9.67898E-5
he : 7.743184E-4
prompt : 1.2905308E-4
big : 9.67898E-5
basket : 9.67898E-5
canadian : 9.67898E-5
easili : 9.67898E-5
discount : 3.226327E-4
convert : 2.5810616E-4
hope : 5.162123E-4
bit : 1.2905308E-4
attempt : 9.67898E-5
norwegian : 6.452654E-5
influenc : 1.2905308E-4
flourish : 6.452654E-5
output : 9.67898E-5
four : 2.2584287E-4
action : 1.935796E-4
decemb : 7.743184E-4
latin : 6.452654E-5
moder : 6.452654E-5
if : 9.67898E-5
french : 3.871592E-4
clamp : 6.452654E-5
crown : 4.5168574E-4
fear : 1.2905308E-4
creat : 9.67898E-5
in : 8.7110826E-4
made : 5.4847554E-4
director : 9.67898E-5
lower : 1.6131635E-4
tomorrow : 1.935796E-4
it : 9.033715E-4
inevit : 1.935796E-4
manag : 2.2584287E-4
decid : 9.67898E-5
purchas : 1.6131635E-4
jiyun : 6.452654E-5
contrast : 6.452654E-5
singl : 9.67898E-5
gave : 3.5489595E-4
begin : 9.67898E-5
wider : 9.67898E-5
valu : 9.033715E-4
britain : 6.452654E-5
widen : 1.2905308E-4
gerhard : 9.67898E-5
believ : 1.6131635E-4
eight : 2.5810616E-4
monetrai : 6.452654E-5
world : 1.2905308E-4
mai : 9.67898E-5
member : 2.903694E-4
quarterli : 1.2905308E-4
stand : 6.452654E-5
reclassifi : 9.67898E-5
ottawa : 6.452654E-5
heavi : 1.2905308E-4
stanc : 6.452654E-5
independ : 6.452654E-5
within : 1.6131635E-4
could : 3.226327E-4
forward : 1.2905308E-4
lawson : 6.452654E-5
draw : 6.775286E-4
reschedul : 6.452654E-5
itali : 6.452654E-5
comfort : 6.452654E-5
antagonis : 6.452654E-5
la : 6.452654E-5
report : 0.0015486368
royalti : 1.2905308E-4
return : 9.67898E-5
cheaper : 6.452654E-5
receiv : 2.5810616E-4
sign : 1.935796E-4
main : 6.452654E-5
angel : 6.452654E-5
nigel : 6.452654E-5
second : 1.6131635E-4
that : 6.452654E-5
high : 4.8394903E-4
faster : 6.452654E-5
split : 9.67898E-5
skirt : 6.452654E-5
conclud : 6.452654E-5
find : 1.2905308E-4
claim : 1.2905308E-4
backward : 6.452654E-5
denomin : 9.67898E-5
grain : 6.452654E-5
credit : 6.130021E-4
upward : 9.67898E-5
level : 8.7110826E-4
author : 9.033715E-4
bangkok : 1.2905308E-4
thai : 9.67898E-5
fecom : 2.903694E-4
guarante : 9.67898E-5
expand : 6.452654E-5
servic : 0.0011614776
fiscal : 9.67898E-5
nonthapanthawat : 9.67898E-5
present : 1.6131635E-4
produc : 1.935796E-4
zeid : 6.452654E-5
burma : 1.6131635E-4
matur : 1.935796E-4
head : 1.2905308E-4
total : 0.0015163736
deni : 6.452654E-5
capitalis : 6.452654E-5
oil : 2.2584287E-4
execut : 2.2584287E-4
fundament : 6.452654E-5
sterl : 6.452654E-5
hous : 6.452654E-5
of : 2.903694E-4
capit : 6.130021E-4
make : 4.5168574E-4
met : 9.67898E-5
blah : 7.097919E-4
on : 7.743184E-4
purpos : 1.6131635E-4
economist : 6.130021E-4
spokesman : 1.935796E-4
influx : 9.67898E-5
ow : 9.67898E-5
control : 6.452654E-4
confer : 9.67898E-5
drew : 1.6131635E-4
due : 9.6789806E-4
kuala : 6.452654E-5
offici : 0.0010646879
domest : 3.226327E-4
mere : 9.67898E-5
bolivian : 1.2905308E-4
inland : 6.452654E-5
depend : 1.2905308E-4
nation : 6.130021E-4
commit : 2.903694E-4
about : 9.67898E-5
stood : 3.5489595E-4
curb : 2.903694E-4
cover : 2.903694E-4
firm : 2.2584287E-4
bank : 0.008065817
reflect : 2.5810616E-4
kyat : 2.903694E-4
strengthen : 4.5168574E-4
damag : 6.452654E-5
drawn : 1.6131635E-4
recent : 9.67898E-5
jier : 6.452654E-5
secondari : 6.452654E-5
august : 6.452654E-5
frozen : 6.452654E-5
ministri : 4.194225E-4
flood : 9.67898E-5
thei : 9.67898E-5
accept : 1.6131635E-4
includ : 9.6789806E-4
highest : 6.452654E-5
boost : 1.6131635E-4
except : 9.67898E-5
autumn : 2.5810616E-4
madrid : 6.452654E-5
programm : 1.935796E-4
qualiti : 1.2905308E-4
nevertheless : 9.67898E-5
currenc : 0.0029682207
monthli : 1.2905308E-4
mid : 6.452654E-5
long : 9.67898E-5
kei : 6.452654E-5
seen : 6.452654E-5
announc : 1.935796E-4
fell : 0.0021293757
current : 3.226327E-4
saturdai : 1.935796E-4
min : 6.452654E-5
excess : 6.452654E-5
industri : 3.5489595E-4
conjunct : 1.2905308E-4
calendar : 6.452654E-5
su : 6.452654E-5
intern : 4.5168574E-4
reaction : 9.67898E-5
onc : 9.67898E-5
lumpur : 6.452654E-5
launch : 6.452654E-5
intervent : 2.903694E-4
closer : 9.67898E-5
commerc : 9.67898E-5
emerg : 9.67898E-5
confirm : 6.452654E-5
face : 9.67898E-5
kate : 6.452654E-5
ti : 1.2905308E-4
bui : 2.903694E-4
remov : 9.67898E-5
dealer : 6.452654E-5
oper : 3.226327E-4
to : 1.2905308E-4
vast : 6.452654E-5
fourth : 1.935796E-4
mani : 6.452654E-5
bulletin : 1.6131635E-4
open : 3.5489595E-4
stai : 9.67898E-5
tripl : 1.2905308E-4
ratio : 2.2584287E-4
but : 4.5168574E-4
seller : 1.6131635E-4
monei : 9.6789806E-4
invest : 0.002290692
project : 1.935796E-4
genuin : 6.452654E-5
zero : 1.6131635E-4
countri : 7.743184E-4
sever : 1.2905308E-4
uk : 6.452654E-5
subsequ : 6.452654E-5
ineffect : 6.452654E-5
up : 1.6131635E-4
five : 6.130021E-4
sector : 1.2905308E-4
us : 5.162123E-4
solut : 1.2905308E-4
look : 2.2584287E-4
mln : 0.006355864
taiwan : 0.0015163736
chancellor : 1.2905308E-4
guid : 1.6131635E-4
know : 1.935796E-4
region : 9.67898E-5
support : 4.8394903E-4
vs : 2.2584287E-4
sinc : 2.5810616E-4
higher : 6.452654E-5
drop : 4.8394903E-4
allow : 3.226327E-4
brazil : 9.67898E-5
newman : 9.67898E-5
commerci : 5.4847554E-4
rule : 1.6131635E-4
wa : 6.452654E-5
unchang : 6.775286E-4
we : 1.935796E-4
wellington : 9.67898E-5
interest : 5.807388E-4
appli : 5.162123E-4
forint : 3.5489595E-4
presid : 9.67898E-5
gradual : 1.935796E-4
previous : 1.935796E-4
licens : 2.903694E-4
newspap : 6.452654E-5
accumul : 6.452654E-5
exposur : 9.67898E-5
insur : 2.2584287E-4
comment : 4.194225E-4
televis : 1.2905308E-4
basi : 1.935796E-4
bangladesh : 9.67898E-5
mark : 0.0030327472
stem : 9.67898E-5
base : 3.871592E-4
septemb : 6.775286E-4
sourc : 2.5810616E-4
individu : 2.2584287E-4
minist : 1.935796E-4
trend : 2.903694E-4
held : 5.807388E-4
reach : 3.871592E-4
whole : 9.67898E-5
preliminari : 1.2905308E-4
april : 4.194225E-4
loss : 6.130021E-4
businessmen : 6.452654E-5
problem : 4.8394903E-4
price : 4.5168574E-4
review : 1.2905308E-4
lost : 1.2905308E-4
sight : 1.2905308E-4
routin : 6.452654E-5
yu : 9.67898E-5
still : 1.6131635E-4
work : 9.67898E-5
contract : 1.6131635E-4
come : 1.2905308E-4
credibl : 9.67898E-5
banker : 7.097919E-4
declin : 7.420552E-4
push : 2.5810616E-4
gurria : 2.2584287E-4
fail : 1.935796E-4
gdp : 2.5810616E-4
johannesburg : 9.67898E-5
restructur : 3.871592E-4
repaid : 9.67898E-5
penalti : 6.452654E-5
opportun : 2.5810616E-4
exact : 6.452654E-5
lift : 6.452654E-5
regist : 1.2905308E-4
feder : 2.903694E-4
spain : 9.67898E-5
steel : 6.452654E-5
singapor : 1.935796E-4
algeria : 6.452654E-5
south : 3.5489595E-4
freight : 6.452654E-5
copi : 1.2905308E-4
requir : 6.130021E-4
rupe : 9.67898E-5
foreign : 0.0039038556
fall : 0.0013550572
eas : 2.2584287E-4
decreas : 1.6131635E-4
peseta : 1.2905308E-4
stabilis : 9.67898E-5
statist : 4.5168574E-4
power : 9.67898E-5
steer : 6.452654E-5
packag : 1.6131635E-4
place : 1.2905308E-4
danish : 6.452654E-5
restart : 6.452654E-5
lead : 6.452654E-5
fraction : 6.452654E-5
expect : 0.0011937409
outflow : 3.871592E-4
help : 1.6131635E-4
agenc : 3.871592E-4
liquid : 6.452654E-4
self : 6.452654E-5
revis : 1.935796E-4
asset : 5.4847554E-4
averag : 9.67898E-5
minimum : 9.67898E-5
mainli : 4.5168574E-4
first : 4.5168574E-4
quantit : 6.452654E-5
own : 9.67898E-5
sound : 9.67898E-5
rediscount : 6.452654E-5
tight : 9.67898E-5
monetari : 3.226327E-4
costa : 1.935796E-4
barrier : 9.67898E-5
modernis : 1.935796E-4
argentina : 9.67898E-5
portfolio : 6.452654E-5
ecu : 1.935796E-4
econom : 3.871592E-4
quadrupl : 9.67898E-5
depart : 1.2905308E-4
copenhagen : 6.452654E-5
mti : 6.452654E-5
like : 1.935796E-4
embassi : 6.452654E-5
negara : 6.452654E-5
provision : 1.6131635E-4
council : 7.097919E-4
guidelin : 9.67898E-5
note : 3.226327E-4
week : 0.0024842718
imf : 2.2584287E-4
line : 1.6131635E-4
dinar : 3.5489595E-4
provis : 9.67898E-5
becom : 1.6131635E-4
error : 6.452654E-5
overvalu : 1.935796E-4
liber : 6.452654E-5
public : 3.871592E-4
paper : 2.2584287E-4
briefli : 1.6131635E-4
februari : 0.0048717535
spend : 6.452654E-5
recoveri : 9.67898E-5
said : 0.0145184705
provid : 1.935796E-4
realli : 6.452654E-5
grappl : 1.2905308E-4
repay : 0.0012582674
lima : 9.67898E-5
cost : 6.452654E-5
will : 6.452654E-5
overal : 6.452654E-5
trader : 1.6131635E-4
mohammad : 6.452654E-5
versu : 1.935796E-4
improv : 1.6131635E-4
instead : 9.67898E-5
follow : 4.5168574E-4
trade : 0.0010969511
round : 9.67898E-5
york : 9.67898E-5
swollen : 9.67898E-5
growth : 4.8394903E-4
intend : 1.6131635E-4
emir : 9.67898E-5
