0.0068343117497590465
cancel : 7.34538E-5
german : 9.79384E-5
ccc : 1.2242299E-4
half : 1.713922E-4
govern : 8.5696095E-4
enlarg : 9.79384E-5
clinton : 2.203614E-4
elimin : 9.79384E-5
slower : 4.89692E-5
without : 2.4484599E-4
borenbosch : 4.89692E-5
these : 4.89692E-5
tea : 4.89692E-5
successfulli : 7.34538E-5
would : 0.0039420202
pick : 1.2242299E-4
ten : 1.2242299E-4
saharan : 7.34538E-5
serv : 1.2242299E-4
tex : 1.2242299E-4
reluct : 7.34538E-5
reenter : 7.34538E-5
stabil : 1.713922E-4
tallow : 4.89692E-5
illinoi : 2.938152E-4
temper : 7.34538E-5
left : 4.89692E-5
kansa : 9.79384E-5
budg : 7.34538E-5
much : 5.876304E-4
wine : 4.89692E-5
czechoslovakia : 4.89692E-5
ahead : 9.79384E-5
yellow : 7.34538E-5
roll : 1.2242299E-4
turn : 4.89692E-5
suffici : 7.34538E-5
elect : 7.34538E-5
polici : 2.4484599E-4
result : 5.631458E-4
octobsept : 9.79384E-5
same : 7.34538E-5
differenti : 9.79384E-5
after : 4.89692E-5
hand : 1.469076E-4
rebuild : 4.89692E-5
a : 7.3453796E-4
b : 1.713922E-4
c : 3.917536E-4
address : 2.203614E-4
d : 4.8969197E-4
e : 1.713922E-4
kernel : 1.713922E-4
f : 1.958768E-4
g : 7.34538E-5
cornw : 4.89692E-5
h : 9.79384E-5
i : 5.876304E-4
tradit : 4.89692E-5
j : 4.89692E-5
union : 3.427844E-4
l : 3.1829978E-4
m : 7.34538E-5
n : 7.34538E-5
soviet : 4.1623818E-4
the : 0.0036482052
p : 4.89692E-5
straight : 7.34538E-5
halt : 7.34538E-5
r : 2.203614E-4
sale : 0.0016159836
s : 3.6726898E-4
thi : 4.6520738E-4
t : 1.958768E-4
u : 0.0045051663
throw : 7.34538E-5
w : 3.6726898E-4
y : 5.1417656E-4
fifth : 7.34538E-5
discuss : 1.469076E-4
thu : 7.34538E-5
taipei : 9.79384E-5
correct : 1.713922E-4
shearson : 4.89692E-5
picardi : 9.79384E-5
confront : 4.89692E-5
good : 3.1829978E-4
sharpli : 1.713922E-4
pai : 2.4484599E-4
serious : 4.89692E-5
implement : 2.693306E-4
export : 0.0028402135
jakarta : 7.34538E-5
area : 0.0020567062
rome : 4.89692E-5
practic : 1.469076E-4
pat : 4.89692E-5
shipment : 0.0016404681
european : 2.938152E-4
reduc : 5.631458E-4
diseas : 7.34538E-5
list : 7.34538E-5
onto : 4.89692E-5
lack : 7.34538E-5
resolut : 7.34538E-5
atlant : 7.34538E-5
anybodi : 7.34538E-5
weekli : 1.958768E-4
memphi : 6.3659955E-4
hundr : 7.34538E-5
treasuri : 4.89692E-5
minim : 4.89692E-5
wisdom : 4.89692E-5
protectionist : 1.2242299E-4
denmark : 9.79384E-5
germani : 1.713922E-4
combin : 3.1829978E-4
patrick : 4.89692E-5
hard : 1.469076E-4
live : 4.89692E-5
pct : 0.0061946036
worsen : 1.2242299E-4
pilot : 4.89692E-5
umbrella : 7.34538E-5
perform : 1.958768E-4
congressmen : 1.2242299E-4
alberta : 7.34538E-5
room : 7.34538E-5
better : 1.469076E-4
with : 1.469076E-4
tinker : 7.34538E-5
haggard : 3.917536E-4
china : 5.631458E-4
certif : 6.3659955E-4
complaint : 1.2242299E-4
there : 5.386612E-4
permit : 1.469076E-4
analyst : 0.0011507762
well : 9.79384E-5
outlook : 1.469076E-4
empti : 1.2242299E-4
vangarlem : 4.89692E-5
corea : 4.89692E-5
strongli : 7.34538E-5
channel : 1.469076E-4
focus : 4.89692E-5
american : 6.3659955E-4
cargil : 9.79384E-5
hamper : 9.79384E-5
desir : 4.89692E-5
pea : 4.89692E-5
approach : 4.89692E-5
outstand : 1.2242299E-4
flour : 7.34538E-5
per : 7.835072E-4
devalu : 9.79384E-5
propos : 0.0016894373
flow : 1.958768E-4
order : 1.713922E-4
period : 2.693306E-4
africa : 1.713922E-4
fiber : 7.34538E-5
went : 7.34538E-5
prolif : 4.89692E-5
distant : 1.2242299E-4
revenu : 1.713922E-4
understand : 9.79384E-5
indonesia : 1.713922E-4
ever : 7.34538E-5
winner : 9.79384E-5
million : 7.34538E-5
fallow : 7.34538E-5
even : 2.938152E-4
bulk : 1.713922E-4
southeast : 1.958768E-4
wait : 9.79384E-5
honesti : 1.2242299E-4
increas : 0.0017873758
hackmann : 1.2242299E-4
institut : 4.89692E-5
costli : 2.4484599E-4
matter : 7.34538E-5
ton : 9.79384E-5
scrap : 7.34538E-5
particularli : 1.2242299E-4
tom : 4.89692E-5
top : 9.79384E-5
too : 4.89692E-5
drawdown : 7.34538E-5
have : 9.79384E-5
slowli : 4.89692E-5
morrison : 4.89692E-5
avail : 1.2242299E-4
product : 0.004088928
question : 1.713922E-4
bought : 2.938152E-4
littl : 2.203614E-4
framework : 4.89692E-5
meanwhil : 7.34538E-5
balfour : 4.89692E-5
constraint : 7.34538E-5
rose : 5.876304E-4
thousand : 7.34538E-5
prohibit : 4.89692E-5
overcast : 4.89692E-5
minor : 4.89692E-5
almost : 1.713922E-4
fuel : 9.79384E-5
motiv : 4.89692E-5
upon : 4.89692E-5
republ : 7.34538E-5
pik : 2.938152E-4
earlier : 7.3453796E-4
judgment : 1.713922E-4
unabl : 1.2242299E-4
whether : 1.713922E-4
west : 2.693306E-4
stock : 0.0010038685
law : 3.917536E-4
comparison : 7.34538E-5
voic : 7.34538E-5
less : 7.3453796E-4
basin : 7.34538E-5
mision : 1.2242299E-4
absolut : 7.34538E-5
were : 2.693306E-4
try : 2.203614E-4
basic : 1.469076E-4
busi : 4.89692E-5
unclear : 1.469076E-4
fridai : 9.79384E-5
plywood : 7.34538E-5
respons : 2.4484599E-4
wound : 7.34538E-5
timet : 7.34538E-5
reinforc : 4.89692E-5
pampa : 2.203614E-4
suspens : 7.34538E-5
extra : 4.89692E-5
charent : 4.89692E-5
land : 4.1623818E-4
transatlant : 4.89692E-5
floor : 3.1829978E-4
encourag : 3.1829978E-4
morioka : 4.89692E-5
accord : 8.5696095E-4
forfeit : 1.958768E-4
hectar : 0.0015425298
italian : 7.34538E-5
ldc : 4.89692E-5
overbought : 4.89692E-5
investor : 1.958768E-4
plu : 1.469076E-4
spoken : 7.34538E-5
crowlei : 7.34538E-5
capita : 4.89692E-5
caught : 9.79384E-5
rectifi : 7.34538E-5
disclos : 4.89692E-5
japan : 5.386612E-4
prev : 2.203614E-4
led : 1.2242299E-4
uncertain : 2.203614E-4
concern : 1.2242299E-4
enhanc : 9.79384E-5
pact : 4.89692E-5
state : 9.3041477E-4
courtesi : 9.79384E-5
eventu : 4.89692E-5
press : 9.79384E-5
cargo : 1.958768E-4
coffe : 2.693306E-4
yesterdai : 3.917536E-4
began : 1.713922E-4
gener : 4.8969197E-4
garza : 4.89692E-5
devast : 1.469076E-4
want : 4.6520738E-4
pace : 7.34538E-5
bueno : 4.8969197E-4
forecast : 0.0015425298
mute : 7.34538E-5
processor : 6.3659955E-4
wereng : 1.469076E-4
must : 1.469076E-4
creditor : 7.34538E-5
peke : 7.34538E-5
anim : 4.89692E-5
suppli : 6.610842E-4
overse : 7.34538E-5
provinc : 8.5696095E-4
cut : 9.5489935E-4
yeutter : 4.407228E-4
fring : 4.89692E-5
pod : 3.1829978E-4
realist : 2.203614E-4
two : 0.0010283531
chase : 7.34538E-5
stimul : 7.34538E-5
found : 1.2242299E-4
scenario : 9.79384E-5
larg : 2.203614E-4
tariff : 2.693306E-4
acceler : 1.2242299E-4
anoth : 1.713922E-4
advantag : 4.89692E-5
latest : 1.713922E-4
think : 4.407228E-4
dodg : 7.34538E-5
sugarcan : 4.89692E-5
speech : 9.79384E-5
watch : 9.79384E-5
thing : 4.89692E-5
agrianalysi : 7.34538E-5
cwt : 4.89692E-5
definit : 1.2242299E-4
safra : 4.89692E-5
prepar : 2.4484599E-4
had : 7.34538E-5
lynch : 4.89692E-5
hai : 7.34538E-5
lip : 9.79384E-5
late : 2.203614E-4
stapl : 4.89692E-5
entir : 7.34538E-5
increa : 7.34538E-5
nonprogram : 1.469076E-4
budget : 3.1829978E-4
actual : 2.203614E-4
doubl : 1.2242299E-4
given : 2.693306E-4
eastern : 4.89692E-5
last : 0.0019587679
adapt : 7.34538E-5
hopefulli : 1.713922E-4
weight : 2.938152E-4
verbal : 4.89692E-5
develop : 1.958768E-4
subcommitte : 3.1829978E-4
warn : 7.34538E-5
warm : 9.79384E-5
anywai : 1.469076E-4
full : 4.89692E-5
baltimor : 7.34538E-5
becaus : 4.89692E-5
effort : 9.79384E-5
steadi : 1.713922E-4
vote : 3.917536E-4
harvest : 0.0033299054
yen : 2.938152E-4
estiamt : 7.34538E-5
argentin : 4.6520738E-4
start : 4.1623818E-4
yet : 3.427844E-4
earli : 2.203614E-4
equal : 7.34538E-5
chanc : 1.713922E-4
awai : 9.79384E-5
chang : 0.0020322218
upsid : 7.34538E-5
paid : 7.34538E-5
short : 4.89692E-5
unusu : 7.34538E-5
time : 0.0010038685
palm : 2.4484599E-4
compris : 7.34538E-5
program : 0.0023994907
percept : 7.34538E-5
three : 2.938152E-4
put : 3.1829978E-4
midi : 4.89692E-5
nineti : 7.34538E-5
season : 0.002081191
payment : 8.3247636E-4
enter : 4.89692E-5
tenant : 9.79384E-5
unaccept : 9.79384E-5
pest : 1.713922E-4
majeur : 7.34538E-5
pressur : 1.2242299E-4
iran : 4.89692E-5
iraq : 9.79384E-5
preced : 9.79384E-5
light : 9.79384E-5
merril : 4.89692E-5
judg : 4.89692E-5
recogn : 7.34538E-5
januari : 3.917536E-4
unknown : 1.469076E-4
lot : 2.938152E-4
panama : 7.34538E-5
lou : 7.34538E-5
premium : 3.6726898E-4
deputi : 7.34538E-5
immin : 1.469076E-4
low : 6.3659955E-4
consult : 4.89692E-5
hamburg : 4.89692E-5
wayn : 9.79384E-5
paulo : 4.89692E-5
small : 4.89692E-5
door : 1.2242299E-4
torrenti : 7.34538E-5
unavail : 7.34538E-5
dai : 5.386612E-4
listen : 4.89692E-5
dan : 9.79384E-5
solidli : 4.89692E-5
hit : 2.693306E-4
major : 5.1417656E-4
interrupt : 4.89692E-5
bear : 1.2242299E-4
consider : 4.1623818E-4
delink : 4.89692E-5
bean : 8.079918E-4
group : 4.6520738E-4
obtain : 1.469076E-4
suppos : 1.2242299E-4
island : 4.89692E-5
resist : 2.693306E-4
dampen : 4.89692E-5
tree : 4.89692E-5
particular : 7.34538E-5
chaco : 1.2242299E-4
done : 2.4484599E-4
water : 7.34538E-5
twice : 1.469076E-4
friendli : 9.79384E-5
higashi : 7.34538E-5
discriminatori : 7.34538E-5
soar : 7.34538E-5
exchang : 2.203614E-4
achiev : 7.34538E-5
request : 9.79384E-5
glickman : 2.938152E-4
adequ : 1.2242299E-4
procedur : 9.79384E-5
incom : 4.8969197E-4
part : 5.386612E-4
novemb : 1.469076E-4
percent : 9.79384E-5
point : 9.059302E-4
coars : 1.469076E-4
sunshin : 4.89692E-5
east : 9.79384E-5
pari : 9.79384E-5
ltd : 7.34538E-5
facil : 9.79384E-5
process : 1.469076E-4
feedgrain : 2.938152E-4
clear : 1.469076E-4
eighti : 4.89692E-5
meal : 4.6520738E-4
third : 4.8969197E-4
dramat : 4.89692E-5
mean : 2.938152E-4
neither : 9.79384E-5
cooper : 4.89692E-5
further : 1.958768E-4
account : 4.407228E-4
lui : 1.713922E-4
been : 4.89692E-5
recov : 1.2242299E-4
japanes : 6.855688E-4
addit : 9.79384E-5
paralys : 4.89692E-5
mostli : 4.89692E-5
bind : 7.34538E-5
trip : 4.89692E-5
mcneil : 4.89692E-5
record : 0.0010038685
killen : 4.89692E-5
nervou : 9.79384E-5
chicago : 0.0012242299
jump : 4.89692E-5
cuba : 4.89692E-5
happen : 4.89692E-5
pass : 1.469076E-4
past : 2.4484599E-4
burnham : 4.89692E-5
impact : 1.469076E-4
bill : 0.0012487145
especi : 1.469076E-4
percentag : 4.89692E-5
cours : 1.469076E-4
buyer : 3.6726898E-4
mill : 1.469076E-4
senior : 2.4484599E-4
enthusiasm : 7.34538E-5
balletto : 2.203614E-4
juli : 1.713922E-4
paso : 4.89692E-5
milder : 7.34538E-5
preserv : 7.34538E-5
organ : 9.79384E-5
hog : 7.34538E-5
troubl : 4.89692E-5
soil : 4.89692E-5
corpor : 9.79384E-5
pursu : 7.34538E-5
interior : 4.89692E-5
releas : 2.4484599E-4
spark : 9.79384E-5
term : 1.2242299E-4
regul : 7.34538E-5
right : 9.79384E-5
march : 0.0022280985
opposit : 1.713922E-4
amsol : 4.89692E-5
blast : 4.89692E-5
minn : 7.34538E-5
reuter : 0.0016894373
june : 2.693306E-4
meet : 9.5489935E-4
answer : 7.34538E-5
thursdai : 7.34538E-5
maximum : 9.79384E-5
inch : 4.89692E-5
under : 2.203614E-4
quarter : 2.693306E-4
london : 4.89692E-5
reserv : 1.2242299E-4
figuerra : 1.713922E-4
bulgaria : 4.89692E-5
moscow : 2.4484599E-4
down : 1.2242299E-4
hold : 1.2242299E-4
convinc : 1.713922E-4
later : 1.958768E-4
prior : 2.4484599E-4
grosso : 1.469076E-4
livestock : 4.89692E-5
rubber : 9.79384E-5
bracket : 2.203614E-4
forgotten : 7.34538E-5
talk : 6.1211496E-4
signal : 1.469076E-4
richard : 2.203614E-4
ralph : 4.89692E-5
subproduct : 2.4484599E-4
prematur : 7.34538E-5
hrw : 1.958768E-4
brown : 4.89692E-5
take : 3.6726898E-4
month : 0.0012242299
cochran : 1.2242299E-4
final : 7.34538E-5
octob : 4.89692E-5
some : 1.469076E-4
loan : 0.0037706282
virtual : 7.34538E-5
rather : 2.693306E-4
session : 7.34538E-5
entr : 9.79384E-5
back : 3.917536E-4
amstutz : 6.1211496E-4
edibl : 1.2242299E-4
bach : 4.89692E-5
compani : 1.469076E-4
underli : 4.89692E-5
santa : 2.938152E-4
miss : 9.79384E-5
solv : 7.34538E-5
load : 1.958768E-4
soyfood : 4.89692E-5
bite : 7.34538E-5
stabl : 9.79384E-5
asid : 4.89692E-5
sole : 9.79384E-5
sold : 1.958768E-4
coupl : 9.79384E-5
asia : 1.2242299E-4
custom : 4.89692E-5
und : 3.6726898E-4
dlr : 0.002007737
unc : 7.835072E-4
grand : 1.2242299E-4
advers : 4.89692E-5
impend : 4.89692E-5
condit : 4.407228E-4
unpreced : 4.89692E-5
although : 1.469076E-4
interpret : 7.34538E-5
tommi : 4.89692E-5
relat : 1.958768E-4
strictli : 4.89692E-5
toledo : 8.814456E-4
lunch : 1.469076E-4
upland : 7.34538E-5
hope : 4.407228E-4
elsewher : 4.89692E-5
attempt : 1.2242299E-4
artifici : 7.34538E-5
soon : 3.427844E-4
america : 2.938152E-4
influenc : 9.79384E-5
gramm : 7.34538E-5
supplier : 9.79384E-5
fishoil : 4.89692E-5
lock : 1.469076E-4
action : 2.938152E-4
fear : 1.469076E-4
shultz : 1.958768E-4
margarin : 1.2242299E-4
creat : 7.34538E-5
incent : 1.2242299E-4
belt : 2.4484599E-4
made : 5.386612E-4
mario : 4.89692E-5
protest : 7.34538E-5
texa : 1.2242299E-4
bell : 4.89692E-5
manag : 7.34538E-5
purchas : 0.0011997453
afford : 1.469076E-4
field : 2.4484599E-4
singl : 7.34538E-5
catarina : 4.89692E-5
britain : 1.469076E-4
enrol : 0.0012487145
natur : 9.79384E-5
bandi : 9.79384E-5
summer : 3.1829978E-4
eight : 1.469076E-4
robert : 7.34538E-5
mai : 0.002081191
known : 7.34538E-5
stream : 7.34538E-5
member : 4.8969197E-4
commiss : 4.89692E-5
stand : 1.713922E-4
surround : 7.34538E-5
mar : 1.958768E-4
heavi : 3.427844E-4
stanc : 4.89692E-5
independ : 4.89692E-5
variou : 7.34538E-5
within : 1.958768E-4
could : 0.0012242299
forward : 1.958768E-4
strike : 4.89692E-5
urg : 1.713922E-4
rental : 1.469076E-4
prospect : 2.693306E-4
probabl : 2.4484599E-4
return : 1.713922E-4
cheaper : 1.469076E-4
subject : 9.79384E-5
soyoil : 1.958768E-4
feel : 2.203614E-4
edward : 7.34538E-5
main : 1.958768E-4
bail : 9.79384E-5
convent : 4.89692E-5
find : 2.4484599E-4
commun : 2.4484599E-4
dri : 7.34538E-5
grain : 0.002007737
credit : 9.79384E-5
alter : 1.469076E-4
ideal : 4.89692E-5
sorg : 7.34538E-5
difficult : 9.79384E-5
dry : 1.469076E-4
nippon : 7.34538E-5
fill : 4.89692E-5
seriou : 1.2242299E-4
heart : 4.89692E-5
lawmak : 7.34538E-5
feed : 2.203614E-4
clayton : 9.79384E-5
guarante : 1.958768E-4
servic : 1.469076E-4
kleckner : 7.34538E-5
hertz : 7.34538E-5
specialist : 1.2242299E-4
background : 4.89692E-5
true : 1.469076E-4
nonetheless : 7.34538E-5
present : 9.79384E-5
bumper : 4.89692E-5
nakamura : 7.34538E-5
strife : 1.469076E-4
best : 4.89692E-5
execut : 4.89692E-5
hour : 7.34538E-5
hous : 2.938152E-4
bale : 6.3659955E-4
barlei : 1.958768E-4
met : 1.469076E-4
make : 9.5489935E-4
capit : 2.203614E-4
spokesman : 2.693306E-4
competit : 8.079918E-4
compound : 1.713922E-4
soyabean : 1.469076E-4
brly : 7.34538E-5
due : 0.0011997453
maiz : 7.3453796E-4
domest : 2.938152E-4
underlin : 1.469076E-4
threat : 7.34538E-5
princip : 4.89692E-5
inform : 7.34538E-5
depend : 1.469076E-4
sown : 5.876304E-4
commit : 4.1623818E-4
about : 4.89692E-5
danger : 7.34538E-5
prudenti : 4.89692E-5
cover : 2.203614E-4
firm : 1.469076E-4
rudman : 7.34538E-5
bank : 4.89692E-5
reflect : 1.2242299E-4
stick : 1.713922E-4
maclain : 4.89692E-5
august : 3.1829978E-4
congression : 1.469076E-4
madigan : 9.79384E-5
ministri : 3.427844E-4
benefit : 7.34538E-5
flood : 1.958768E-4
highest : 9.79384E-5
richco : 4.89692E-5
intransig : 1.469076E-4
declar : 4.89692E-5
except : 1.713922E-4
predomin : 4.89692E-5
grower : 8.079918E-4
rudi : 7.34538E-5
qualiti : 9.79384E-5
fact : 1.2242299E-4
debat : 1.469076E-4
vigor : 4.89692E-5
monthli : 4.89692E-5
mid : 2.203614E-4
global : 7.34538E-5
long : 2.4484599E-4
announc : 4.407228E-4
soyb : 9.79384E-5
fell : 4.8969197E-4
indebt : 4.89692E-5
oconn : 7.34538E-5
cedar : 4.89692E-5
soya : 4.89692E-5
unless : 7.34538E-5
excess : 7.34538E-5
industri : 3.427844E-4
free : 1.713922E-4
mix : 1.2242299E-4
though : 1.958768E-4
polit : 7.34538E-5
dimish : 7.34538E-5
commerc : 4.89692E-5
appear : 4.407228E-4
face : 2.4484599E-4
glut : 4.89692E-5
abandon : 7.34538E-5
progress : 1.713922E-4
oper : 3.917536E-4
mani : 3.6726898E-4
open : 1.958768E-4
ratio : 3.6726898E-4
stai : 1.713922E-4
tripl : 7.34538E-5
linse : 9.79384E-5
seller : 1.469076E-4
monei : 1.469076E-4
rapid : 9.79384E-5
seven : 3.917536E-4
project : 1.469076E-4
decoupl : 4.1623818E-4
sunflowerse : 2.203614E-4
ico : 9.79384E-5
sever : 2.4484599E-4
retaliatori : 7.34538E-5
california : 4.89692E-5
tobacco : 1.713922E-4
barg : 1.2242299E-4
maiea : 4.89692E-5
five : 2.938152E-4
crusher : 4.8969197E-4
endors : 1.2242299E-4
look : 6.1211496E-4
mln : 0.0063170264
repres : 6.1211496E-4
coconut : 1.2242299E-4
idl : 1.469076E-4
korea : 1.713922E-4
netherland : 1.2242299E-4
lubbock : 1.958768E-4
inspect : 5.1417656E-4
committ : 7.34538E-5
campaign : 7.34538E-5
allow : 3.1829978E-4
defer : 4.89692E-5
arriv : 7.34538E-5
seattl : 3.1829978E-4
commerci : 4.89692E-5
proper : 4.89692E-5
rule : 4.89692E-5
everi : 9.79384E-5
summari : 2.4484599E-4
common : 7.34538E-5
interest : 3.427844E-4
appli : 7.34538E-5
gulf : 0.0010283531
certainti : 7.34538E-5
commod : 5.386612E-4
presid : 5.386612E-4
middl : 1.2242299E-4
sunoil : 4.89692E-5
isao : 4.89692E-5
canari : 4.89692E-5
milton : 4.89692E-5
comment : 1.958768E-4
step : 2.4484599E-4
basi : 4.407228E-4
excit : 1.2242299E-4
mark : 4.89692E-5
base : 2.4484599E-4
indiana : 1.469076E-4
registr : 3.427844E-4
septemb : 2.4484599E-4
minist : 1.469076E-4
trend : 7.34538E-5
senat : 1.469076E-4
venezuela : 1.958768E-4
agricultur : 0.0023505215
loss : 1.2242299E-4
vulner : 9.79384E-5
critic : 2.4484599E-4
cigra : 4.89692E-5
price : 0.0035502668
fluegel : 1.2242299E-4
groundnut : 7.34538E-5
profession : 9.79384E-5
still : 4.1623818E-4
work : 3.6726898E-4
mpl : 2.203614E-4
hesit : 7.34538E-5
declin : 9.5489935E-4
wors : 1.713922E-4
fail : 7.34538E-5
toward : 7.34538E-5
among : 9.79384E-5
discourag : 9.79384E-5
mato : 7.34538E-5
spain : 1.469076E-4
steep : 4.89692E-5
republican : 1.2242299E-4
impos : 9.79384E-5
requir : 7.1005337E-4
foreign : 3.917536E-4
across : 1.2242299E-4
fall : 6.3659955E-4
decreas : 2.203614E-4
lubbck : 1.713922E-4
event : 9.79384E-5
minneapoli : 9.79384E-5
uruaguai : 4.89692E-5
graze : 7.34538E-5
loui : 1.469076E-4
appropri : 1.2242299E-4
agenda : 1.2242299E-4
agenc : 1.469076E-4
cannot : 1.958768E-4
averag : 0.0010038685
first : 2.938152E-4
midmississippi : 7.34538E-5
prefer : 4.89692E-5
gambl : 7.34538E-5
lambert : 4.89692E-5
alleg : 7.34538E-5
tight : 7.34538E-5
permament : 4.89692E-5
veg : 9.79384E-5
from : 7.34538E-5
stagnat : 9.79384E-5
depart : 0.0010773224
spell : 9.79384E-5
offset : 1.958768E-4
seneca : 1.958768E-4
ill : 9.79384E-5
anticip : 9.79384E-5
provision : 4.89692E-5
poitou : 4.89692E-5
manuel : 1.2242299E-4
winter : 1.469076E-4
eep : 7.34538E-5
public : 4.89692E-5
track : 6.1211496E-4
inc : 4.1623818E-4
grave : 9.79384E-5
overal : 1.2242299E-4
spent : 4.89692E-5
trader : 4.1623818E-4
heaviest : 4.89692E-5
humid : 7.34538E-5
improv : 9.79384E-5
instead : 1.958768E-4
jack : 4.89692E-5
unlik : 1.713922E-4
trade : 0.0014935605
repai : 7.34538E-5
round : 9.79384E-5
growth : 1.713922E-4
controversi : 4.89692E-5
properli : 4.89692E-5
refus : 7.34538E-5
year : 0.006047696
defici : 1.2242299E-4
dutch : 9.79384E-5
temporari : 7.34538E-5
substanti : 4.89692E-5
permiss : 4.89692E-5
poor : 4.89692E-5
quota : 1.713922E-4
volum : 8.814456E-4
farm : 0.0011507762
near : 1.2242299E-4
newslett : 2.4484599E-4
agreement : 7.1005337E-4
raw : 9.79384E-5
sunflow : 5.631458E-4
redempt : 7.34538E-5
conserv : 3.6726898E-4
cocoa : 1.958768E-4
staunch : 4.89692E-5
stop : 9.79384E-5
guess : 2.938152E-4
handl : 7.34538E-5
detail : 7.34538E-5
oversold : 9.79384E-5
southern : 1.958768E-4
fate : 4.89692E-5
least : 1.469076E-4
pork : 4.89692E-5
dollar : 7.34538E-5
measur : 2.203614E-4
machin : 7.34538E-5
close : 2.4484599E-4
meyer : 1.958768E-4
abl : 9.79384E-5
materi : 9.79384E-5
fast : 4.89692E-5
mandat : 7.34538E-5
cordoba : 4.6520738E-4
exce : 7.34538E-5
uncertainti : 9.79384E-5
dauster : 4.89692E-5
nine : 1.469076E-4
branpol : 7.34538E-5
duluth : 3.6726898E-4
farmland : 1.958768E-4
agpm : 7.34538E-5
specif : 9.79384E-5
red : 1.2242299E-4
spring : 9.79384E-5
acr : 0.0045051663
act : 1.469076E-4
post : 1.469076E-4
rel : 2.203614E-4
insecticid : 7.34538E-5
finish : 7.34538E-5
rep : 1.469076E-4
georg : 7.34538E-5
add : 1.2242299E-4
chines : 2.693306E-4
initi : 4.89692E-5
need : 6.855688E-4
steadili : 1.958768E-4
erupt : 7.34538E-5
equival : 7.34538E-5
els : 7.34538E-5
respect : 1.469076E-4
transact : 9.79384E-5
canada : 1.958768E-4
port : 7.34538E-5
altern : 7.34538E-5
isol : 7.34538E-5
washington : 8.3247636E-4
breakdown : 4.8969197E-4
consequ : 7.34538E-5
prevent : 9.79384E-5
overnight : 4.89692E-5
stretch : 4.89692E-5
accomplish : 4.89692E-5
attitud : 9.79384E-5
end : 7.590226E-4
bullet : 4.89692E-5
benefici : 4.89692E-5
modifi : 7.34538E-5
particip : 4.1623818E-4
veget : 4.6520738E-4
rich : 4.89692E-5
northeast : 9.79384E-5
anyth : 1.2242299E-4
howev : 3.427844E-4
rice : 7.835072E-4
estim : 0.00213016
special : 7.34538E-5
forum : 7.34538E-5
agre : 2.203614E-4
numer : 4.89692E-5
contempl : 7.34538E-5
sensit : 7.34538E-5
specul : 1.469076E-4
told : 8.079918E-4
challeng : 1.2242299E-4
ago : 0.0026443368
ffcop : 4.89692E-5
jerri : 4.89692E-5
toll : 7.34538E-5
retali : 4.407228E-4
number : 3.427844E-4
slightli : 2.203614E-4
identifi : 1.2242299E-4
soyproduct : 9.79384E-5
outbreak : 1.2242299E-4
rio : 2.693306E-4
similar : 7.34538E-5
tough : 4.89692E-5
system : 2.938152E-4
agribusi : 4.89692E-5
spot : 2.4484599E-4
driven : 4.89692E-5
issu : 5.1417656E-4
aid : 4.1623818E-4
partial : 1.958768E-4
anyon : 4.89692E-5
other : 1.958768E-4
air : 7.835072E-4
tonn : 0.010552863
pyrene : 4.89692E-5
local : 4.89692E-5
crude : 4.89692E-5
defeat : 2.203614E-4
assum : 7.34538E-5
yield : 0.0013221684
share : 1.2242299E-4
speak : 3.427844E-4
optimist : 4.89692E-5
deficit : 4.89692E-5
tender : 1.2242299E-4
corrient : 7.34538E-5
chairman : 3.1829978E-4
uruguai : 1.469076E-4
bushel : 0.0030850596
boat : 1.713922E-4
sharp : 1.2242299E-4
notic : 4.89692E-5
surpris : 9.79384E-5
standstil : 7.34538E-5
citi : 1.469076E-4
slip : 7.34538E-5
movement : 4.6520738E-4
cent : 5.386612E-4
honor : 4.89692E-5
neg : 7.34538E-5
insect : 4.89692E-5
implicitli : 4.89692E-5
bureau : 1.958768E-4
net : 4.89692E-5
oblig : 9.79384E-5
belgium : 1.713922E-4
all : 9.79384E-5
border : 7.34538E-5
new : 8.5696095E-4
took : 1.469076E-4
evansvil : 4.1623818E-4
rapese : 1.2242299E-4
below : 7.34538E-5
todai : 9.3041477E-4
choos : 9.79384E-5
real : 4.89692E-5
unit : 2.203614E-4
alreadi : 9.79384E-5
villan : 2.693306E-4
therefor : 4.89692E-5
torn : 4.89692E-5
shame : 1.2242299E-4
around : 3.6726898E-4
villanueva : 7.34538E-5
favour : 9.79384E-5
roi : 4.89692E-5
badli : 1.469076E-4
poultri : 4.89692E-5
resolv : 2.4484599E-4
and : 1.713922E-4
vengeanc : 1.469076E-4
ration : 9.79384E-5
rot : 1.469076E-4
predict : 2.4484599E-4
row : 7.34538E-5
aldo : 4.89692E-5
dump : 4.89692E-5
haven : 1.469076E-4
financ : 1.469076E-4
egypt : 4.89692E-5
tackl : 9.79384E-5
oilse : 7.590226E-4
transport : 9.79384E-5
strategi : 4.89692E-5
dedic : 4.89692E-5
robbin : 4.89692E-5
committe : 4.6520738E-4
previou : 3.917536E-4
estat : 4.89692E-5
storag : 9.79384E-5
reason : 3.6726898E-4
thought : 1.469076E-4
maintain : 2.693306E-4
turkei : 4.89692E-5
shift : 2.203614E-4
ship : 1.469076E-4
simultan : 4.89692E-5
johnson : 1.469076E-4
nil : 7.1005337E-4
compon : 7.34538E-5
cake : 1.2242299E-4
protein : 4.89692E-5
annual : 4.1623818E-4
english : 7.34538E-5
zealand : 4.89692E-5
apr : 2.203614E-4
margin : 4.6520738E-4
broke : 7.34538E-5
circumst : 1.713922E-4
remain : 4.407228E-4
reed : 7.34538E-5
demand : 5.631458E-4
testifi : 7.34538E-5
rotat : 1.2242299E-4
jitter : 7.34538E-5
slow : 2.693306E-4
grade : 4.89692E-5
letter : 7.34538E-5
unsurpass : 4.89692E-5
denman : 9.79384E-5
tactic : 7.34538E-5
worth : 1.469076E-4
tropic : 4.89692E-5
taken : 1.958768E-4
came : 7.34538E-5
where : 7.34538E-5
broader : 4.89692E-5
dilemna : 1.2242299E-4
vice : 1.2242299E-4
balanc : 1.469076E-4
asa : 6.610842E-4
tour : 1.2242299E-4
asc : 1.2242299E-4
call : 1.958768E-4
ask : 5.876304E-4
dilemma : 1.2242299E-4
through : 9.79384E-5
oppos : 4.407228E-4
florida : 7.34538E-5
run : 1.469076E-4
inflationari : 4.89692E-5
enact : 9.79384E-5
larri : 4.89692E-5
refin : 4.89692E-5
research : 4.89692E-5
reorgan : 1.713922E-4
either : 7.34538E-5
view : 1.713922E-4
amarillo : 1.2242299E-4
shortag : 7.34538E-5
white : 4.89692E-5
mercado : 4.89692E-5
thailand : 1.2242299E-4
portland : 7.34538E-5
huge : 4.89692E-5
housew : 1.713922E-4
those : 4.89692E-5
discov : 7.34538E-5
difficulti : 9.79384E-5
imposs : 7.34538E-5
might : 4.407228E-4
holland : 4.89692E-5
dure : 9.79384E-5
introduc : 3.1829978E-4
privat : 2.203614E-4
consum : 7.34538E-5
reopen : 7.34538E-5
name : 4.89692E-5
worst : 9.79384E-5
crop : 0.0024729446
notabl : 7.34538E-5
next : 3.427844E-4
import : 0.0013221684
submit : 4.89692E-5
mood : 9.79384E-5
abolish : 4.89692E-5
attract : 1.713922E-4
show : 8.079918E-4
focu : 7.34538E-5
disappear : 2.4484599E-4
non : 1.713922E-4
not : 1.713922E-4
central : 1.469076E-4
capac : 7.34538E-5
defend : 7.34538E-5
now : 2.203614E-4
nearli : 7.34538E-5
statement : 1.958768E-4
eshleman : 9.79384E-5
factor : 1.469076E-4
wai : 9.5489935E-4
negoti : 3.1829978E-4
lehman : 4.89692E-5
bonn : 1.2242299E-4
associ : 0.0010528378
europ : 4.89692E-5
war : 7.34538E-5
duti : 9.79384E-5
bond : 4.89692E-5
target : 3.917536E-4
tokyo : 2.203614E-4
deliveri : 8.5696095E-4
what : 1.469076E-4
israel : 4.89692E-5
bonu : 1.713922E-4
rise : 0.0010038685
rye : 9.79384E-5
leader : 5.1417656E-4
kika : 4.89692E-5
rent : 9.79384E-5
significantli : 1.469076E-4
modest : 4.89692E-5
crush : 6.610842E-4
copra : 4.89692E-5
far : 3.917536E-4
fat : 8.814456E-4
nearbi : 1.2242299E-4
cash : 4.8969197E-4
plan : 0.0010773224
greater : 1.713922E-4
case : 2.693306E-4
give : 2.203614E-4
boschwitz : 3.1829978E-4
grainoi : 4.89692E-5
toler : 7.34538E-5
leahi : 4.89692E-5
lowest : 1.713922E-4
signup : 5.1417656E-4
destin : 4.6520738E-4
collaps : 9.79384E-5
studi : 2.203614E-4
consid : 5.631458E-4
subsidi : 5.1417656E-4
futur : 6.3659955E-4
prevail : 4.89692E-5
vongarlem : 7.34538E-5
southeastern : 4.89692E-5
bennett : 3.1829978E-4
muscl : 7.34538E-5
orang : 4.89692E-5
portion : 9.79384E-5
pattern : 7.34538E-5
direct : 7.34538E-5
surplu : 4.6520738E-4
klopfenstein : 7.34538E-5
gain : 3.6726898E-4
labour : 7.34538E-5
arabia : 9.79384E-5
caus : 4.407228E-4
violat : 1.469076E-4
protect : 2.693306E-4
collater : 4.89692E-5
lobbyist : 7.34538E-5
indonesian : 7.34538E-5
janeiro : 4.89692E-5
stress : 1.469076E-4
disput : 1.469076E-4
consumpt : 3.427844E-4
more : 4.89692E-5
wet : 4.89692E-5
kill : 1.469076E-4
great : 1.2242299E-4
morn : 7.34538E-5
mexico : 1.713922E-4
usag : 7.34538E-5
inflat : 7.34538E-5
advanc : 3.917536E-4
certain : 1.713922E-4
alot : 9.79384E-5
spurn : 7.34538E-5
board : 5.386612E-4
feb : 3.6726898E-4
januarid : 7.34538E-5
section : 4.89692E-5
simpli : 1.2242299E-4
rumor : 9.79384E-5
threaten : 4.89692E-5
rain : 0.0014690759
kind : 1.958768E-4
daili : 7.34538E-5
rail : 7.34538E-5
rais : 1.2242299E-4
usda : 0.003182998
both : 1.469076E-4
market : 0.002619852
most : 4.89692E-5
roldan : 9.79384E-5
overhaul : 7.34538E-5
effect : 5.631458E-4
keep : 2.4484599E-4
elev : 1.2242299E-4
cumul : 4.89692E-5
sugar : 9.79384E-5
embarrass : 7.34538E-5
option : 4.6520738E-4
largest : 1.958768E-4
reagan : 9.79384E-5
crucial : 4.89692E-5
continu : 0.0012731991
highlight : 7.34538E-5
along : 2.938152E-4
billion : 6.1211496E-4
reject : 1.958768E-4
sai : 8.5696095E-4
peanut : 1.713922E-4
david : 9.79384E-5
profit : 2.4484599E-4
sao : 4.89692E-5
rest : 1.469076E-4
san : 7.34538E-5
breach : 7.34538E-5
butter : 1.469076E-4
move : 2.4484599E-4
amount : 3.427844E-4
linoil : 4.89692E-5
inadequ : 7.34538E-5
also : 0.0012731991
enough : 1.469076E-4
differ : 2.203614E-4
surpass : 4.89692E-5
afternoon : 7.34538E-5
histor : 7.34538E-5
situat : 7.1005337E-4
favor : 1.958768E-4
fertil : 4.89692E-5
visit : 9.79384E-5
front : 4.89692E-5
hopper : 7.34538E-5
user : 7.34538E-5
approv : 3.1829978E-4
confus : 4.89692E-5
extent : 4.89692E-5
confid : 1.713922E-4
extens : 1.713922E-4
bad : 4.89692E-5
potenti : 2.203614E-4
unwil : 7.34538E-5
bring : 4.89692E-5
complet : 1.958768E-4
bal : 7.34538E-5
ban : 1.2242299E-4
squeez : 9.79384E-5
offer : 0.0012242299
fit : 7.34538E-5
denver : 3.6726898E-4
suffer : 2.4484599E-4
bar : 7.34538E-5
amarlo : 7.34538E-5
fix : 7.34538E-5
complex : 9.79384E-5
rank : 1.2242299E-4
rang : 6.855688E-4
despit : 7.34538E-5
surg : 1.469076E-4
posit : 4.6520738E-4
ad : 0.002497429
grow : 2.203614E-4
sure : 4.89692E-5
formosa : 2.693306E-4
elig : 1.2242299E-4
an : 1.2242299E-4
secur : 4.89692E-5
greatli : 4.89692E-5
saudi : 4.89692E-5
extend : 7.34538E-5
as : 2.693306E-4
at : 2.938152E-4
lyng : 5.386612E-4
constitut : 4.89692E-5
plant : 0.0030360904
brother : 4.89692E-5
hurt : 7.34538E-5
dean : 4.89692E-5
deal : 3.1829978E-4
strong : 1.2242299E-4
prove : 1.713922E-4
scheme : 4.89692E-5
hardlin : 4.89692E-5
affect : 2.203614E-4
rape : 9.79384E-5
sixti : 4.89692E-5
see : 6.610842E-4
domin : 1.958768E-4
subsid : 1.2242299E-4
bu : 3.6726898E-4
by : 1.958768E-4
civil : 4.89692E-5
franc : 7.34538E-5
wheat : 0.002570883
insuffici : 4.89692E-5
panel : 9.79384E-5
sen : 1.2242299E-4
deleg : 5.1417656E-4
plummet : 4.89692E-5
set : 6.610842E-4
unprofit : 7.34538E-5
food : 2.203614E-4
figur : 0.0010528378
ct : 4.89692E-5
partner : 4.89692E-5
borenbosc : 4.89692E-5
river : 7.34538E-5
interview : 1.469076E-4
equiti : 4.89692E-5
jul : 4.89692E-5
de : 9.79384E-5
jun : 7.34538E-5
offic : 1.2242299E-4
emerson : 4.89692E-5
forc : 1.469076E-4
dn : 2.693306E-4
dp : 1.713922E-4
outlin : 1.713922E-4
contact : 7.34538E-5
inclin : 7.34538E-5
wor : 7.34538E-5
ec : 0.0010773224
which : 1.2242299E-4
signific : 1.2242299E-4
abund : 4.89692E-5
she : 4.89692E-5
never : 4.89692E-5
aggress : 2.693306E-4
susan : 4.89692E-5
adjust : 4.407228E-4
fob : 7.34538E-5
activ : 3.427844E-4
western : 1.2242299E-4
debt : 1.2242299E-4
compar : 9.793839E-4
fe : 4.1623818E-4
frame : 1.2242299E-4
compet : 1.469076E-4
indic : 7.835072E-4
delai : 7.34538E-5
origin : 1.469076E-4
deem : 4.89692E-5
huckabi : 7.34538E-5
for : 1.958768E-4
depress : 9.79384E-5
content : 7.34538E-5
hover : 9.79384E-5
overhang : 7.34538E-5
rate : 0.002081191
unfair : 7.34538E-5
cosponsor : 9.79384E-5
gaug : 4.89692E-5
promot : 4.89692E-5
sir : 4.89692E-5
settl : 1.2242299E-4
oat : 2.693306E-4
six : 1.958768E-4
someth : 7.34538E-5
go : 3.427844E-4
gatt : 4.1623818E-4
kept : 7.34538E-5
breed : 4.89692E-5
form : 1.713922E-4
evnsvll : 1.2242299E-4
farmer : 0.0019587679
ha : 4.407228E-4
rainfal : 2.938152E-4
bia : 7.34538E-5
bid : 2.203614E-4
fresh : 9.79384E-5
prompt : 1.713922E-4
he : 3.917536E-4
astonish : 9.79384E-5
withdraw : 7.34538E-5
big : 9.79384E-5
hi : 9.79384E-5
congress : 5.386612E-4
canadian : 4.89692E-5
hr : 1.958768E-4
output : 4.6520738E-4
ski : 7.34538E-5
promis : 1.469076E-4
four : 4.8969197E-4
decemb : 2.693306E-4
midwest : 2.203614E-4
join : 7.34538E-5
decis : 5.876304E-4
promin : 4.89692E-5
if : 2.4484599E-4
french : 1.469076E-4
oct : 4.89692E-5
in : 9.059302E-4
director : 2.203614E-4
termin : 1.713922E-4
lower : 0.0015180452
tomorrow : 2.203614E-4
index : 4.89692E-5
is : 7.34538E-5
it : 5.386612E-4
moistur : 1.2242299E-4
decid : 1.469076E-4
phil : 2.203614E-4
reduct : 6.3659955E-4
supplement : 4.89692E-5
contrast : 9.79384E-5
becam : 4.89692E-5
gave : 2.4484599E-4
parana : 9.79384E-5
john : 7.34538E-5
begin : 3.6726898E-4
valu : 4.6520738E-4
brought : 2.4484599E-4
weekend : 2.693306E-4
optim : 7.34538E-5
customari : 4.89692E-5
ussr : 7.1005337E-4
believ : 2.938152E-4
ethanol : 7.34538E-5
peoria : 6.855688E-4
soymeal : 2.693306E-4
world : 5.386612E-4
kc : 2.693306E-4
slump : 1.2242299E-4
penal : 7.34538E-5
groundnutse : 7.34538E-5
delight : 7.34538E-5
soybean : 0.010797708
bread : 4.89692E-5
side : 1.2242299E-4
frazier : 1.958768E-4
break : 7.34538E-5
itali : 2.4484599E-4
off : 1.958768E-4
la : 4.6520738E-4
lb : 1.713922E-4
report : 0.002693306
expans : 7.34538E-5
lo : 2.4484599E-4
receiv : 1.2242299E-4
sign : 1.469076E-4
cotton : 7.3453796E-4
angel : 4.89692E-5
soi : 9.79384E-5
while : 1.2242299E-4
northern : 1.469076E-4
rupiah : 1.2242299E-4
second : 4.89692E-5
that : 2.4484599E-4
high : 6.1211496E-4
limit : 4.8969197E-4
claim : 7.34538E-5
sow : 5.1417656E-4
brian : 7.34538E-5
mm : 0.0010773224
administr : 5.876304E-4
thad : 7.34538E-5
mo : 7.34538E-5
level : 0.0011997453
author : 0.0011752608
survei : 1.713922E-4
establish : 9.79384E-5
daniel : 9.79384E-5
fritz : 7.34538E-5
expand : 7.34538E-5
dream : 9.79384E-5
precipit : 1.2242299E-4
fiscal : 4.89692E-5
nc : 9.79384E-5
ne : 4.89692E-5
updat : 4.89692E-5
produc : 0.0016894373
legisl : 4.1623818E-4
heat : 7.34538E-5
no : 1.469076E-4
tumbl : 7.34538E-5
switch : 7.34538E-5
head : 1.469076E-4
total : 0.0020322218
oil : 0.0021056756
of : 1.713922E-4
heal : 1.469076E-4
kan : 9.79384E-5
possibl : 3.917536E-4
involv : 1.469076E-4
hear : 5.876304E-4
fight : 7.34538E-5
on : 0.0012976838
blah : 3.917536E-4
durum : 1.2242299E-4
purpos : 1.469076E-4
economist : 2.4484599E-4
lobbi : 1.958768E-4
embark : 7.34538E-5
cross : 4.89692E-5
complianc : 4.89692E-5
control : 1.469076E-4
confer : 2.4484599E-4
highli : 4.89692E-5
pretti : 4.89692E-5
extrem : 7.34538E-5
dormant : 4.89692E-5
matto : 4.89692E-5
offici : 0.0016894373
earth : 7.34538E-5
srw : 1.713922E-4
easier : 7.34538E-5
dominican : 4.89692E-5
nation : 3.917536E-4
delta : 4.89692E-5
stood : 1.469076E-4
environ : 7.34538E-5
vari : 4.89692E-5
damag : 5.631458E-4
strengthen : 7.34538E-5
recent : 3.1829978E-4
varieti : 2.693306E-4
old : 4.89692E-5
them : 7.34538E-5
australia : 1.2242299E-4
thei : 2.938152E-4
accept : 2.203614E-4
edmonton : 4.89692E-5
re : 4.89692E-5
includ : 6.1211496E-4
minut : 4.89692E-5
sub : 7.34538E-5
access : 9.79384E-5
secretari : 6.1211496E-4
seed : 1.2242299E-4
cautiou : 7.34538E-5
nspa : 1.713922E-4
sul : 2.203614E-4
davenport : 4.89692E-5
overproduct : 7.34538E-5
sun : 4.89692E-5
seek : 9.79384E-5
seen : 5.386612E-4
kei : 1.469076E-4
seem : 4.407228E-4
current : 0.001101807
resumpt : 7.34538E-5
seaforth : 4.89692E-5
persist : 7.34538E-5
so : 1.469076E-4
caution : 1.713922E-4
apart : 1.469076E-4
calendar : 2.203614E-4
st : 7.34538E-5
intern : 1.713922E-4
jose : 4.89692E-5
centr : 4.89692E-5
launch : 7.34538E-5
store : 7.34538E-5
closer : 7.34538E-5
confirm : 4.89692E-5
pledg : 7.34538E-5
emerg : 9.79384E-5
bud : 4.89692E-5
pull : 9.79384E-5
increasingli : 4.89692E-5
th : 7.34538E-5
ti : 9.79384E-5
bui : 6.1211496E-4
remov : 9.79384E-5
dealer : 2.693306E-4
counti : 3.917536E-4
assist : 7.34538E-5
to : 3.6726898E-4
fourth : 1.469076E-4
but : 7.1005337E-4
sorghum : 6.3659955E-4
joint : 1.469076E-4
agreeement : 4.89692E-5
expens : 2.938152E-4
buydown : 1.469076E-4
cinci : 1.958768E-4
express : 7.34538E-5
ua : 1.469076E-4
zero : 1.2242299E-4
countri : 9.3041477E-4
sww : 1.713922E-4
unoffici : 4.89692E-5
up : 5.631458E-4
sector : 1.469076E-4
us : 8.079918E-4
usual : 1.469076E-4
solut : 9.79384E-5
dismal : 4.89692E-5
burdensom : 4.89692E-5
nelson : 4.89692E-5
taiwan : 3.917536E-4
recess : 7.34538E-5
brazilian : 4.1623818E-4
ocean : 9.79384E-5
hint : 7.34538E-5
know : 2.4484599E-4
region : 2.693306E-4
vs : 7.34538E-5
support : 0.0012242299
sinc : 5.631458E-4
vt : 7.34538E-5
higher : 5.1417656E-4
libr : 4.89692E-5
drop : 9.059302E-4
brazil : 0.0010038685
econometr : 4.89692E-5
idea : 9.79384E-5
pure : 4.89692E-5
circumv : 7.34538E-5
unchang : 3.427844E-4
we : 0.0010038685
damp : 9.79384E-5
gao : 2.203614E-4
throughout : 4.89692E-5
inventori : 1.469076E-4
choic : 9.79384E-5
normal : 2.203614E-4
slight : 1.2242299E-4
previous : 1.469076E-4
wide : 7.34538E-5
accumul : 4.89692E-5
drought : 2.203614E-4
forego : 4.89692E-5
sourc : 6.610842E-4
melicia : 1.2242299E-4
held : 9.79384E-5
reach : 3.917536E-4
type : 1.958768E-4
april : 9.793839E-4
realis : 7.34538E-5
ernesto : 4.89692E-5
problem : 8.814456E-4
weather : 4.6520738E-4
tighten : 4.89692E-5
between : 4.89692E-5
goal : 1.2242299E-4
contract : 6.3659955E-4
voluntari : 4.89692E-5
come : 3.1829978E-4
push : 1.713922E-4
exist : 1.2242299E-4
panelist : 4.89692E-5
drexel : 4.89692E-5
opportun : 1.2242299E-4
undersecretari : 1.469076E-4
lift : 7.34538E-5
feder : 9.79384E-5
regist : 9.79384E-5
educ : 4.89692E-5
south : 3.917536E-4
testimoni : 4.89692E-5
freight : 1.2242299E-4
our : 4.89692E-5
weak : 1.2242299E-4
out : 1.469076E-4
dart : 4.89692E-5
climat : 1.2242299E-4
flat : 9.79384E-5
hundredweight : 7.34538E-5
induc : 4.89692E-5
get : 3.6726898E-4
maggi : 4.89692E-5
accus : 1.2242299E-4
statist : 7.34538E-5
semi : 7.34538E-5
place : 2.203614E-4
packag : 1.2242299E-4
leav : 1.958768E-4
alwai : 1.2242299E-4
chortl : 7.34538E-5
provoc : 4.89692E-5
sell : 3.6726898E-4
ovr : 1.958768E-4
suggest : 3.917536E-4
thou : 9.79384E-5
observ : 9.79384E-5
lead : 1.713922E-4
fraction : 7.34538E-5
expect : 0.0018118604
help : 2.693306E-4
sunlight : 4.89692E-5
assess : 7.34538E-5
self : 4.89692E-5
revis : 2.693306E-4
minimum : 7.34538E-5
date : 1.2242299E-4
unequivoc : 4.89692E-5
tuesdai : 7.34538E-5
reveal : 9.79384E-5
corp : 7.34538E-5
corn : 0.0033299054
norf : 3.917536E-4
sound : 4.89692E-5
own : 4.89692E-5
argentina : 2.203614E-4
acreag : 0.0018118604
plain : 7.34538E-5
divers : 4.89692E-5
hagu : 9.79384E-5
should : 7.34538E-5
econom : 2.4484599E-4
portug : 1.469076E-4
upcom : 9.79384E-5
like : 9.5489935E-4
maxim : 4.89692E-5
onli : 1.958768E-4
embassi : 1.469076E-4
tax : 0.0021546448
sent : 1.2242299E-4
loewi : 9.79384E-5
council : 2.4484599E-4
person : 7.34538E-5
jorio : 4.89692E-5
ground : 1.713922E-4
temperatur : 3.427844E-4
here : 7.34538E-5
note : 4.6520738E-4
dave : 4.89692E-5
week : 0.0041134125
line : 7.34538E-5
noth : 1.2242299E-4
deliv : 9.79384E-5
scale : 4.89692E-5
provis : 3.1829978E-4
becom : 9.79384E-5
award : 1.2242299E-4
cap : 1.2242299E-4
satisfi : 4.89692E-5
flex : 7.34538E-5
cypru : 7.34538E-5
februari : 5.1417656E-4
cincinnati : 5.631458E-4
said : 0.02411733
provid : 5.1417656E-4
realli : 9.79384E-5
greatest : 7.34538E-5
cost : 8.814456E-4
sept : 7.34538E-5
will : 1.713922E-4
readi : 7.34538E-5
intens : 2.203614E-4
versu : 1.2242299E-4
follow : 5.631458E-4
intent : 2.938152E-4
stockton : 2.693306E-4
cbt : 1.958768E-4
york : 9.79384E-5
brussel : 1.469076E-4
intend : 1.713922E-4
