0.0014019101025146764
extent : 1.2771935E-4
recov : 1.2771935E-4
half : 1.7029248E-4
extens : 8.514624E-5
refus : 2.1286559E-4
year : 6.385968E-4
govern : 1.7029248E-4
bring : 1.7029248E-4
addit : 1.7029248E-4
germanium : 1.7029248E-4
ban : 2.9801184E-4
without : 8.514624E-5
nationalist : 8.514624E-5
rand : 1.7029248E-4
temporari : 2.554387E-4
bar : 8.514624E-5
algier : 8.514624E-5
would : 7.6631614E-4
complex : 1.2771935E-4
approxim : 1.2771935E-4
rang : 8.514624E-5
subsidiari : 3.8315807E-4
posit : 2.9801184E-4
ad : 6.811699E-4
vein : 8.514624E-5
agreement : 2.1286559E-4
pass : 5.5345055E-4
bill : 1.7029248E-4
an : 1.2771935E-4
secur : 8.514624E-5
ralli : 1.7029248E-4
ap : 8.514624E-5
valdosta : 8.514624E-5
util : 3.4058496E-4
left : 1.7029248E-4
plant : 1.7029248E-4
juli : 2.1286559E-4
feasabl : 1.2771935E-4
hurt : 1.7029248E-4
much : 8.514624E-5
organ : 2.9801184E-4
southern : 1.2771935E-4
strong : 8.514624E-5
deal : 2.9801184E-4
role : 2.1286559E-4
scheme : 1.7029248E-4
enquiri : 2.554387E-4
consolid : 8.514624E-5
corpor : 8.514624E-5
miner : 3.8315807E-4
dollar : 8.514624E-5
gold : 3.4058496E-4
result : 7.6631614E-4
forese : 8.514624E-5
see : 8.514624E-5
vancouv : 8.514624E-5
releas : 2.9801184E-4
franc : 8.514624E-5
national : 8.514624E-5
measur : 8.514624E-5
term : 1.7029248E-4
quicksilv : 2.9801184E-4
close : 2.554387E-4
foot : 8.514624E-5
mine : 0.001064328
a : 3.4058496E-4
chip : 3.4058496E-4
c : 2.9801184E-4
set : 2.1286559E-4
salt : 1.2771935E-4
d : 8.514624E-5
apartheid : 2.9801184E-4
sex : 8.514624E-5
g : 1.7029248E-4
h : 8.514624E-5
j : 8.514624E-5
union : 4.6830432E-4
co : 8.514624E-5
m : 8.514624E-5
march : 5.960237E-4
soviet : 2.9801184E-4
figur : 1.7029248E-4
enof : 5.5345055E-4
the : 0.0017029247
reuter : 2.1286559E-4
ct : 1.2771935E-4
sale : 8.088893E-4
r : 1.7029248E-4
s : 3.4058496E-4
june : 8.514624E-5
meet : 4.6830432E-4
u : 0.0011920474
w : 1.2771935E-4
spin : 1.7029248E-4
y : 1.2771935E-4
grumman : 1.2771935E-4
under : 1.2771935E-4
mina : 1.2771935E-4
quarter : 1.7029248E-4
arrayan : 8.514624E-5
discuss : 1.2771935E-4
thu : 8.514624E-5
de : 1.7029248E-4
london : 8.514624E-5
forc : 2.9801184E-4
down : 2.9801184E-4
good : 4.2573118E-4
parti : 1.2771935E-4
hold : 5.5345055E-4
specif : 8.514624E-5
acr : 3.8315807E-4
act : 1.2771935E-4
later : 1.2771935E-4
rare : 3.8315807E-4
algerian : 2.554387E-4
tin : 8.514624E-5
serious : 8.514624E-5
sampl : 1.2771935E-4
implement : 1.2771935E-4
talk : 2.1286559E-4
export : 5.108774E-4
ec : 2.9801184E-4
area : 3.8315807E-4
add : 2.9801184E-4
accompani : 1.7029248E-4
practic : 2.1286559E-4
initi : 8.514624E-5
test : 1.2771935E-4
need : 1.2771935E-4
european : 2.1286559E-4
textil : 2.9801184E-4
reduc : 1.2771935E-4
jail : 8.514624E-5
zambia : 1.7029248E-4
arsenid : 8.514624E-5
et : 8.514624E-5
substanc : 8.514624E-5
take : 3.8315807E-4
sand : 1.2771935E-4
risen : 1.2771935E-4
soweto : 8.514624E-5
month : 3.8315807E-4
canada : 8.514624E-5
zambian : 1.2771935E-4
fob : 8.514624E-5
octob : 8.514624E-5
injur : 1.7029248E-4
ferreux : 8.514624E-5
western : 8.514624E-5
washington : 2.1286559E-4
cie : 8.514624E-5
compar : 1.7029248E-4
some : 8.514624E-5
indic : 1.2771935E-4
harm : 1.2771935E-4
treasuri : 6.811699E-4
origin : 2.1286559E-4
compani : 5.960237E-4
calif : 8.514624E-5
famili : 2.554387E-4
mistaken : 8.514624E-5
ft : 3.8315807E-4
hover : 8.514624E-5
sanction : 2.9801184E-4
houston : 2.9801184E-4
regulatori : 8.514624E-5
end : 6.811699E-4
ga : 8.514624E-5
nuclear : 8.514624E-5
live : 1.7029248E-4
owner : 1.2771935E-4
pct : 0.0023415217
sold : 2.1286559E-4
spanish : 1.2771935E-4
pilot : 8.514624E-5
six : 8.514624E-5
manufactur : 1.2771935E-4
custom : 1.2771935E-4
gq : 8.514624E-5
congressmen : 1.2771935E-4
dlr : 4.2573118E-4
jesu : 8.514624E-5
energi : 1.7029248E-4
estim : 2.554387E-4
oxid : 0.0011069011
rehabilit : 8.514624E-5
hole : 8.514624E-5
better : 1.2771935E-4
special : 8.514624E-5
condit : 2.1286559E-4
togeth : 8.514624E-5
although : 2.1286559E-4
agre : 2.554387E-4
complaint : 1.7029248E-4
micro : 1.7029248E-4
publish : 1.7029248E-4
interpret : 1.7029248E-4
permit : 1.2771935E-4
iron : 2.1286559E-4
gate : 1.2771935E-4
he : 2.1286559E-4
pocket : 8.514624E-5
crowd : 8.514624E-5
congress : 7.2374305E-4
challeng : 1.2771935E-4
told : 8.514624E-5
charter : 8.514624E-5
canadian : 8.514624E-5
properti : 8.5146236E-4
ago : 1.2771935E-4
convers : 8.514624E-5
output : 8.514624E-5
action : 2.554387E-4
almaden : 2.9801184E-4
join : 2.1286559E-4
decis : 1.7029248E-4
per : 5.108774E-4
zinc : 3.8315807E-4
propos : 8.940355E-4
similar : 1.7029248E-4
africa : 1.2771935E-4
period : 2.1286559E-4
capabl : 1.2771935E-4
partnership : 8.514624E-5
in : 2.554387E-4
made : 5.960237E-4
lower : 1.7029248E-4
metal : 0.0010217548
it : 5.5345055E-4
protest : 2.1286559E-4
manag : 2.1286559E-4
decid : 1.7029248E-4
system : 1.2771935E-4
underground : 1.2771935E-4
experi : 1.2771935E-4
spot : 1.2771935E-4
singl : 8.514624E-5
silver : 3.8315807E-4
john : 8.514624E-5
doe : 8.514624E-5
bulk : 1.2771935E-4
begin : 1.2771935E-4
issu : 1.7029248E-4
jointli : 8.514624E-5
valu : 1.2771935E-4
natur : 8.514624E-5
queen : 1.2771935E-4
increas : 1.2771935E-4
plate : 8.514624E-5
tonn : 7.6631614E-4
overrid : 1.2771935E-4
believ : 1.7029248E-4
entiti : 8.514624E-5
monopolis : 8.514624E-5
ton : 5.108774E-4
world : 2.1286559E-4
kwacha : 5.5345055E-4
locat : 2.1286559E-4
niobium : 1.2771935E-4
yield : 1.2771935E-4
member : 8.514624E-5
commiss : 4.6830432E-4
share : 2.554387E-4
zirconium : 2.1286559E-4
surround : 8.514624E-5
veto : 6.385968E-4
heavi : 8.514624E-5
specialis : 8.514624E-5
product : 6.811699E-4
within : 8.514624E-5
could : 4.2573118E-4
bought : 8.514624E-5
strike : 2.1286559E-4
zccm : 1.7029248E-4
enterpris : 8.514624E-5
citi : 1.2771935E-4
report : 1.2771935E-4
probabl : 1.2771935E-4
rose : 1.2771935E-4
movement : 2.1286559E-4
thousand : 1.2771935E-4
return : 8.514624E-5
prohibit : 2.1286559E-4
minor : 1.2771935E-4
sign : 1.2771935E-4
feel : 8.514624E-5
manner : 1.2771935E-4
platinum : 1.2771935E-4
high : 8.514624E-5
unabl : 1.2771935E-4
limit : 8.514624E-5
claim : 2.554387E-4
commun : 2.1286559E-4
net : 1.7029248E-4
took : 1.7029248E-4
new : 8.514624E-5
law : 4.2573118E-4
level : 6.811699E-4
author : 2.1286559E-4
bangkok : 1.7029248E-4
establish : 1.7029248E-4
unit : 7.6631614E-4
servic : 6.811699E-4
coal : 2.554387E-4
cadmium : 8.514624E-5
uranium : 0.0013623398
produc : 6.811699E-4
present : 1.2771935E-4
batteri : 8.514624E-5
lake : 1.2771935E-4
gallego : 1.2771935E-4
busi : 1.2771935E-4
unclear : 1.2771935E-4
fridai : 8.514624E-5
best : 8.514624E-5
schedul : 1.2771935E-4
racial : 1.2771935E-4
respons : 1.2771935E-4
around : 8.514624E-5
unpat : 1.2771935E-4
harden : 8.514624E-5
total : 2.554387E-4
hous : 8.514624E-5
and : 8.514624E-5
of : 8.514624E-5
design : 1.2771935E-4
land : 8.514624E-5
dump : 1.7029248E-4
make : 2.1286559E-4
on : 4.2573118E-4
brief : 1.7029248E-4
segreg : 1.2771935E-4
spokesman : 2.1286559E-4
or : 0.0014049129
accord : 1.7029248E-4
indium : 1.2771935E-4
control : 5.108774E-4
oz : 2.1286559E-4
competit : 1.2771935E-4
drill : 2.1286559E-4
comprehens : 1.7029248E-4
metallurg : 1.2771935E-4
pc : 8.514624E-5
previou : 8.514624E-5
domest : 8.514624E-5
offici : 1.7029248E-4
earth : 1.2771935E-4
disclos : 2.554387E-4
nation : 1.2771935E-4
japan : 8.514624E-5
about : 8.514624E-5
cover : 8.514624E-5
firm : 2.1286559E-4
mountain : 2.1286559E-4
reflect : 1.2771935E-4
migrant : 1.7029248E-4
strateg : 1.2771935E-4
pact : 3.4058496E-4
annual : 1.7029248E-4
jar : 1.7029248E-4
state : 0.001064328
delectricit : 1.2771935E-4
worker : 5.108774E-4
press : 8.514624E-5
recent : 8.514624E-5
drift : 1.2771935E-4
august : 1.2771935E-4
congression : 1.2771935E-4
pace : 2.554387E-4
radiat : 8.514624E-5
realiti : 1.7029248E-4
them : 2.554387E-4
demand : 3.4058496E-4
thei : 2.1286559E-4
alcad : 1.7029248E-4
re : 1.2771935E-4
includ : 4.2573118E-4
letter : 1.2771935E-4
declar : 1.2771935E-4
vanadium : 1.7029248E-4
deposit : 1.7029248E-4
madrid : 1.2771935E-4
flask : 1.7029248E-4
suppli : 8.514624E-5
qualiti : 8.514624E-5
penn : 1.2771935E-4
acquir : 1.2771935E-4
cut : 1.2771935E-4
secretari : 8.514624E-5
recommend : 8.514624E-5
acquisit : 1.2771935E-4
two : 3.8315807E-4
announc : 2.554387E-4
worth : 8.514624E-5
fell : 1.7029248E-4
into : 8.514624E-5
current : 8.514624E-5
democrat : 8.514624E-5
unless : 1.2771935E-4
taken : 8.514624E-5
copper : 2.9801184E-4
industri : 0.0012346205
camd : 8.514624E-5
shout : 1.7029248E-4
free : 8.514624E-5
pend : 1.7029248E-4
resourc : 3.8315807E-4
devic : 1.7029248E-4
gram : 1.2771935E-4
black : 2.1286559E-4
safrica : 8.514624E-5
entrepris : 8.514624E-5
emerg : 8.514624E-5
call : 8.514624E-5
increasingli : 8.514624E-5
charg : 1.2771935E-4
mtsr : 8.514624E-5
progress : 2.554387E-4
oper : 4.2573118E-4
fourth : 1.2771935E-4
to : 1.7029248E-4
open : 2.9801184E-4
but : 8.514624E-5
joint : 8.514624E-5
attend : 2.1286559E-4
captur : 8.514624E-5
project : 2.554387E-4
satisfactori : 8.514624E-5
run : 1.7029248E-4
enact : 2.9801184E-4
lynch : 8.514624E-5
zero : 1.2771935E-4
countri : 5.960237E-4
structur : 1.7029248E-4
late : 1.2771935E-4
white : 1.2771935E-4
highveld : 2.1286559E-4
wholli : 1.2771935E-4
thailand : 4.2573118E-4
california : 1.7029248E-4
up : 8.514624E-5
written : 8.514624E-5
five : 1.7029248E-4
us : 2.554387E-4
evalu : 1.2771935E-4
tech : 1.2771935E-4
endors : 8.514624E-5
cater : 1.7029248E-4
last : 5.960237E-4
marathon : 8.514624E-5
might : 1.2771935E-4
istanbul : 1.2771935E-4
felt : 2.554387E-4
weight : 8.514624E-5
nelson : 8.514624E-5
develop : 2.554387E-4
effici : 1.2771935E-4
mln : 3.4058496E-4
repres : 1.2771935E-4
longer : 8.514624E-5
extract : 2.1286559E-4
privat : 1.2771935E-4
ferrou : 8.514624E-5
concentr : 4.6830432E-4
electr : 1.2771935E-4
support : 4.2573118E-4
sinc : 1.7029248E-4
allow : 6.385968E-4
drop : 8.514624E-5
next : 8.514624E-5
import : 0.002171229
commerci : 1.7029248E-4
effort : 1.2771935E-4
non : 1.2771935E-4
central : 1.2771935E-4
capac : 1.2771935E-4
interest : 2.554387E-4
appli : 2.1286559E-4
statement : 1.7029248E-4
factor : 1.7029248E-4
wai : 2.1286559E-4
presid : 1.7029248E-4
negoti : 2.554387E-4
nickel : 8.514624E-5
yen : 8.514624E-5
previous : 8.514624E-5
licens : 1.2771935E-4
start : 2.1286559E-4
gallium : 1.7029248E-4
bond : 1.2771935E-4
tokyo : 8.514624E-5
awai : 1.2771935E-4
fund : 2.554387E-4
african : 7.6631614E-4
financi : 8.514624E-5
comment : 8.514624E-5
seminconductor : 8.514624E-5
base : 1.2771935E-4
leader : 1.2771935E-4
sourc : 8.514624E-5
dominion : 8.514624E-5
held : 8.514624E-5
whole : 8.514624E-5
program : 8.088893E-4
preliminari : 8.514624E-5
april : 4.6830432E-4
consist : 2.1286559E-4
loss : 5.108774E-4
price : 0.0018306441
far : 8.514624E-5
lost : 1.2771935E-4
payment : 1.2771935E-4
roar : 8.514624E-5
plan : 1.2771935E-4
case : 1.7029248E-4
phase : 1.7029248E-4
give : 1.7029248E-4
applic : 1.2771935E-4
still : 1.7029248E-4
work : 8.514624E-5
milpita : 8.514624E-5
minework : 1.2771935E-4
utah : 1.2771935E-4
johannesburg : 8.514624E-5
light : 8.514624E-5
seiz : 1.2771935E-4
explor : 8.514624E-5
quot : 3.8315807E-4
feder : 2.1286559E-4
regist : 8.514624E-5
merril : 8.514624E-5
steel : 3.8315807E-4
engin : 1.7029248E-4
south : 9.3660865E-4
cobalt : 1.2771935E-4
labour : 8.514624E-5
anti : 2.9801184E-4
foreign : 1.7029248E-4
unknown : 8.514624E-5
caus : 1.7029248E-4
fall : 0.0011069011
temporarili : 3.4058496E-4
leas : 2.1286559E-4
place : 1.2771935E-4
power : 8.514624E-5
herrington : 8.514624E-5
railroad : 8.514624E-5
consumpt : 1.2771935E-4
sell : 1.7029248E-4
lead : 1.7029248E-4
expect : 3.4058496E-4
agenc : 2.1286559E-4
storeag : 8.514624E-5
averag : 1.2771935E-4
certain : 1.2771935E-4
minimum : 2.1286559E-4
first : 1.2771935E-4
corp : 2.9801184E-4
hostel : 1.2771935E-4
tachon : 1.7029248E-4
num : 2.554387E-4
own : 1.2771935E-4
alleg : 1.7029248E-4
separ : 8.514624E-5
dai : 1.7029248E-4
divert : 2.1286559E-4
threaten : 1.7029248E-4
enrich : 2.9801184E-4
appar : 8.514624E-5
econom : 8.514624E-5
depart : 2.1286559E-4
replac : 1.2771935E-4
tap : 8.514624E-5
offset : 1.7029248E-4
format : 2.1286559E-4
saft : 2.1286559E-4
tax : 1.2771935E-4
rais : 1.7029248E-4
both : 1.2771935E-4
market : 5.5345055E-4
udf : 1.2771935E-4
turkish : 1.7029248E-4
job : 5.108774E-4
exchang : 1.7029248E-4
appreci : 1.7029248E-4
largest : 1.7029248E-4
request : 8.514624E-5
repair : 2.9801184E-4
sponsor : 1.2771935E-4
note : 1.2771935E-4
week : 3.8315807E-4
adequ : 1.2771935E-4
procedur : 8.514624E-5
arrai : 1.2771935E-4
regret : 1.2771935E-4
titanium : 2.1286559E-4
line : 1.7029248E-4
part : 1.7029248E-4
reactor : 1.2771935E-4
link : 2.554387E-4
continu : 2.1286559E-4
outright : 1.2771935E-4
general : 8.514624E-5
public : 3.4058496E-4
along : 1.2771935E-4
takeov : 2.9801184E-4
parallel : 8.514624E-5
billion : 1.2771935E-4
mercuri : 8.088893E-4
mandela : 1.2771935E-4
sai : 1.2771935E-4
recoveri : 2.554387E-4
said : 0.0067265527
lusaka : 8.514624E-5
profit : 1.7029248E-4
provid : 2.554387E-4
ltd : 1.7029248E-4
inc : 6.811699E-4
wilq : 8.514624E-5
move : 8.514624E-5
process : 8.940355E-4
cost : 4.2573118E-4
will : 2.1286559E-4
assai : 2.1286559E-4
overal : 8.514624E-5
also : 3.8315807E-4
improv : 1.7029248E-4
follow : 2.1286559E-4
situat : 4.6830432E-4
diamond : 1.2771935E-4
third : 1.2771935E-4
earn : 4.6830432E-4
clarif : 2.9801184E-4
front : 8.514624E-5
approv : 1.7029248E-4
brussel : 8.514624E-5
intend : 4.6830432E-4
account : 2.9801184E-4
