9.638131954788399E-4
extent : 1.6320535E-4
lui : 3.264107E-4
bad : 1.2240402E-4
year : 0.0012240402
dutch : 1.2240402E-4
these : 8.160267E-5
paralys : 2.0400669E-4
suffer : 2.4480803E-4
would : 4.488147E-4
record : 0.0012240402
volum : 9.792321E-4
farm : 8.160267E-5
ten : 8.160267E-5
rang : 2.0400669E-4
cuba : 8.160267E-5
ad : 7.752254E-4
grow : 8.160267E-5
pass : 1.2240402E-4
formosa : 5.304174E-4
past : 8.160267E-5
raw : 1.6320535E-4
sunflow : 0.0011424375
especi : 1.6320535E-4
greatli : 8.160267E-5
stop : 2.0400669E-4
plant : 0.0029784977
paso : 8.160267E-5
detail : 8.160267E-5
wind : 8.160267E-5
czechoslovakia : 8.160267E-5
southern : 2.0400669E-4
prove : 2.0400669E-4
affect : 3.264107E-4
underwai : 2.0400669E-4
least : 1.2240402E-4
soil : 1.2240402E-4
result : 1.6320535E-4
rape : 1.6320535E-4
rapesunflow : 8.160267E-5
by : 2.4480803E-4
franc : 1.2240402E-4
wheat : 2.8560936E-4
measur : 1.2240402E-4
term : 8.160267E-5
a : 1.6320535E-4
set : 8.160267E-5
f : 8.160267E-5
h : 1.6320535E-4
alejandro : 8.160267E-5
abl : 1.2240402E-4
march : 4.0801338E-4
amsol : 8.160267E-5
figur : 0.0017544576
the : 0.0018768616
p : 8.160267E-5
materi : 1.6320535E-4
reuter : 8.1602676E-4
halt : 8.160267E-5
fly : 1.6320535E-4
s : 2.4480803E-4
thi : 8.160267E-5
w : 1.6320535E-4
cordoba : 9.792321E-4
y : 6.528214E-4
inch : 8.160267E-5
jul : 8.160267E-5
nine : 3.264107E-4
de : 8.160267E-5
jun : 1.2240402E-4
london : 8.160267E-5
branpol : 1.2240402E-4
picardi : 1.6320535E-4
bulgaria : 8.160267E-5
good : 2.0400669E-4
got : 8.160267E-5
down : 8.160267E-5
agpm : 1.2240402E-4
algerian : 8.160267E-5
bracket : 3.6721205E-4
export : 8.1602676E-4
area : 0.0032233058
shipment : 2.8560936E-4
need : 1.6320535E-4
steadili : 1.2240402E-4
subproduct : 4.0801338E-4
reduc : 5.304174E-4
abund : 8.160267E-5
lack : 1.2240402E-4
month : 1.6320535E-4
isol : 1.6320535E-4
adjust : 2.4480803E-4
western : 2.8560936E-4
fe : 8.568281E-4
compar : 6.9362274E-4
virtual : 8.160267E-5
indic : 2.8560936E-4
delai : 8.160267E-5
origin : 8.160267E-5
breakdown : 2.8560936E-4
entr : 2.0400669E-4
for : 1.2240402E-4
consequ : 1.2240402E-4
santa : 5.712187E-4
load : 8.160267E-5
germani : 8.160267E-5
combin : 2.0400669E-4
await : 8.160267E-5
benefici : 8.160267E-5
pct : 0.0057121874
worsen : 1.2240402E-4
six : 1.2240402E-4
veget : 2.0400669E-4
northeast : 1.6320535E-4
breed : 8.160267E-5
estim : 0.0028560937
with : 8.160267E-5
condit : 2.4480803E-4
although : 2.4480803E-4
there : 1.6320535E-4
permit : 2.4480803E-4
ha : 7.344241E-4
farmer : 1.6320535E-4
rainfal : 6.528214E-4
relat : 1.2240402E-4
fresh : 1.2240402E-4
empti : 2.0400669E-4
corea : 8.160267E-5
ago : 0.0014688482
easili : 2.4480803E-4
ffcop : 8.160267E-5
elsewher : 8.160267E-5
pea : 8.160267E-5
toll : 1.2240402E-4
influenc : 8.160267E-5
ski : 1.2240402E-4
four : 3.6721205E-4
flour : 1.2240402E-4
fishoil : 8.160267E-5
rio : 3.6721205E-4
decemb : 8.160267E-5
french : 2.4480803E-4
fear : 2.4480803E-4
margarin : 8.160267E-5
similar : 1.2240402E-4
period : 2.0400669E-4
fiber : 1.2240402E-4
in : 5.304174E-4
belt : 1.2240402E-4
made : 2.0400669E-4
lower : 0.0012648415
it : 2.8560936E-4
million : 8.160267E-5
field : 3.6721205E-4
even : 1.2240402E-4
contrast : 1.2240402E-4
aid : 1.2240402E-4
begin : 3.264107E-4
weekend : 3.6721205E-4
increas : 2.8560936E-4
air : 0.0016728549
tonn : 0.008323473
resum : 1.2240402E-4
pyrene : 8.160267E-5
eight : 3.264107E-4
machineri : 1.2240402E-4
particularli : 2.0400669E-4
mai : 7.752254E-4
yield : 0.0010200335
slowli : 1.2240402E-4
groundnutse : 1.2240402E-4
mar : 3.264107E-4
heavi : 5.304174E-4
soybean : 0.0014280468
tender : 2.4480803E-4
variou : 8.160267E-5
product : 0.0022440737
bread : 8.160267E-5
within : 1.6320535E-4
could : 3.6721205E-4
corrient : 1.6320535E-4
forward : 4.0801338E-4
uruguai : 2.4480803E-4
itali : 8.160267E-5
standstil : 8.160267E-5
la : 3.264107E-4
report : 2.0400669E-4
meanwhil : 2.0400669E-4
rose : 6.528214E-4
thousand : 1.2240402E-4
lo : 8.160267E-5
overcast : 8.160267E-5
receiv : 8.160267E-5
almost : 8.160267E-5
cotton : 2.0400669E-4
main : 2.0400669E-4
northern : 2.8560936E-4
ly : 1.2240402E-4
high : 2.4480803E-4
earlier : 1.6320535E-4
whether : 2.0400669E-4
find : 2.0400669E-4
west : 2.0400669E-4
sow : 8.568281E-4
dri : 1.2240402E-4
grain : 7.752254E-4
bureau : 8.160267E-5
belgium : 8.160267E-5
mm : 0.002896895
border : 1.2240402E-4
new : 3.264107E-4
took : 8.160267E-5
rapese : 2.0400669E-4
author : 8.568281E-4
dry : 2.4480803E-4
less : 8.1602676E-4
basin : 1.2240402E-4
mision : 2.4480803E-4
were : 2.4480803E-4
villan : 4.488147E-4
governor : 8.160267E-5
produc : 8.1602676E-4
heat : 1.2240402E-4
no : 8.160267E-5
villanueva : 1.6320535E-4
total : 0.0026112855
oil : 0.0012648415
pampa : 4.8961607E-4
and : 8.160267E-5
rot : 2.4480803E-4
charent : 8.160267E-5
make : 1.2240402E-4
on : 2.0400669E-4
accord : 6.9362274E-4
oilse : 3.264107E-4
hectar : 0.002774491
soyabean : 2.4480803E-4
previou : 2.8560936E-4
due : 6.120201E-4
maiz : 0.0014688482
offici : 4.488147E-4
earth : 1.2240402E-4
princip : 8.160267E-5
sown : 9.792321E-4
prev : 3.6721205E-4
figuera : 8.160267E-5
stood : 2.4480803E-4
nil : 0.0011832388
cover : 1.2240402E-4
compon : 1.2240402E-4
vari : 8.160267E-5
damag : 0.0011424375
annual : 8.160267E-5
state : 1.6320535E-4
recent : 2.0400669E-4
yesterdai : 3.264107E-4
apr : 4.0801338E-4
gener : 2.4480803E-4
remain : 2.4480803E-4
pace : 1.2240402E-4
bueno : 0.0010608349
forecast : 0.0014280468
flood : 6.9362274E-4
thei : 1.6320535E-4
benefit : 8.160267E-5
includ : 8.160267E-5
northwestern : 8.160267E-5
anim : 8.160267E-5
grower : 9.384308E-4
suppli : 1.2240402E-4
provinc : 0.0019584643
cut : 3.264107E-4
secretari : 8.160267E-5
pod : 4.488147E-4
mid : 2.0400669E-4
sun : 8.160267E-5
two : 7.752254E-4
long : 1.2240402E-4
seen : 8.160267E-5
fell : 5.304174E-4
soya : 8.160267E-5
current : 2.0400669E-4
excess : 1.2240402E-4
taken : 1.2240402E-4
resumpt : 1.2240402E-4
larg : 8.160267E-5
where : 1.2240402E-4
acceler : 1.2240402E-4
latest : 8.160267E-5
though : 3.264107E-4
centr : 1.6320535E-4
lighter : 1.6320535E-4
dimish : 1.2240402E-4
oilrap : 8.160267E-5
oper : 2.4480803E-4
to : 8.160267E-5
mani : 1.2240402E-4
linse : 1.6320535E-4
but : 1.6320535E-4
sorghum : 8.568281E-4
seven : 5.712187E-4
sunflowerse : 4.0801338E-4
refin : 8.160267E-5
countri : 1.2240402E-4
late : 1.2240402E-4
sector : 2.4480803E-4
five : 5.304174E-4
discov : 1.2240402E-4
actual : 2.8560936E-4
imposs : 1.2240402E-4
last : 0.0016728549
might : 8.160267E-5
holland : 8.160267E-5
weight : 4.8961607E-4
mln : 0.004324942
privat : 2.8560936E-4
region : 3.264107E-4
crop : 0.0019176629
sinc : 2.4480803E-4
higher : 4.0801338E-4
full : 8.160267E-5
notabl : 1.2240402E-4
libr : 8.160267E-5
drop : 2.4480803E-4
allow : 1.2240402E-4
import : 6.528214E-4
show : 2.0400669E-4
steadi : 1.2240402E-4
unchang : 1.2240402E-4
damp : 1.6320535E-4
central : 1.2240402E-4
throughout : 8.160267E-5
commod : 1.2240402E-4
normal : 1.2240402E-4
harvest : 0.0057529886
slight : 1.6320535E-4
argentin : 5.712187E-4
wide : 1.2240402E-4
associ : 1.2240402E-4
sunoil : 8.160267E-5
start : 2.0400669E-4
yet : 2.4480803E-4
earli : 5.304174E-4
target : 1.2240402E-4
canari : 8.160267E-5
fallen : 1.6320535E-4
drought : 2.4480803E-4
chang : 2.0400669E-4
basi : 5.712187E-4
rise : 4.0801338E-4
registr : 5.712187E-4
downward : 2.0400669E-4
sourc : 5.712187E-4
palm : 8.160267E-5
reach : 6.120201E-4
april : 3.6721205E-4
three : 2.0400669E-4
put : 3.264107E-4
agricultur : 8.160267E-5
ernesto : 8.160267E-5
midi : 8.160267E-5
lost : 8.160267E-5
fat : 8.1602676E-4
weather : 4.0801338E-4
season : 0.0013872455
greater : 1.2240402E-4
plan : 1.6320535E-4
groundnut : 1.2240402E-4
still : 3.264107E-4
grainoi : 8.160267E-5
iran : 8.160267E-5
lowest : 1.6320535E-4
destin : 1.2240402E-4
consid : 1.6320535E-4
light : 1.6320535E-4
futur : 8.160267E-5
exact : 8.160267E-5
feder : 8.160267E-5
regist : 1.6320535E-4
judg : 8.160267E-5
spain : 1.2240402E-4
algeria : 1.6320535E-4
south : 2.0400669E-4
januari : 1.6320535E-4
weak : 1.2240402E-4
caus : 2.8560936E-4
fall : 1.2240402E-4
low : 8.160267E-5
induc : 8.160267E-5
place : 2.4480803E-4
leav : 8.160267E-5
more : 8.160267E-5
suggest : 1.2240402E-4
great : 8.160267E-5
expect : 0.0010608349
help : 1.2240402E-4
sunlight : 8.160267E-5
assess : 1.2240402E-4
revis : 2.0400669E-4
averag : 2.8560936E-4
advanc : 5.712187E-4
certain : 8.160267E-5
board : 3.6721205E-4
first : 8.160267E-5
feb : 4.0801338E-4
torrenti : 1.2240402E-4
januarid : 1.2240402E-4
tell : 1.6320535E-4
drum : 8.160267E-5
dai : 2.0400669E-4
hit : 2.8560936E-4
hagu : 8.160267E-5
interrupt : 8.160267E-5
bear : 1.6320535E-4
bean : 1.2240402E-4
rain : 0.0029784977
spell : 1.6320535E-4
like : 1.6320535E-4
island : 8.160267E-5
chaco : 4.0801338E-4
water : 1.2240402E-4
market : 1.2240402E-4
poitou : 8.160267E-5
temperatur : 4.488147E-4
option : 8.160267E-5
week : 0.0022440737
adequ : 1.6320535E-4
armendariz : 8.160267E-5
part : 6.9362274E-4
manuel : 2.4480803E-4
continu : 6.120201E-4
coars : 2.4480803E-4
sunshin : 8.160267E-5
east : 8.160267E-5
februari : 5.712187E-4
said : 0.0035905177
pari : 1.6320535E-4
provid : 8.160267E-5
san : 1.6320535E-4
move : 1.6320535E-4
amount : 1.2240402E-4
linoil : 8.160267E-5
inadequ : 1.2240402E-4
clear : 8.160267E-5
trader : 1.2240402E-4
also : 4.8961607E-4
heaviest : 2.0400669E-4
intens : 2.4480803E-4
enough : 1.6320535E-4
versu : 1.6320535E-4
humid : 1.2240402E-4
follow : 4.488147E-4
improv : 8.160267E-5
intent : 2.0400669E-4
surpass : 8.160267E-5
trade : 2.8560936E-4
mean : 2.0400669E-4
cooper : 8.160267E-5
uproot : 8.160267E-5
further : 3.264107E-4
intend : 1.2240402E-4
