0.007622886182423552
german : 2.9479552E-4
ccc : 4.5559308E-4
half : 3.483947E-4
govern : 8.8438654E-4
ngfa : 5.3599186E-5
enlarg : 1.0719837E-4
analysi : 5.3599186E-5
without : 1.6079756E-4
tea : 5.3599186E-5
successfulli : 5.3599186E-5
would : 0.0034035482
pick : 1.3399796E-4
ten : 8.039878E-5
sometim : 8.039878E-5
saharan : 8.039878E-5
brough : 5.3599186E-5
serv : 8.039878E-5
solid : 5.3599186E-5
reluct : 8.039878E-5
reenter : 8.039878E-5
stabil : 8.039878E-5
tallow : 1.8759715E-4
journalist : 1.8759715E-4
illinoi : 5.3599186E-5
left : 1.3399796E-4
kansa : 5.3599186E-5
much : 3.483947E-4
wine : 5.3599186E-5
glenn : 5.3599186E-5
object : 2.1439674E-4
advoc : 8.039878E-5
ahead : 2.9479552E-4
karachi : 5.3599186E-5
turn : 1.8759715E-4
elect : 1.8759715E-4
polici : 5.8959104E-4
gmt : 1.3399796E-4
result : 9.6478534E-4
ringgit : 5.3599186E-4
commission : 5.3599186E-5
after : 5.3599186E-5
lightn : 1.0719837E-4
hand : 5.3599186E-5
a : 4.287935E-4
penalis : 8.039878E-5
b : 5.3599186E-5
c : 3.751943E-4
deadlin : 8.039878E-5
address : 8.039878E-5
d : 1.3399796E-4
e : 5.0919224E-4
kernel : 4.8239267E-4
chitta : 5.3599186E-5
g : 8.039878E-5
norwai : 2.1439674E-4
i : 6.699898E-4
union : 4.287935E-4
l : 8.039878E-5
asean : 1.0719837E-4
m : 8.039878E-5
blood : 2.1439674E-4
soviet : 1.3399796E-4
n : 5.3599186E-5
the : 0.0038591414
straight : 1.0719837E-4
p : 5.3599186E-5
halt : 5.3599186E-5
r : 0.0018223723
sale : 0.002438763
s : 1.0719837E-4
thi : 2.4119634E-4
t : 5.3599186E-5
u : 0.0038055421
abolit : 1.0719837E-4
w : 2.6799593E-4
sunset : 1.6079756E-4
x : 2.6799593E-4
fifth : 8.039878E-5
y : 1.0719837E-4
regain : 8.039878E-5
demonstr : 8.039878E-5
discuss : 3.751943E-4
standard : 2.4119634E-4
thu : 8.039878E-5
correct : 1.8759715E-4
confront : 5.3599186E-5
good : 5.3599186E-4
radioact : 5.3599186E-5
sharpli : 3.483947E-4
pai : 2.6799593E-4
serious : 1.0719837E-4
implement : 1.8759715E-4
advis : 1.0719837E-4
avert : 1.3399796E-4
ambiti : 5.3599186E-5
export : 0.0034839471
jakarta : 2.4119634E-4
rome : 8.039878E-5
area : 5.3599186E-5
practic : 1.3399796E-4
shipment : 9.6478534E-4
wherea : 5.3599186E-5
european : 0.0011791821
textil : 8.039878E-5
reduc : 4.019939E-4
diseas : 5.627914E-4
list : 1.8759715E-4
resolut : 2.9479552E-4
atlant : 8.039878E-5
miscellan : 5.3599186E-5
weekli : 1.3399796E-4
cif : 7.23589E-4
harm : 5.3599186E-5
febru : 8.039878E-5
wisdom : 1.6079756E-4
denmark : 2.4119634E-4
protectionist : 1.6079756E-4
determin : 1.6079756E-4
germani : 5.8959104E-4
root : 5.3599186E-5
combin : 8.039878E-5
lend : 5.3599186E-5
pct : 0.0018759714
worsen : 8.039878E-5
perform : 2.1439674E-4
peak : 1.3399796E-4
alberta : 8.039878E-5
better : 1.6079756E-4
with : 5.3599186E-5
china : 2.9479552E-4
complaint : 1.0719837E-4
there : 1.8759715E-4
analyst : 8.039878E-5
well : 1.8759715E-4
cancer : 5.3599186E-5
outlook : 5.3599186E-5
gsm : 5.3599186E-5
strongli : 1.0719837E-4
american : 4.287935E-4
cargil : 1.3399796E-4
castorse : 8.039878E-5
block : 1.8759715E-4
per : 8.039878E-4
devalu : 1.8759715E-4
propos : 0.003751943
order : 5.3599186E-5
period : 3.2159511E-4
africa : 2.4119634E-4
went : 5.3599186E-5
revenu : 2.9479552E-4
dismiss : 8.039878E-5
indonesia : 0.0018759714
reform : 1.8759715E-4
winner : 1.0719837E-4
million : 8.039878E-5
even : 1.3399796E-4
bulk : 3.2159511E-4
southeast : 1.0719837E-4
jointli : 5.3599186E-5
wait : 1.0719837E-4
increas : 0.001715174
save : 2.4119634E-4
institut : 8.039878E-5
costli : 5.3599186E-5
restrict : 1.6079756E-4
mondai : 1.8759715E-4
ton : 1.6079756E-4
particularli : 5.3599186E-5
top : 1.0719837E-4
porla : 1.0719837E-4
drawdown : 8.039878E-5
have : 8.039878E-5
kohl : 2.1439674E-4
morrison : 5.3599186E-5
avail : 2.6799593E-4
product : 0.0040467386
question : 1.6079756E-4
bought : 3.2159511E-4
helmut : 8.039878E-5
spirit : 8.039878E-5
asian : 1.0719837E-4
excus : 8.039878E-5
littl : 1.6079756E-4
cheap : 5.3599186E-5
framework : 5.3599186E-5
meanwhil : 8.039878E-5
constraint : 8.039878E-5
rose : 8.039878E-4
thousand : 8.039878E-5
almost : 1.0719837E-4
fuel : 8.039878E-5
republ : 8.039878E-5
proce : 1.8759715E-4
earlier : 6.967894E-4
whether : 1.8759715E-4
west : 6.163906E-4
compensatori : 8.039878E-5
stock : 8.8438654E-4
tindeman : 5.3599186E-5
cpo : 3.751943E-4
guilder : 1.3399796E-4
comparison : 1.3399796E-4
law : 1.0719837E-4
voic : 8.039878E-5
valorem : 5.3599186E-5
less : 3.483947E-4
revers : 1.8759715E-4
unconvinc : 1.0719837E-4
welcom : 8.039878E-5
were : 2.1439674E-4
try : 1.8759715E-4
governor : 5.3599186E-5
basic : 5.3599186E-5
unwant : 5.3599186E-5
fruit : 1.6079756E-4
busi : 1.8759715E-4
fridai : 2.1439674E-4
plywood : 8.039878E-5
respons : 3.2159511E-4
wound : 8.039878E-5
design : 8.039878E-5
extra : 5.3599186E-5
land : 1.3399796E-4
transatlant : 1.0719837E-4
victim : 1.3399796E-4
floor : 1.3399796E-4
levi : 6.163906E-4
encourag : 1.3399796E-4
accord : 3.751943E-4
hectar : 1.3399796E-4
italian : 8.039878E-5
ldc : 5.3599186E-5
conduct : 1.3399796E-4
plu : 5.3599186E-5
lamb : 8.039878E-5
respond : 1.3399796E-4
capita : 5.3599186E-5
disclos : 5.3599186E-5
japan : 4.287935E-4
prev : 2.4119634E-4
led : 2.1439674E-4
uncertain : 2.6799593E-4
concern : 1.0719837E-4
enhanc : 8.039878E-5
mountain : 5.3599186E-5
repugn : 1.3399796E-4
pact : 5.3599186E-5
leo : 5.3599186E-5
state : 0.0025191617
courtesi : 1.0719837E-4
cargo : 9.1118616E-4
eventu : 5.3599186E-5
coffe : 5.3599186E-5
element : 1.6079756E-4
yesterdai : 0.0010719837
stearin : 5.3599186E-5
began : 5.3599186E-5
gener : 2.9479552E-4
want : 2.4119634E-4
bueno : 1.0719837E-4
casein : 1.0719837E-4
forecast : 3.751943E-4
processor : 6.163906E-4
cottonse : 5.3599186E-5
wereng : 1.6079756E-4
must : 4.019939E-4
peke : 5.3599186E-5
anim : 1.3399796E-4
suppli : 5.3599186E-4
cut : 3.2159511E-4
yeutter : 4.287935E-4
realist : 2.6799593E-4
two : 7.23589E-4
stimul : 5.3599186E-5
lard : 1.6079756E-4
attack : 1.6079756E-4
larg : 1.3399796E-4
tariff : 8.57587E-4
acceler : 8.039878E-5
anoth : 2.4119634E-4
advantag : 5.3599186E-5
latest : 5.3599186E-5
think : 2.9479552E-4
surplus : 2.4119634E-4
oilrap : 5.3599186E-5
ppo : 1.8759715E-4
charg : 2.4119634E-4
sugarcan : 5.3599186E-5
speech : 1.3399796E-4
watch : 1.0719837E-4
radiu : 5.3599186E-5
deliber : 1.0719837E-4
thing : 5.3599186E-5
definit : 8.039878E-5
vorm : 8.039878E-5
smith : 5.3599186E-5
fatti : 1.8759715E-4
prepar : 3.2159511E-4
lynch : 5.3599186E-5
lin : 8.039878E-5
batam : 5.3599186E-5
late : 5.3599186E-5
ham : 8.039878E-5
stapl : 5.3599186E-5
entir : 5.3599186E-5
increa : 8.039878E-5
reimburs : 1.0719837E-4
palmkernel : 5.3599186E-5
budget : 2.1439674E-4
actual : 2.1439674E-4
doubl : 1.3399796E-4
given : 5.3599186E-5
tension : 8.039878E-5
last : 6.967894E-4
adapt : 8.039878E-5
hopefulli : 1.8759715E-4
weight : 4.287935E-4
doubt : 5.3599186E-5
develop : 6.4319023E-4
warn : 4.019939E-4
full : 5.3599186E-5
scientist : 1.6079756E-4
sesam : 5.3599186E-5
awar : 8.039878E-5
vote : 0.0011523825
mozambiqu : 1.3399796E-4
durenberg : 5.3599186E-5
argentin : 2.4119634E-4
apparatu : 1.3399796E-4
center : 8.039878E-5
start : 3.751943E-4
yet : 2.9479552E-4
earli : 1.6079756E-4
equal : 1.0719837E-4
chanc : 2.4119634E-4
fund : 1.0719837E-4
chang : 5.627914E-4
upsid : 8.039878E-5
unusu : 5.3599186E-5
financi : 1.3399796E-4
time : 4.5559308E-4
europoort : 5.3599186E-5
circul : 8.039878E-5
palm : 0.0030819532
compris : 1.3399796E-4
program : 9.91585E-4
three : 3.751943E-4
put : 3.751943E-4
sweden : 8.039878E-5
season : 0.0011791821
payment : 1.3399796E-4
enter : 8.039878E-5
unaccept : 5.3599186E-5
applic : 8.039878E-5
pest : 1.3399796E-4
majeur : 8.039878E-5
pressur : 8.039878E-5
iran : 8.039878E-5
iraq : 1.0719837E-4
preced : 8.039878E-5
junior : 5.3599186E-5
jacqu : 8.039878E-5
ethiopia : 3.2159511E-4
light : 1.6079756E-4
quot : 2.4119634E-4
expansionari : 5.3599186E-5
merril : 5.3599186E-5
engin : 8.039878E-5
januari : 5.3599186E-4
unknown : 1.6079756E-4
anti : 8.039878E-5
lot : 1.0719837E-4
panama : 8.039878E-5
premium : 1.0719837E-4
deputi : 8.039878E-5
low : 3.751943E-4
hamburg : 1.3399796E-4
budgetari : 5.3599186E-5
wayn : 1.3399796E-4
belstead : 8.039878E-5
small : 8.039878E-5
pakistan : 6.4319023E-4
dai : 4.287935E-4
dan : 5.3599186E-5
hit : 3.483947E-4
major : 5.627914E-4
shown : 8.039878E-5
religi : 5.3599186E-5
bear : 1.0719837E-4
consider : 1.8759715E-4
group : 3.2159511E-4
island : 5.3599186E-5
resist : 2.4119634E-4
tree : 1.3399796E-4
formal : 8.039878E-5
discriminatori : 8.039878E-5
exchang : 1.3399796E-4
rachmat : 8.039878E-5
tens : 8.039878E-5
scienc : 8.039878E-5
request : 2.9479552E-4
glickman : 1.3399796E-4
part : 2.6799593E-4
incom : 1.0719837E-4
novemb : 8.039878E-5
point : 1.8759715E-4
east : 1.8759715E-4
wollo : 8.039878E-5
harshest : 5.3599186E-5
facil : 8.039878E-5
process : 3.483947E-4
built : 1.3399796E-4
clear : 2.6799593E-4
feedgrain : 1.6079756E-4
meal : 5.8959104E-4
third : 4.5559308E-4
dramat : 8.039878E-5
build : 1.6079756E-4
mean : 8.039878E-5
neither : 1.0719837E-4
meat : 4.287935E-4
cooper : 5.3599186E-5
account : 2.6799593E-4
ident : 5.3599186E-5
addit : 2.4119634E-4
intellig : 5.3599186E-5
beef : 1.6079756E-4
der : 8.039878E-5
mostli : 5.3599186E-5
bind : 1.6079756E-4
bleach : 2.1439674E-4
record : 1.8759715E-4
crisi : 1.6079756E-4
beet : 8.039878E-5
chicago : 5.3599186E-5
gurante : 5.3599186E-5
cuba : 8.039878E-5
clot : 8.039878E-5
pass : 1.3399796E-4
past : 3.751943E-4
impact : 3.751943E-4
milk : 5.3599186E-5
bill : 1.6079756E-4
enthusiast : 1.0719837E-4
especi : 5.3599186E-5
nutrit : 5.3599186E-5
cours : 1.0719837E-4
whose : 5.3599186E-5
buyer : 4.019939E-4
mill : 1.6079756E-4
senior : 8.039878E-5
balletto : 2.4119634E-4
ericksen : 5.3599186E-5
juli : 2.9479552E-4
milder : 8.039878E-5
hoc : 5.3599186E-5
borneo : 8.039878E-5
organ : 5.3599186E-5
corpor : 3.2159511E-4
consecut : 5.3599186E-5
releas : 1.6079756E-4
spark : 1.3399796E-4
philadelphia : 5.3599186E-5
term : 4.019939E-4
spare : 5.3599186E-5
mine : 8.039878E-5
fluctuat : 1.3399796E-4
mind : 1.0719837E-4
chip : 1.0719837E-4
okla : 5.3599186E-5
right : 1.3399796E-4
march : 0.0024119634
opposit : 2.9479552E-4
blast : 5.3599186E-5
minn : 1.0719837E-4
reuter : 0.0012059817
countervail : 5.3599186E-5
insid : 5.3599186E-5
june : 2.4119634E-4
meet : 9.6478534E-4
stage : 8.039878E-5
answer : 8.039878E-5
thursdai : 8.039878E-5
paul : 5.3599186E-5
under : 2.1439674E-4
quarter : 5.3599186E-5
london : 5.8959104E-4
reserv : 1.6079756E-4
deodoris : 1.8759715E-4
down : 5.3599186E-5
hold : 1.6079756E-4
convinc : 5.3599186E-5
later : 4.287935E-4
elabor : 1.6079756E-4
prior : 1.3399796E-4
livestock : 5.3599186E-5
rubber : 1.6079756E-4
algerian : 5.3599186E-5
bracket : 2.6799593E-4
talk : 9.6478534E-4
richard : 1.0719837E-4
subproduct : 2.1439674E-4
grape : 1.3399796E-4
brown : 5.3599186E-5
repli : 1.0719837E-4
take : 4.8239267E-4
month : 0.0013667792
octob : 1.3399796E-4
some : 5.3599186E-5
loan : 1.3399796E-4
virtual : 1.3399796E-4
rather : 1.8759715E-4
back : 4.019939E-4
amstutz : 1.0719837E-4
divis : 5.3599186E-5
edibl : 2.4119634E-4
compani : 1.6079756E-4
underli : 5.3599186E-5
malaysia : 7.503886E-4
univers : 5.3599186E-5
pound : 1.3399796E-4
solv : 8.039878E-5
petit : 1.3399796E-4
load : 1.8759715E-4
human : 1.8759715E-4
primarili : 1.3399796E-4
sold : 5.3599186E-5
manufactur : 5.3599186E-5
asia : 1.6079756E-4
dlr : 0.0030551536
advers : 5.3599186E-5
home : 8.039878E-5
hole : 1.8759715E-4
michael : 8.039878E-5
unpreced : 1.0719837E-4
although : 8.039878E-5
iron : 5.3599186E-5
diplomat : 4.287935E-4
relat : 4.5559308E-4
grant : 1.6079756E-4
explain : 1.0719837E-4
basket : 5.3599186E-5
lunch : 1.6079756E-4
wagner : 8.039878E-5
visibl : 5.3599186E-5
construct : 1.0719837E-4
ignor : 8.039878E-5
hope : 3.483947E-4
elsewher : 8.039878E-5
attempt : 2.4119634E-4
artifici : 1.0719837E-4
soon : 2.4119634E-4
america : 2.1439674E-4
fishoil : 5.3599186E-5
lock : 1.0719837E-4
action : 5.8959104E-4
fear : 5.3599186E-5
margarin : 2.1439674E-4
creat : 1.3399796E-4
made : 5.3599186E-4
mario : 5.3599186E-5
abil : 1.3399796E-4
protest : 6.163906E-4
manag : 1.6079756E-4
marin : 1.6079756E-4
purchas : 8.8438654E-4
moslem : 1.0719837E-4
taupo : 8.039878E-5
singl : 1.6079756E-4
britain : 5.3599186E-4
rotterdam : 2.9479552E-4
natur : 1.0719837E-4
sumatran : 5.3599186E-5
deriv : 5.3599186E-5
machineri : 5.3599186E-5
eight : 1.6079756E-4
plantat : 1.0719837E-4
file : 1.3399796E-4
mai : 9.1118616E-4
known : 8.039878E-5
member : 3.751943E-4
commiss : 7.7718816E-4
steve : 5.3599186E-5
stand : 1.0719837E-4
mar : 2.6799593E-4
stanc : 5.3599186E-5
variou : 5.3599186E-5
within : 2.9479552E-4
could : 6.699898E-4
forward : 1.6079756E-4
strike : 3.751943E-4
health : 5.3599186E-4
urg : 4.287935E-4
cattl : 1.0719837E-4
prospect : 8.039878E-5
mediterranean : 5.3599186E-5
probabl : 5.3599186E-5
inconsist : 2.4119634E-4
return : 1.0719837E-4
subject : 1.3399796E-4
soyoil : 4.287935E-4
feel : 2.4119634E-4
main : 1.0719837E-4
british : 1.3399796E-4
mca : 2.6799593E-4
bail : 1.0719837E-4
convent : 5.3599186E-5
find : 2.6799593E-4
host : 8.039878E-5
commun : 0.0013935788
dri : 5.3599186E-5
grain : 6.699898E-4
radic : 5.3599186E-5
credit : 8.039878E-4
flagrant : 5.3599186E-5
difficult : 8.039878E-5
fill : 8.039878E-5
failur : 8.039878E-5
seriou : 1.3399796E-4
heart : 1.6079756E-4
feed : 4.5559308E-4
clayton : 1.8759715E-4
guarante : 7.23589E-4
servic : 4.287935E-4
professor : 8.039878E-5
specialist : 8.039878E-5
present : 5.3599186E-5
sentiment : 1.3399796E-4
strife : 1.6079756E-4
salvador : 2.4119634E-4
fran : 5.3599186E-5
best : 5.3599186E-5
execut : 1.3399796E-4
hour : 1.0719837E-4
hous : 1.6079756E-4
bale : 6.967894E-4
repeat : 1.0719837E-4
barlei : 8.039878E-5
met : 1.0719837E-4
make : 5.3599186E-4
capit : 2.1439674E-4
fulfil : 5.3599186E-5
spokesman : 5.0919224E-4
abov : 5.3599186E-5
competit : 1.0719837E-4
bert : 5.3599186E-5
tankag : 1.0719837E-4
soyabean : 2.1439674E-4
mfi : 5.3599186E-5
slaughterhous : 8.039878E-5
due : 5.627914E-4
maiz : 1.6079756E-4
domest : 4.019939E-4
bake : 1.6079756E-4
mere : 5.3599186E-5
underlin : 1.6079756E-4
threat : 2.1439674E-4
princip : 8.039878E-5
inform : 1.3399796E-4
pieter : 5.3599186E-5
depend : 8.039878E-5
commit : 8.039878E-5
curb : 2.4119634E-4
rutger : 5.3599186E-5
cover : 4.287935E-4
firm : 1.3399796E-4
reflect : 5.3599186E-5
bank : 1.6079756E-4
cholesterol : 3.483947E-4
immedi : 8.039878E-5
transship : 1.0719837E-4
congression : 8.039878E-5
august : 8.039878E-5
ministri : 5.627914E-4
vitamin : 5.3599186E-5
highest : 1.0719837E-4
declar : 1.6079756E-4
boost : 1.0719837E-4
grower : 1.8759715E-4
male : 5.3599186E-5
qualiti : 1.0719837E-4
fact : 5.3599186E-5
debat : 3.2159511E-4
vigor : 1.0719837E-4
mid : 1.3399796E-4
unjustifi : 5.3599186E-5
global : 8.039878E-5
acquisit : 5.3599186E-5
long : 1.3399796E-4
announc : 2.1439674E-4
mij : 5.3599186E-5
fell : 6.967894E-4
soya : 8.039878E-5
unless : 1.3399796E-4
gazet : 1.3399796E-4
excess : 8.039878E-5
husbandri : 8.039878E-5
industri : 3.2159511E-4
free : 2.4119634E-4
mix : 8.039878E-5
reaction : 8.039878E-5
though : 8.039878E-5
polit : 8.039878E-5
suzann : 5.3599186E-5
commerc : 1.0719837E-4
appear : 4.287935E-4
face : 2.4119634E-4
fish : 1.6079756E-4
progress : 2.1439674E-4
oper : 6.4319023E-4
mani : 1.6079756E-4
open : 2.4119634E-4
ratio : 2.6799593E-4
stai : 1.0719837E-4
linse : 1.6079756E-4
seller : 8.039878E-5
agent : 1.6079756E-4
invest : 8.039878E-5
vigil : 1.6079756E-4
project : 2.4119634E-4
seven : 8.039878E-5
sunflowerse : 2.4119634E-4
imperil : 8.039878E-5
sever : 1.6079756E-4
retaliatori : 1.3399796E-4
tobacco : 8.039878E-5
bare : 5.3599186E-5
five : 1.8759715E-4
laboratori : 5.3599186E-5
idb : 8.039878E-5
felt : 8.039878E-5
look : 2.4119634E-4
mln : 0.0039127404
repres : 2.9479552E-4
coconut : 4.019939E-4
korea : 2.6799593E-4
netherland : 2.6799593E-4
disrupt : 2.9479552E-4
abort : 8.039878E-5
campaign : 1.6079756E-4
vital : 8.039878E-5
conflict : 1.0719837E-4
defer : 5.3599186E-5
arriv : 1.0719837E-4
knock : 8.039878E-5
kritchevski : 1.3399796E-4
lord : 1.0719837E-4
rule : 4.287935E-4
condemn : 1.3399796E-4
everi : 1.0719837E-4
peopl : 1.6079756E-4
summari : 1.0719837E-4
outsid : 8.039878E-5
common : 1.6079756E-4
interest : 1.3399796E-4
appli : 1.8759715E-4
hefti : 8.039878E-5
gulf : 8.039878E-5
depriv : 8.039878E-5
untru : 1.6079756E-4
wonder : 2.4119634E-4
commod : 6.699898E-4
concepcion : 1.8759715E-4
presid : 3.2159511E-4
middl : 5.3599186E-5
sunoil : 5.3599186E-5
commenc : 5.3599186E-5
comment : 4.019939E-4
step : 5.3599186E-5
basi : 4.8239267E-4
base : 8.039878E-5
ireland : 1.6079756E-4
registr : 5.3599186E-4
employ : 1.0719837E-4
intermedi : 5.3599186E-5
septemb : 3.2159511E-4
olein : 9.6478534E-4
minist : 0.0018223723
whole : 8.039878E-5
senat : 3.2159511E-4
preliminari : 5.3599186E-5
venezuela : 2.1439674E-4
agricultur : 0.0017419736
loss : 5.3599186E-5
businessmen : 1.0719837E-4
critic : 4.019939E-4
repris : 1.6079756E-4
susann : 5.3599186E-5
price : 0.0029479552
arabl : 5.3599186E-5
lost : 8.039878E-5
fluegel : 1.3399796E-4
groundnut : 1.0719837E-4
still : 3.2159511E-4
van : 8.039878E-5
work : 3.483947E-4
lose : 1.3399796E-4
hesit : 8.039878E-5
declin : 7.7718816E-4
wors : 1.8759715E-4
fail : 1.3399796E-4
toward : 5.3599186E-5
among : 2.6799593E-4
coverag : 5.3599186E-4
spain : 1.6079756E-4
diesel : 1.3399796E-4
steel : 5.3599186E-5
singapor : 8.039878E-5
algeria : 4.019939E-4
alexandria : 5.3599186E-5
impos : 4.287935E-4
requir : 6.163906E-4
foreign : 5.627914E-4
fall : 7.503886E-4
eas : 5.3599186E-5
decreas : 1.8759715E-4
event : 1.0719837E-4
uruaguai : 5.3599186E-5
agenda : 2.4119634E-4
agenc : 4.019939E-4
pacif : 1.3399796E-4
cannot : 1.8759715E-4
seneg : 8.039878E-5
averag : 8.039878E-4
first : 2.6799593E-4
indian : 2.6799593E-4
mainli : 8.039878E-5
prawiro : 5.3599186E-5
float : 8.039878E-5
tight : 5.3599186E-5
monetari : 1.3399796E-4
telecommun : 5.3599186E-5
ecu : 1.6079756E-4
veg : 2.6799593E-4
stagnat : 1.0719837E-4
depart : 7.7718816E-4
portugues : 5.3599186E-5
swedish : 8.039878E-5
offset : 1.8759715E-4
ill : 5.3599186E-5
opon : 1.0719837E-4
provision : 1.0719837E-4
winter : 1.0719837E-4
egregi : 5.3599186E-5
eep : 3.483947E-4
public : 5.3599186E-5
spend : 8.039878E-5
track : 1.6079756E-4
overal : 1.6079756E-4
fertilis : 2.1439674E-4
trader : 0.0012059817
improv : 8.039878E-5
jack : 5.3599186E-5
emploi : 8.039878E-5
unlik : 2.4119634E-4
trade : 0.003028354
round : 2.1439674E-4
growth : 4.019939E-4
controversi : 1.3399796E-4
oliv : 2.4119634E-4
perman : 5.3599186E-5
year : 0.0041271374
dutch : 1.6079756E-4
temporari : 8.039878E-5
describ : 2.6799593E-4
markedli : 1.0719837E-4
permiss : 1.0719837E-4
quota : 2.4119634E-4
farm : 7.503886E-4
newslett : 8.039878E-5
agreement : 0.0011791821
instruct : 8.039878E-5
raw : 1.6079756E-4
sunflow : 2.6799593E-4
conserv : 5.3599186E-5
furthermor : 8.039878E-5
stop : 5.3599186E-5
rbd : 5.3599186E-4
handl : 1.0719837E-4
detail : 3.2159511E-4
economi : 2.6799593E-4
fate : 5.3599186E-5
least : 8.039878E-5
dollar : 8.039878E-5
aspect : 1.0719837E-4
measur : 3.751943E-4
machin : 8.039878E-5
close : 1.6079756E-4
learn : 1.0719837E-4
abl : 8.039878E-5
unleash : 5.3599186E-5
materi : 2.4119634E-4
fast : 1.6079756E-4
industrialis : 8.039878E-5
exce : 5.3599186E-5
substant : 5.3599186E-5
contribut : 8.039878E-5
specif : 1.8759715E-4
spring : 5.3599186E-5
acid : 3.751943E-4
mylrea : 5.3599186E-5
act : 8.039878E-5
post : 8.039878E-5
rel : 5.3599186E-5
insecticid : 8.039878E-5
rep : 1.6079756E-4
georg : 5.3599186E-5
swift : 5.3599186E-5
add : 8.039878E-5
initi : 1.6079756E-4
need : 2.6799593E-4
steadili : 8.039878E-5
amend : 5.8959104E-4
erupt : 8.039878E-5
equival : 1.0719837E-4
often : 8.039878E-5
massiv : 8.039878E-5
respect : 2.4119634E-4
transact : 1.6079756E-4
canada : 4.019939E-4
port : 2.1439674E-4
washington : 8.57587E-4
antara : 1.0719837E-4
breakdown : 2.1439674E-4
famili : 1.0719837E-4
consequ : 8.039878E-5
prevent : 1.8759715E-4
retend : 4.287935E-4
medan : 1.6079756E-4
attitud : 1.0719837E-4
end : 6.163906E-4
vow : 8.039878E-5
veget : 0.002304765
rich : 8.039878E-5
label : 2.9479552E-4
howev : 1.8759715E-4
rice : 3.2159511E-4
estim : 6.699898E-4
special : 8.039878E-5
togeth : 1.6079756E-4
philippin : 1.3399796E-4
agre : 5.8959104E-4
contempl : 8.039878E-5
specul : 1.0719837E-4
told : 8.039878E-4
ago : 5.3599186E-4
properti : 8.039878E-5
rid : 1.8759715E-4
retali : 0.001581176
number : 3.483947E-4
slightli : 8.039878E-5
malawi : 8.039878E-5
identifi : 1.0719837E-4
stevedor : 5.3599186E-5
glycerin : 3.483947E-4
soyproduct : 8.039878E-5
outbreak : 1.3399796E-4
herman : 5.3599186E-5
narrow : 8.039878E-5
secretariat : 8.039878E-5
shorter : 5.3599186E-5
similar : 5.3599186E-5
invit : 8.039878E-5
tough : 8.039878E-5
system : 4.8239267E-4
issu : 0.0011791821
partial : 8.039878E-5
aid : 4.287935E-4
other : 1.6079756E-4
aim : 2.4119634E-4
against : 1.0719837E-4
dismantl : 1.6079756E-4
air : 1.0719837E-4
tonn : 0.011443426
local : 5.3599186E-5
arifin : 5.3599186E-5
resum : 5.3599186E-5
crude : 8.8438654E-4
defeat : 5.3599186E-4
jurisdict : 8.039878E-5
locat : 8.039878E-5
yield : 4.8239267E-4
speak : 4.8239267E-4
optimist : 8.039878E-5
share : 1.3399796E-4
duim : 5.3599186E-5
deficit : 3.751943E-4
hydroelectr : 5.3599186E-5
tender : 0.0013131801
fisheri : 5.3599186E-5
chairman : 1.0719837E-4
uruguai : 8.039878E-5
bushel : 6.967894E-4
sharp : 5.3599186E-5
notic : 5.3599186E-5
standstil : 5.3599186E-5
citi : 1.0719837E-4
purifi : 1.0719837E-4
cent : 3.2159511E-4
mexican : 5.3599186E-5
spur : 8.039878E-5
neg : 1.3399796E-4
insect : 5.3599186E-5
bureau : 8.039878E-5
net : 1.0719837E-4
complement : 5.3599186E-5
oblig : 4.287935E-4
belgium : 1.6079756E-4
all : 1.6079756E-4
border : 8.039878E-5
new : 9.1118616E-4
took : 8.039878E-5
read : 5.3599186E-5
rapese : 2.4119634E-4
todai : 9.6478534E-4
real : 1.3399796E-4
rumour : 8.039878E-5
unit : 5.8959104E-4
alreadi : 1.3399796E-4
therefor : 8.039878E-5
bodi : 5.3599186E-5
medic : 8.039878E-5
around : 1.6079756E-4
favour : 1.0719837E-4
roi : 5.3599186E-5
badli : 1.6079756E-4
disappoint : 1.0719837E-4
poultri : 8.039878E-5
islam : 8.039878E-5
resolv : 2.4119634E-4
and : 2.9479552E-4
ration : 1.0719837E-4
predict : 1.0719837E-4
row : 1.3399796E-4
dump : 5.3599186E-5
financ : 3.483947E-4
egypt : 2.1439674E-4
tackl : 5.3599186E-5
oilse : 9.1118616E-4
transport : 5.3599186E-5
strategi : 1.0719837E-4
dedic : 5.3599186E-5
committe : 3.2159511E-4
compromis : 1.8759715E-4
previou : 2.6799593E-4
femal : 5.3599186E-5
earmark : 2.9479552E-4
reason : 3.483947E-4
thought : 1.0719837E-4
belgian : 1.0719837E-4
maintain : 5.3599186E-5
turkei : 1.0719837E-4
shift : 1.3399796E-4
ship : 2.4119634E-4
nil : 0.0013131801
compon : 8.039878E-5
cake : 1.3399796E-4
jan : 4.287935E-4
protein : 1.3399796E-4
annual : 2.6799593E-4
english : 1.0719837E-4
zealand : 1.3399796E-4
siregar : 1.0719837E-4
apr : 3.2159511E-4
margin : 3.2159511E-4
circumst : 1.6079756E-4
remain : 1.6079756E-4
reed : 8.039878E-5
countercycl : 5.3599186E-5
demand : 7.503886E-4
blatantli : 5.3599186E-5
slow : 2.1439674E-4
letter : 2.9479552E-4
denman : 1.0719837E-4
recommend : 8.039878E-5
worth : 1.6079756E-4
tropic : 1.8759715E-4
taken : 1.6079756E-4
vanuatu : 1.0719837E-4
vice : 5.3599186E-5
graan : 5.3599186E-5
countertrad : 1.3399796E-4
malaysian : 5.0919224E-4
balanc : 8.039878E-5
asa : 6.967894E-4
tour : 1.8759715E-4
asc : 1.0719837E-4
call : 1.8759715E-4
calm : 5.3599186E-5
metric : 5.3599186E-5
ask : 5.627914E-4
understood : 1.0719837E-4
through : 1.0719837E-4
kalimantan : 5.3599186E-5
oppos : 0.0010183845
strength : 8.039878E-5
run : 1.3399796E-4
enact : 1.8759715E-4
apri : 1.0719837E-4
refin : 8.3078735E-4
research : 8.039878E-5
reorgan : 8.039878E-5
technolog : 5.3599186E-5
either : 1.8759715E-4
view : 3.483947E-4
shortag : 5.3599186E-4
thailand : 1.3399796E-4
huge : 5.3599186E-5
those : 8.039878E-5
croo : 1.6079756E-4
might : 4.019939E-4
holland : 8.039878E-5
nielsen : 1.0719837E-4
dure : 1.3399796E-4
contamin : 5.3599186E-5
lanka : 5.3599186E-5
longer : 1.3399796E-4
aug : 8.039878E-5
introduc : 3.751943E-4
privat : 5.3599186E-5
consum : 5.0919224E-4
cyclon : 5.3599186E-5
cane : 8.039878E-5
crop : 5.3599186E-4
next : 2.6799593E-4
vaccum : 5.3599186E-5
import : 0.0034571474
mood : 1.0719837E-4
submit : 1.0719837E-4
reli : 1.6079756E-4
abolish : 8.039878E-5
book : 1.0719837E-4
show : 3.751943E-4
unspecifi : 5.3599186E-5
cautious : 5.3599186E-5
disappear : 1.8759715E-4
non : 1.3399796E-4
not : 8.039878E-5
central : 2.1439674E-4
capac : 8.039878E-5
fosfa : 8.039878E-5
defend : 2.1439674E-4
nearli : 1.0719837E-4
introduct : 1.3399796E-4
now : 3.751943E-4
statement : 1.0719837E-4
factor : 8.039878E-5
wai : 2.1439674E-4
negoti : 2.9479552E-4
bonn : 2.4119634E-4
associ : 9.6478534E-4
europ : 2.1439674E-4
duti : 0.0010987833
war : 2.9479552E-4
target : 1.3399796E-4
deliveri : 4.5559308E-4
knowledg : 1.0719837E-4
what : 1.8759715E-4
refer : 1.3399796E-4
israel : 5.3599186E-5
bonu : 5.3599186E-5
risk : 2.9479552E-4
rise : 8.3078735E-4
jeddah : 8.039878E-5
leader : 5.3599186E-5
displac : 1.0719837E-4
modest : 8.039878E-5
crush : 5.627914E-4
copra : 5.3599186E-5
fao : 1.0719837E-4
far : 1.8759715E-4
quickli : 5.3599186E-5
fat : 0.0031891516
greec : 8.039878E-5
nearbi : 5.3599186E-5
cash : 1.8759715E-4
plan : 7.7718816E-4
greater : 1.8759715E-4
castor : 2.4119634E-4
case : 1.8759715E-4
give : 5.3599186E-5
grainoi : 5.3599186E-5
sumatra : 2.6799593E-4
lowest : 5.3599186E-5
destin : 5.627914E-4
studi : 2.4119634E-4
consid : 1.0719837E-4
subsidi : 3.751943E-4
futur : 2.6799593E-4
prevail : 5.3599186E-5
bennett : 4.5559308E-4
harsh : 5.3599186E-5
surplu : 3.483947E-4
champaign : 5.3599186E-5
gain : 3.2159511E-4
labour : 1.0719837E-4
arabia : 2.9479552E-4
caus : 2.9479552E-4
stangeland : 5.3599186E-5
violat : 2.4119634E-4
mechan : 1.3399796E-4
protect : 1.3399796E-4
indonesian : 4.287935E-4
stress : 8.039878E-5
fda : 1.0719837E-4
disput : 1.6079756E-4
consumpt : 5.0919224E-4
more : 2.1439674E-4
alon : 1.0719837E-4
greas : 8.039878E-5
kill : 1.6079756E-4
borg : 5.3599186E-5
great : 1.3399796E-4
dairi : 1.0719837E-4
morn : 8.039878E-5
mexico : 1.6079756E-4
usag : 8.039878E-5
onward : 5.3599186E-5
harri : 5.3599186E-5
advanc : 8.039878E-5
certain : 1.3399796E-4
board : 4.5559308E-4
stuff : 5.3599186E-5
feb : 5.0919224E-4
arrest : 1.3399796E-4
januarid : 8.039878E-5
section : 5.3599186E-5
simpli : 8.039878E-5
threaten : 5.3599186E-5
januarin : 8.039878E-5
rain : 1.0719837E-4
dispos : 8.039878E-5
daili : 1.6079756E-4
rais : 5.0919224E-4
usda : 9.1118616E-4
most : 8.039878E-5
market : 8.039878E-4
keen : 1.0719837E-4
cereal : 1.0719837E-4
effect : 8.3078735E-4
elev : 5.3599186E-5
cumul : 5.3599186E-5
sugar : 1.3399796E-4
who : 5.3599186E-5
option : 1.8759715E-4
largest : 2.1439674E-4
dhaka : 5.3599186E-5
reagan : 1.0719837E-4
continu : 6.967894E-4
andriessen : 1.8759715E-4
forbid : 8.039878E-5
highlight : 8.039878E-5
illubabor : 5.3599186E-5
billion : 3.751943E-4
reject : 9.1118616E-4
sai : 0.001447178
peanut : 1.0719837E-4
david : 1.3399796E-4
messag : 1.8759715E-4
oilcak : 1.3399796E-4
breach : 1.0719837E-4
butter : 2.9479552E-4
amount : 4.5559308E-4
move : 1.8759715E-4
linoil : 5.3599186E-5
saw : 8.039878E-5
barter : 5.3599186E-5
iceland : 1.3399796E-4
also : 0.0010451841
enough : 1.8759715E-4
differ : 1.0719837E-4
afternoon : 8.039878E-5
situat : 2.1439674E-4
favor : 1.0719837E-4
fertil : 8.039878E-5
visit : 5.3599186E-5
hopper : 8.039878E-5
user : 8.039878E-5
approv : 0.001447178
extent : 5.3599186E-5
confid : 3.483947E-4
potenti : 2.4119634E-4
unwil : 8.039878E-5
bring : 8.039878E-5
complet : 1.6079756E-4
ban : 1.6079756E-4
offer : 0.0011255828
suffer : 2.1439674E-4
claus : 5.3599186E-5
fix : 1.8759715E-4
rank : 8.039878E-5
fluid : 8.039878E-5
arteri : 8.039878E-5
rang : 2.1439674E-4
despit : 1.0719837E-4
surg : 1.6079756E-4
posit : 1.3399796E-4
ad : 0.0028675564
grow : 1.3399796E-4
elig : 1.6079756E-4
am : 8.039878E-5
an : 1.3399796E-4
secur : 1.3399796E-4
saudi : 1.3399796E-4
extend : 1.6079756E-4
ar : 5.3599186E-5
as : 8.039878E-5
at : 2.4119634E-4
lyng : 1.3399796E-4
constitut : 8.039878E-5
plant : 4.5559308E-4
drive : 8.039878E-5
deal : 3.483947E-4
strong : 3.751943E-4
be : 5.3599186E-5
scheme : 2.1439674E-4
hardlin : 5.3599186E-5
affect : 4.5559308E-4
tallowg : 1.6079756E-4
rape : 1.6079756E-4
see : 1.8759715E-4
domin : 2.4119634E-4
subsid : 5.3599186E-5
rapesunflow : 5.3599186E-5
by : 1.0719837E-4
civil : 5.3599186E-5
franc : 1.3399796E-4
wheat : 0.0011791821
insuffici : 5.3599186E-5
panel : 3.2159511E-4
deleg : 5.8959104E-4
sen : 8.039878E-5
set : 1.6079756E-4
contain : 2.4119634E-4
incorrect : 2.9479552E-4
sex : 5.3599186E-5
unprofit : 8.039878E-5
food : 9.379857E-4
figur : 8.3078735E-4
partner : 3.2159511E-4
equiti : 5.3599186E-5
interview : 5.3599186E-5
jul : 1.3399796E-4
formid : 5.3599186E-5
de : 1.3399796E-4
jun : 1.3399796E-4
offic : 5.3599186E-5
bek : 8.039878E-5
forc : 1.8759715E-4
realloc : 1.0719837E-4
wor : 8.039878E-5
ec : 0.004823927
which : 1.3399796E-4
signific : 1.0719837E-4
el : 8.039878E-5
fnv : 5.3599186E-5
danforth : 5.3599186E-5
fob : 1.6079756E-4
activ : 2.4119634E-4
western : 5.3599186E-5
compar : 8.57587E-4
frame : 1.0719837E-4
indic : 4.287935E-4
criticis : 1.0719837E-4
origin : 2.4119634E-4
for : 5.0919224E-4
depress : 5.3599186E-5
india : 3.751943E-4
content : 2.1439674E-4
burden : 8.039878E-5
hover : 1.0719837E-4
warehous : 8.039878E-5
overhang : 8.039878E-5
rate : 4.019939E-4
await : 5.3599186E-5
ga : 5.3599186E-5
promot : 1.3399796E-4
sir : 5.3599186E-5
battl : 5.3599186E-5
oilf : 2.4119634E-4
spanish : 8.039878E-5
six : 5.3599186E-5
go : 1.8759715E-4
gatt : 6.4319023E-4
counter : 8.039878E-5
oill : 5.3599186E-5
counten : 8.039878E-5
form : 1.3399796E-4
farmer : 0.0011255828
ha : 5.3599186E-5
avoid : 1.8759715E-4
renew : 8.039878E-5
bid : 1.0719837E-4
fresh : 1.3399796E-4
prompt : 1.0719837E-4
he : 8.3078735E-4
astonish : 1.0719837E-4
big : 8.039878E-5
postpon : 8.039878E-5
hi : 5.3599186E-5
expert : 8.039878E-5
select : 5.3599186E-5
congress : 1.6079756E-4
canadian : 1.3399796E-4
output : 0.0011523825
promis : 8.039878E-5
corner : 1.0719837E-4
four : 3.751943E-4
vessel : 1.6079756E-4
subsidis : 8.039878E-5
decemb : 2.1439674E-4
join : 8.039878E-5
decis : 2.1439674E-4
if : 1.3399796E-4
oct : 5.3599186E-5
in : 7.503886E-4
director : 2.1439674E-4
lower : 4.5559308E-4
termin : 4.019939E-4
tomorrow : 8.3078735E-4
hormon : 1.0719837E-4
is : 8.039878E-5
wistar : 5.3599186E-5
it : 8.039878E-4
fry : 5.3599186E-5
decid : 1.0719837E-4
surviv : 1.0719837E-4
reduct : 1.3399796E-4
gave : 2.6799593E-4
john : 8.039878E-5
begin : 2.6799593E-4
valu : 7.7718816E-4
brought : 1.6079756E-4
widen : 1.0719837E-4
weekend : 3.751943E-4
ussr : 2.9479552E-4
believ : 2.6799593E-4
soymeal : 2.9479552E-4
world : 0.0010987833
slump : 1.3399796E-4
groundnutse : 1.3399796E-4
penal : 5.3599186E-5
soybean : 0.0023583642
bread : 5.3599186E-5
side : 1.3399796E-4
break : 5.3599186E-5
itali : 3.2159511E-4
off : 5.3599186E-5
bacon : 5.3599186E-5
tunisia : 5.3599186E-5
lb : 0.0012059817
report : 0.0019563702
le : 1.0719837E-4
lo : 5.3599186E-5
constant : 5.3599186E-5
receiv : 1.8759715E-4
sign : 3.2159511E-4
cotton : 5.8959104E-4
angel : 5.3599186E-5
soi : 1.0719837E-4
northern : 8.039878E-5
anger : 1.3399796E-4
rupiah : 1.8759715E-4
second : 1.6079756E-4
that : 1.3399796E-4
high : 5.0919224E-4
yemen : 2.6799593E-4
split : 8.039878E-5
limit : 2.6799593E-4
claim : 1.6079756E-4
sepemb : 5.3599186E-5
administr : 6.163906E-4
mo : 5.3599186E-5
level : 0.0011523825
author : 6.163906E-4
survei : 5.3599186E-5
establish : 3.483947E-4
daniel : 5.3599186E-5
expand : 5.3599186E-5
bob : 5.3599186E-5
fiscal : 2.1439674E-4
habibi : 1.3399796E-4
morocco : 8.039878E-5
produc : 0.0013131801
kang : 5.3599186E-5
legisl : 1.8759715E-4
no : 5.3599186E-5
bridg : 8.039878E-5
schedul : 1.0719837E-4
switch : 1.8759715E-4
head : 2.1439674E-4
total : 0.0010719837
deni : 2.1439674E-4
oil : 0.014927373
communci : 1.0719837E-4
breakdwon : 5.3599186E-5
of : 2.6799593E-4
heal : 1.6079756E-4
kan : 5.3599186E-5
possibl : 2.1439674E-4
involv : 2.1439674E-4
fight : 1.3399796E-4
on : 0.0010987833
blah : 1.0719837E-4
purpos : 1.3399796E-4
technic : 5.3599186E-5
or : 1.3399796E-4
lobbi : 4.8239267E-4
embark : 8.039878E-5
cross : 8.039878E-5
sri : 5.3599186E-5
confer : 4.8239267E-4
comprehens : 5.3599186E-5
extrem : 5.3599186E-5
equip : 1.8759715E-4
kuala : 1.6079756E-4
offici : 9.379857E-4
easier : 8.039878E-5
dominican : 5.3599186E-5
handler : 8.039878E-5
salad : 3.2159511E-4
nation : 7.7718816E-4
stood : 1.0719837E-4
censu : 8.039878E-5
oilshorten : 2.4119634E-4
factori : 1.6079756E-4
damag : 1.8759715E-4
strengthen : 8.039878E-5
nonbind : 5.3599186E-5
drawn : 5.3599186E-5
recent : 2.9479552E-4
stc : 2.4119634E-4
varieti : 2.9479552E-4
old : 8.039878E-5
australia : 1.3399796E-4
them : 1.0719837E-4
thei : 2.6799593E-4
cattlemen : 5.3599186E-5
edmonton : 5.3599186E-5
jopl : 1.0719837E-4
includ : 8.57587E-4
adopt : 3.2159511E-4
ulrich : 5.3599186E-5
islamabad : 5.3599186E-5
sub : 8.039878E-5
access : 1.6079756E-4
secretari : 4.287935E-4
currenc : 1.3399796E-4
seed : 1.6079756E-4
arlan : 5.3599186E-5
nspa : 1.8759715E-4
overproduct : 8.039878E-5
sun : 8.039878E-5
yearli : 5.3599186E-5
seen : 5.3599186E-4
kei : 1.3399796E-4
seem : 4.287935E-4
current : 5.8959104E-4
seaforth : 8.039878E-5
persist : 5.3599186E-5
conjunct : 1.0719837E-4
so : 1.8759715E-4
calendar : 1.8759715E-4
intern : 8.039878E-5
lumpur : 1.6079756E-4
jose : 8.039878E-5
closer : 8.039878E-5
pledg : 1.0719837E-4
emerg : 1.6079756E-4
increasingli : 5.3599186E-5
th : 8.039878E-5
ti : 1.3399796E-4
bui : 3.483947E-4
remov : 5.3599186E-5
dealer : 1.6079756E-4
assist : 8.039878E-5
to : 6.4319023E-4
fourth : 8.039878E-5
but : 3.751943E-4
shortfal : 1.3399796E-4
sorghum : 8.039878E-5
expens : 2.9479552E-4
express : 8.039878E-5
zero : 1.6079756E-4
countri : 0.00198317
ramadan : 2.9479552E-4
subsequ : 5.3599186E-5
up : 1.6079756E-4
provok : 8.039878E-5
sector : 4.8239267E-4
us : 8.3078735E-4
delor : 1.0719837E-4
tonnag : 1.6079756E-4
solut : 1.0719837E-4
burdensom : 5.3599186E-5
brake : 8.039878E-5
taiwan : 1.0719837E-4
chancellor : 8.039878E-5
recess : 1.3399796E-4
outspoken : 5.3599186E-5
interag : 1.3399796E-4
know : 2.1439674E-4
electr : 5.3599186E-5
region : 1.6079756E-4
vs : 8.039878E-5
support : 4.287935E-4
sinc : 4.287935E-4
higher : 3.483947E-4
drop : 2.9479552E-4
protecionist : 5.3599186E-5
brazil : 1.3399796E-4
idea : 1.0719837E-4
wa : 1.0719837E-4
unchang : 1.8759715E-4
we : 5.0919224E-4
life : 1.8759715E-4
licenc : 7.503886E-4
throughout : 5.3599186E-5
choic : 2.6799593E-4
normal : 1.3399796E-4
slight : 8.039878E-5
previous : 2.1439674E-4
wide : 5.3599186E-5
licens : 1.3399796E-4
recognis : 8.039878E-5
weaker : 5.3599186E-5
distribut : 5.3599186E-5
drought : 1.3399796E-4
bangladesh : 1.8759715E-4
redund : 8.039878E-5
countermeasur : 1.3399796E-4
sourc : 2.1439674E-4
individu : 8.039878E-5
held : 1.8759715E-4
reach : 1.0719837E-4
react : 1.0719837E-4
type : 1.6079756E-4
ye : 5.3599186E-5
april : 0.0013667792
realis : 8.039878E-5
problem : 2.6799593E-4
cogeca : 8.039878E-5
road : 5.3599186E-5
hazard : 8.039878E-5
review : 3.2159511E-4
tighten : 5.3599186E-5
between : 5.3599186E-5
contract : 2.6799593E-4
come : 2.9479552E-4
banker : 8.039878E-5
push : 1.0719837E-4
undersecretari : 5.3599186E-5
regist : 2.1439674E-4
feder : 8.039878E-5
ecuador : 1.0719837E-4
south : 5.3599186E-4
freight : 8.039878E-5
north : 1.3399796E-4
yusuf : 5.3599186E-5
our : 5.3599186E-5
gem : 1.0719837E-4
weak : 8.039878E-5
out : 8.039878E-5
climat : 1.0719837E-4
get : 1.3399796E-4
stabilis : 1.8759715E-4
statist : 1.8759715E-4
packag : 2.1439674E-4
place : 1.6079756E-4
leav : 1.3399796E-4
festiv : 5.3599186E-5
provoc : 5.3599186E-5
cook : 1.0719837E-4
bigger : 5.3599186E-5
sell : 1.3399796E-4
suggest : 2.1439674E-4
naphtha : 8.039878E-5
lead : 3.751943E-4
expect : 0.0012327812
help : 3.2159511E-4
copa : 8.039878E-5
assess : 5.3599186E-5
molass : 5.3599186E-5
revis : 7.503886E-4
date : 1.0719837E-4
satur : 4.5559308E-4
argument : 1.6079756E-4
reiter : 5.3599186E-5
reveal : 8.039878E-5
saleh : 2.1439674E-4
tuesdai : 2.4119634E-4
corp : 5.3599186E-5
data : 5.3599186E-5
corn : 4.019939E-4
own : 5.3599186E-5
begun : 5.3599186E-5
drum : 1.3399796E-4
drug : 5.3599186E-5
barrier : 2.4119634E-4
argentina : 8.039878E-5
hagu : 1.6079756E-4
should : 5.3599186E-5
econom : 3.2159511E-4
sens : 1.3399796E-4
portug : 4.019939E-4
upcom : 5.3599186E-5
like : 0.0012863805
embassi : 1.8759715E-4
tax : 0.0064855013
sent : 1.0719837E-4
council : 5.0919224E-4
reaffirm : 1.0719837E-4
ground : 1.8759715E-4
here : 1.0719837E-4
note : 4.8239267E-4
week : 0.0016883743
regret : 8.039878E-5
line : 4.287935E-4
noth : 8.039878E-5
deliv : 1.6079756E-4
becom : 1.6079756E-4
provis : 8.039878E-5
tung : 1.3399796E-4
infloresc : 5.3599186E-5
cap : 8.039878E-5
cypru : 8.039878E-5
februari : 0.0012059817
said : 0.02371764
provid : 5.8959104E-4
realli : 1.0719837E-4
cost : 8.8438654E-4
sept : 8.039878E-5
will : 8.039878E-5
intens : 5.3599186E-5
follow : 5.0919224E-4
categori : 1.3399796E-4
cbt : 5.3599186E-5
delhi : 8.039878E-5
brussel : 3.483947E-4
